Sex,Name,CyrillicName,Tested,WeightClassKg,Event,Equipment,Division,BirthDate,BodyweightKg,Team,Squat1Kg,Squat2Kg,Squat3Kg,Best3SquatKg,Squat4Kg,Bench1Kg,Bench2Kg,Bench3Kg,Best3BenchKg,Bench4Kg,Deadlift1Kg,Deadlift2Kg,Deadlift3Kg,Best3DeadliftKg,Deadlift4Kg,TotalKg,Place
F,Natalya Krikunova,Наталья Крикунова,Yes,48,SBD,Raw,Pro Open,1981-07-19,46.5,лично,95,100,-102.5,100,,60,65,-67.5,65,,122.5,127.5,132.5,132.5,,297.5,1
F,Liliya Smirnova,Лилия Смирнова,Yes,48,SBD,Raw,Pro Open,1973-07-03,46.7,лично,90,95,-100,95,,57.5,-62.5,62.5,62.5,,-115,120,125,125,,282.5,2
F,Liliya Smirnova,Лилия Смирнова,Yes,48,SBD,Raw,Pro Masters 40-44,1973-07-03,46.7,лично,90,95,-100,95,,57.5,-62.5,62.5,62.5,,-115,120,125,125,,282.5,1
F,Regina Kozhina,Регина Кожина,Yes,52,SBD,Raw,Pro Teen 18-19,1995-11-21,50.4,лично,82.5,87.5,-95,87.5,,50,52.5,55,55,,92.5,97.5,100,100,,242.5,1
F,Tatyana Kargina,Татьяна Каргина,Yes,52,SBD,Raw,Pro Open,1979-09-16,51.5,лично,80,90,-100,90,,45,50,55,55,,120,130,135,135,,280,1
F,Elena Yanushkovskaya,Елена Янушковская,Yes,52,SBD,Raw,Pro Open,1992-09-25,51.8,лично,85,87.5,-90,87.5,,55,57.5,60,60,,115,117.5,-122.5,117.5,,265,2
F,Tatyana Nazarova,Татьяна Назарова,Yes,56,SBD,Raw,Pro Open,1980-09-16,55.1,лично,85,90,92.5,92.5,,47.5,50,-52.5,50,,115,117.5,120,120,,262.5,1
F,Marina Igitkhanyan,Марина Игитханян,Yes,56,SBD,Raw,Pro Open,1986-11-04,55.3,лично,70,-80,80,80,,40,-45,-45,40,,100,-115,-120,100,,220,2
F,Marina Yakovleva,Марина Яковлева,Yes,56,SBD,Raw,Pro Masters 50-54,1962-06-16,53.9,лично,60,70,-75,70,,40,45,-47.5,45,,90,100,110,110,,225,1
F,Elizaveta Shinkareva,Елизавета Шинкарева,Yes,60,SBD,Raw,Pro Teen 16-17,1998-01-01,59.8,лично,-100,100,105,105,,62.5,67.5,-70,67.5,,115,122.5,127.5,127.5,,300,1
F,Elizaveta Shinkareva,Елизавета Шинкарева,Yes,60,SBD,Raw,Pro Open,1998-01-01,59.8,лично,-100,100,105,105,,62.5,67.5,-70,67.5,,115,122.5,127.5,127.5,,300,1
F,Olga Gaponenko,Ольга Гапоненко,Yes,60,SBD,Raw,Pro Open,1987-05-02,58.5,лично,75,82.5,90,90,,47.5,52.5,55,55,,85,92.5,-100,92.5,,237.5,2
F,Oksana Fomenko,Оксана Фоменко,Yes,67.5,SBD,Raw,Pro Open,1988-07-28,67.2,Паллада,107.5,115,117.5,117.5,,60,-67.5,-67.5,60,,125,135,145,145,,322.5,1
F,Elena Laur,Елена Лаур,Yes,67.5,SBD,Raw,Pro Open,1983-01-02,64.3,лично,90,-95,-97.5,90,,45,50,-55,50,,95,105,110,110,,250,2
F,Darya Frolkina,Дарья Фролкина,Yes,67.5,SBD,Raw,Pro Open,1987-12-23,63.5,лично,-80,-85,87.5,87.5,,50,55,-60,55,,90,97.5,105,105,,247.5,3
F,Tatyana Obraztsova,Татьяна Образцова,Yes,75,SBD,Raw,Pro Open,1978-07-02,68.6,лично,100,110,115,115,,65,-70,-70,65,,120,127.5,132.5,132.5,,312.5,1
F,Anna Ilinskaya,Анна Ильинская,Yes,75,SBD,Raw,Pro Open,1987-08-07,71.6,Sculptors,120,127.5,-132.5,127.5,,57.5,-60,,57.5,,120,127.5,-135,127.5,,312.5,2
F,Irina Kupreeva,Ирина Купреева,Yes,75,SBD,Raw,Pro Open,1990-06-30,71.8,лично,-70,-70,-100,,,-50,,,,,-100,,,,,,DQ
M,Leon Gurin,Леон Гурин,Yes,56,SBD,Raw,Pro Teen 16-17,1999-01-01,55.3,лично,80,87.5,97.5,97.5,,75,82.5,-87.5,82.5,,90,97.5,105,105,,285,1
M,Vladimir Bazhenov,Владимир Баженов,Yes,60,SBD,Raw,Pro Juniors 20-23,1993-07-04,59.2,Team Bregan,130,142.5,150,150,,102.5,110,120,120,-127.5,180,192.5,-212.5,192.5,,462.5,1
M,Oleg Konstantinov,Олег Константинов,Yes,67.5,SBD,Raw,Pro Open,1989-10-10,65.8,лично,135,140,145,145,,105,110,-112.5,110,,-190,-190,190,190,,445,1
M,Sergey Krupka,Сергей Крупка,Yes,75,SBD,Raw,Pro Teen 13-15,2000-11-08,72.7,лично,-100,100,105,105,,65,70,75,75,,155,160,170,170,,350,1
M,Igor Podkopaev,Игорь Подкопаев,Yes,75,SBD,Raw,Pro Teen 16-17,1997-07-20,74.3,лично,130,140,-145,140,,97.5,105,-107.5,105,,60,-100,,60,,305,1
M,Ruben Davidyan,Рубен Давидян,Yes,75,SBD,Raw,Pro Juniors 20-23,1992-03-24,71,лично,170,180,190,190,,125,135,-140,135,,225,240,-250,240,,565,1
M,Marat Kurdanov,Марат Курданов,Yes,75,SBD,Raw,Pro Juniors 20-23,1993-08-31,74.3,лично,140,150,155,155,,100,105,-110,105,,200,215,-227.5,215,,475,2
M,Stanislav Vorobev,Станислав Воробьев,Yes,75,SBD,Raw,Pro Juniors 20-23,1994-04-28,71.1,лично,135,140,-145,140,,95,102.5,107.5,107.5,,160,170,180,180,,427.5,3
M,Marufzhan Sabirov,Маруфжан Сабиров,Yes,75,SBD,Raw,Pro Open,1982-10-26,73.9,Team Bregan,160,165,-170,165,,110,-115,,110,,210,220,-230,220,,495,1
M,Dmitriy Yarmukhametov,Дмитрий Ярмухаметов,Yes,75,SBD,Raw,Pro Open,1979-06-15,70.2,лично,155,-165,165,165,,-105,105,-112.5,105,,180,192.5,200,200,,470,2
M,Sergey Alampiev,Сергей Алампиев,Yes,75,SBD,Raw,Pro Masters 55-59,1957-04-07,71.1,лично,142.5,150,155,155,,90,95,-100,95,,180,205,215,215,,465,1
M,Daniil Nasyrov,Даниил Насыров,Yes,82.5,SBD,Raw,Pro Teen 13-15,1999-06-30,80.4,Паллада,-110,120,130,130,,90,97.5,102.5,102.5,,130,142.5,-150,142.5,,375,1
M,Stanislav Tsymbarenko,Станислав Цымбаренко,Yes,82.5,SBD,Raw,Pro Teen 16-17,1997-12-16,76.6,лично,-135,145,155,155,,115,-120,-120,115,,210,-220,-220,210,,480,1
M,Evgeniy Sokolov,Евгений Соколов,Yes,82.5,SBD,Raw,Pro Teen 18-19,1996-08-20,76.8,Russia,135,-145,150,150,,95,100,105,105,,200,215,220,220,-230,475,1
M,Sergey Zakabluk,Сергей Закаблук,Yes,82.5,SBD,Raw,Pro Teen 18-19,1997-05-21,78.9,лично,145,150,-155,150,,95,100,-105,100,,145,152.5,160,160,,410,2
M,Andrey Pavlov #9,Андрей Павлов,Yes,82.5,SBD,Raw,Pro Juniors 20-23,1994-04-08,78.9,лично,190,-200,-200,190,,145,147.5,-150,147.5,,210,220,230,230,,567.5,1
M,Ioann Botantsov,Иоанн Ботанцов,Yes,82.5,SBD,Raw,Pro Juniors 20-23,1992-08-10,81.3,лично,180,-190,190,190,,117.5,122.5,-125,122.5,,195,200,-205,200,,512.5,2
M,Aleksandr Kharchenko,Александр Харченко,Yes,82.5,SBD,Raw,Pro Juniors 20-23,1993-04-22,78.4,лично,155,-165,,155,,120,125,130,130,,170,175,,175,,460,3
M,Dmitriy Timofeev,Дмитрий Тимофеев,Yes,82.5,SBD,Raw,Pro Open,1987-02-21,78.8,лично,215,225,230,230,,150,-155,,150,,275,-280,-280,275,,655,1
M,Vasiliy Perov,Василий Перов,Yes,82.5,SBD,Raw,Pro Open,1979-03-06,81.2,Паллада,210,220,225,225,,152.5,-162.5,-162.5,152.5,,250,-265,-280,250,,627.5,2
M,Grigoriy Yudin,Григорий Юдин,Yes,82.5,SBD,Raw,Pro Open,1985-06-06,78.6,лично,200,210,220,220,,130,-140,140,140,,185,195,-202.5,195,,555,3
M,Mikhail Emelin,Михаил Емелин,Yes,82.5,SBD,Raw,Pro Open,1984-10-02,80.9,лично,165,170,175,175,,120,125,130,130,,-185,205,-215,205,,510,4
M,Petr Kutyrev,Петр Кутырев,Yes,82.5,SBD,Raw,Pro Open,1989-08-13,80.4,лично,-145,145,-150,145,,95,100,-102.5,100,,180,-187.5,-190,180,,425,5
M,Kostyantin Chernov,Костянтин Чернов,Yes,82.5,SBD,Raw,Pro Open,1984-11-24,80.8,лично,210,-220,-225,210,,-160,-160,-160,,,-230,,,,,,DQ
M,Igor Skripnik,,Yes,82.5,SBD,Raw,Pro Open,1977-09-14,81.5,лично,-150,-150,,,,-127.5,,,,,-170,,,,,,DQ
M,Aleksey Molochkov,Алексей Молочков,Yes,82.5,SBD,Raw,Pro Masters 50-54,1962-08-08,81.5,лично,145,152.5,165,165,,125,130,-132.5,130,,-165,170,-190,170,,465,1
M,Aleksandr Mikhaylov,Александр Михайлов,Yes,82.5,SBD,Raw,Pro Masters 55-59,1958-12-09,81.1,Динамит,110,-120,-120,110,,-77.5,77.5,,77.5,,130,140,150,150,,337.5,1
M,Valeriy Khomenko,Валерий Хоменко,Yes,82.5,SBD,Raw,Pro Masters 60-64,1951-09-03,77.2,лично,120,130,-140,130,,80,-85,-85,80,,160,180,190,190,,400,1
M,Aleksandr Zotov,Александр Зотов,Yes,90,SBD,Raw,Pro Teen 16-17,1998-02-10,86.6,лично,150,170,-180,170,,100,110,-120,110,,150,160,170,170,,450,1
M,Evgeniy Pavlov,Євгеній Павлов,Yes,90,SBD,Raw,Pro Teen 18-19,1996-05-31,83.7,лично,145,152.5,-162.5,152.5,,100,110,-112.5,110,,-155,-155,,,,,DQ
M,Artem Kukin,Артем Кукин,Yes,90,SBD,Raw,Pro Juniors 20-23,1991-07-22,88.5,лично,140,155,170,170,,-120,130,137.5,137.5,,140,155,170,170,,477.5,1
M,Nikolay Karakcheev,Николай Каракчеев,Yes,90,SBD,Raw,Pro Open,1974-06-18,89.1,лично,220,240,-250,240,,150,160,-170,160,,250,270,-287.5,270,,670,1
M,Yuriy Sakharov,Юрий Сахаров,Yes,90,SBD,Raw,Pro Open,1986-12-07,89.7,лично,200,215,-225,215,,120,127.5,132.5,132.5,,230,245,257.5,257.5,,605,2
M,Aleksandr Chashchin,Александр Чащин,Yes,90,SBD,Raw,Pro Open,1987-06-15,84.9,лично,190,205,212.5,212.5,,130,140,150,150,,200,225,240,240,,602.5,3
M,Evgeniy Usov,Евгений Усов,Yes,90,SBD,Raw,Pro Open,1987-12-18,85.3,Alex Fitness,-180,180,200,200,,120,135,-145,135,,210,220,-230,220,,555,4
M,Evgeniy Vladimirov,Евгений Владимиров,Yes,90,SBD,Raw,Pro Open,1964-08-22,88.6,лично,200,210,-215,210,,130,-135,-135,130,,200,210,-215,210,,550,5
M,Denis Balabin,Денис Балабин,Yes,90,SBD,Raw,Pro Open,1978-11-06,87.3,лично,180,-195,-195,180,,120,130,-132.5,130,,210,-225,-225,210,,520,6
M,Pavel Bogutskiy,Павел Богуцкий,Yes,90,SBD,Raw,Pro Open,1989-05-28,83.3,лично,-140,-140,140,140,,-120,120,-125,120,,160,170,-175,170,,430,7
M,Nikolay Karakcheev,Николай Каракчеев,Yes,90,SBD,Raw,Pro Masters 40-44,1974-06-18,89.1,лично,220,240,-250,240,,150,160,-170,160,,250,270,-287.5,270,,670,1
M,Andrey Kazarov,Андрей Казаров,Yes,90,SBD,Raw,Pro Masters 45-49,1966-02-28,89.1,лично,190,200,,200,,122.5,127.5,-132.5,127.5,,190,-200,,190,,517.5,1
M,Evgeniy Vladimirov,Евгений Владимиров,Yes,90,SBD,Raw,Pro Masters 50-54,1964-08-22,88.6,лично,200,210,-215,210,,130,-135,-135,130,,200,210,-215,210,,550,1
M,Valeriy Ten,Валерий Тен,Yes,90,SBD,Raw,Pro Masters 50-54,1962-10-07,89.4,лично,150,-155,155,155,,135,140,142.5,142.5,,-160,160,170,170,,467.5,2
M,Vyacheslav Chevordaev,Вячеслав Чевордаев,Yes,90,SBD,Raw,Pro Masters 65-69,1948-04-06,88.6,лично,180,190,200,200,,95,100,-102.5,100,,200,-210,-220,200,,500,1
M,Valeriy Nugumanov,Валерий Нугуманов,Yes,90,SBD,Raw,Pro Masters 75-79,1939-06-25,88.6,лично,140,150,160,160,,90,95,100,100,,160,170,180,180,,440,1
M,Evgeniy Syuzyumov,Евгений Сюзюмов,Yes,100,SBD,Raw,Pro Teen 16-17,1997-09-25,94,лично,185,190,205,205,,120,127.5,132.5,132.5,,235,245,255,255,,592.5,1
M,Anton Ilyasov,Антон Илясов,Yes,100,SBD,Raw,Pro Open,1988-11-25,97.6,лично,235,245,-257.5,245,,150,157.5,-160,157.5,,325,340,347.5,347.5,,750,1
M,Aleksey Vasilev,Алексей Васильев,Yes,100,SBD,Raw,Pro Open,1979-10-27,98.9,Динамит,-190,190,200,200,,170,180,-185,180,,230,240,250,250,,630,2
M,Nikolay Mingalov,Николай Мингалов,Yes,100,SBD,Raw,Pro Open,1981-06-15,98,max-gym,190,200,-207.5,200,,140,145,150,150,,210,230,235,235,,585,3
M,Konstantin Seregin,Константин Серегин,Yes,100,SBD,Raw,Pro Open,1978-01-19,97.6,лично,190,200,205,205,,120,125,-127.5,125,,240,-250,250,250,,580,4
M,Rifkat Latypov,Рифкат Латыпов,Yes,100,SBD,Raw,Pro Open,1987-02-02,92.1,Team Bregan,155,-160,162.5,162.5,,85,95,102.5,102.5,,180,200,210,210,,475,5
M,Kirill Gavrilov,Кирилл Гаврилов,Yes,110,SBD,Raw,Pro Teen 18-19,1997-05-21,108.8,лично,-180,190,195,195,,115,-120,120,120,,160,-180,,160,,475,1
M,Leontiy Miroshnik,Леонтій Мірошник,Yes,110,SBD,Raw,Pro Open,1989-01-12,102.1,лично,230,240,247.5,247.5,,125,-132.5,135,135,,260,272.5,277.5,277.5,,660,1
M,Valeriy Yakovlev,Валерий Яковлев,Yes,110,SBD,Raw,Pro Open,1980-12-26,104.8,лично,190,210,220,220,,145,157.5,165,165,,210,240,-275,240,,625,2
M,Aleksey Khatkevich,Алексей Хаткевич,Yes,110,SBD,Raw,Pro Open,1988-11-28,108.5,лично,180,195,-202.5,195,,150,160,165,165,,240,250,-260,250,,610,3
M,Timofey Ivanov,Тимофей Иванов,Yes,110,SBD,Raw,Pro Open,1985-09-20,109.3,лично,-180,-185,185,185,,155,-160,-160,155,,200,215,-220,215,,555,4
M,Igor Sharapov,Игорь Шарапов,Yes,110,SBD,Raw,Pro Masters 40-44,1971-10-30,109.7,лично,225,240,250,250,,165,175,180,180,,245,260,270,270,,700,1
M,Miroslav Shlapak,Мирослав Шлапак,Yes,110,SBD,Raw,Pro Masters 45-49,1968-08-12,108,лично,210,220,-225,220,,160,165,-170,165,,260,270,-273,270,,655,1
M,Aleksey Averyanov,Алексей Аверьянов,Yes,125,SBD,Raw,Pro Juniors 20-23,1993-08-05,111.3,лично,205,215,225,225,,145,-155,-160,145,,230,245,255,255,-260.5,625,1
M,Zhakhongir Dadaboev,Жахонгир Дадабоев,Yes,125,SBD,Raw,Pro Juniors 20-23,1992-06-15,115.1,лично,185,195,-205,195,,160,165,170,170,,240,250,-260,250,,615,2
M,Ruslan Belyy,Руслан Белый,Yes,125,SBD,Raw,Pro Open,1976-01-05,116,Олимп,210,230,235,235,,170,-175,175,175,,220,230,235,235,,645,1
M,Vladimir Polivanov,Владимир Поливанов,Yes,125,SBD,Raw,Pro Open,1963-01-20,121.7,лично,180,190,195,195,,160,170,-172.5,170,,230,245,255,255,,620,2
M,Vladimir Polivanov,Владимир Поливанов,Yes,125,SBD,Raw,Pro Masters 50-54,1963-01-20,121.7,лично,180,190,195,195,,160,170,-172.5,170,,230,245,255,255,,620,1
M,Igor Smirnov,Игорь Смирнов,Yes,125,SBD,Raw,Pro Masters 50-54,1965-04-21,112,Олимп,180,200,210,210,,140,-150,-150,140,,240,260,-270,260,,610,2
M,Anton Sitnikov,Антон Ситников,Yes,140,SBD,Raw,Pro Open,1985-04-08,137.5,SMIRNOV POWER,190,205,-220,205,,110,117.5,-122.5,117.5,,-210,220,-235,220,,542.5,1
M,Denis Danilov,Денис Данилов,Yes,140,SBD,Raw,Pro Open,1980-07-24,134.7,лично,145,155,-160,155,,95,-105,-105,95,,140,150,-155,150,,400,2
M,Aleksandr Isaev,Александр Исаев,Yes,75,SBD,Single-ply,Pro Open,1987-12-07,71.7,лично,-250,-250,-250,,,-190,,,,,-210,,,,,,DQ
M,Rinat Khuzin,Ринат Хузин,Yes,75,SBD,Single-ply,Pro Masters 45-49,1969-06-14,74.3,лично,145,165,,165,,125,135,142.5,142.5,,145,165,177.5,177.5,,485,1
M,Sergey Pisarev,Сергей Писарев,Yes,82.5,SBD,Single-ply,Pro Juniors 20-23,1991-07-16,82,100-pudoff,250,-262.5,270,270,,160,-165,165,165,,240,-267.5,267.5,267.5,,702.5,1
M,Aleksey Matvienko,Алексей Матвиенко,Yes,82.5,SBD,Single-ply,Pro Open,1989-11-25,81.1,лично,-195,200,-210,200,,135,150,155,155,,-185,195,-205,195,,550,1
M,Dmitriy Postnov,Дмитрий Постнов,Yes,90,SBD,Single-ply,Pro Masters 40-44,1971-07-17,88.9,лично,-170,170,,170,,100,,,100,,180,,,180,,450,1
M,Dmitriy Patyupin,Дмитрий Патюпин,Yes,100,SBD,Single-ply,Pro Juniors 20-23,1991-11-28,94.8,Pride,280,300,-310,300,,200,-215,215,215,220,250,260,270,270,,785,1
M,Dmitriy Patyupin,Дмитрий Патюпин,Yes,100,SBD,Single-ply,Pro Open,1991-11-28,94.8,Pride,280,300,-310,300,,200,-215,215,215,220,250,260,270,270,,785,1
M,Ivan Avramenko,Иван Авраменко,Yes,100,SBD,Single-ply,Pro Open,1988-03-24,100,лично,-295,295,-307.5,295,,190,-197.5,197.5,197.5,,260,-285,285,285,,777.5,2
M,Ivan Poryadin,Иван Порядин,Yes,100,SBD,Single-ply,Pro Open,1982-06-06,92,лично,-280,280,,280,,200,215,,215,,250,270,-285,270,,765,3
M,Aleksey Tarasov,Алексей Тарасов,Yes,100,SBD,Single-ply,Pro Open,1981-05-24,97.4,лично,-250,-250,250,250,,-210,-210,-210,,,-250,,,,,,DQ
M,Pavel Noskov,Павел Носков,Yes,110,SBD,Single-ply,Pro Teen 16-17,1999-01-15,105.2,лично,170,,,170,,80,,,80,,170,,,170,,420,1
M,Dmitriy Vasilenko,Дмитрий Василенко,Yes,110,SBD,Single-ply,Pro Open,1975-06-03,105.5,лично,270,-280,-285,270,,170,-185,-185,170,,220,230,-240,230,,670,1
M,Sergey Bannov,Сергей Баннов,Yes,110,SBD,Single-ply,Pro Open,1980-08-05,102.5,лично,220,230,-240,230,,140,-145,-145,140,,230,237.5,-245,237.5,,607.5,2
M,Dmitriy Dudeev,Дмитрий Дудеев,Yes,110,SBD,Single-ply,Pro Masters 40-44,1975-03-21,108.4,лично,-260,265,-285,265,,185,190,195,195,,250,270,-285,270,,730,1
M,Dmitriy Vasilenko,Дмитрий Василенко,Yes,110,SBD,Single-ply,Pro Open,1975-06-03,105.5,лично,270,-280,-285,270,,170,-185,-185,170,,220,230,-240,230,,670,2
M,Evgeniy Pivovarov,Евгений Пивоваров,Yes,100,SBD,Multi-ply,Pro Open,1988-09-01,93.6,лично,285,297.5,-300,297.5,,-220,-220,220,220,,260,-270,,260,,777.5,1
F,Anastasiya Dzyuba,Анастасия Дзюба,Yes,44,B,Raw,Pro Youth,2003-10-13,43.6,лично,,,,,,50,52.5,-55,52.5,,,,,,,52.5,1
F,Ekaterina Lepkova,Екатерина Лепкова,Yes,44,B,Raw,Pro Juniors 20-23,1993-07-24,41.9,лично,,,,,,-42.5,-45,45,45,,,,,,,45,1
F,Natalya Krikunova,Наталья Крикунова,Yes,48,B,Raw,Pro Open,1981-07-19,47.1,лично,,,,,,60,-62.5,-62.5,60,,,,,,,60,1
F,Natalya Kuznetsova,Наталья Кузнецова,Yes,48,B,Raw,Pro Open,1989-02-10,48,лично,,,,,,47.5,-52.5,-52.5,47.5,,,,,,,47.5,2
F,Natalya Pavlovskaya,Наталья Павловская,Yes,48,B,Raw,Pro Open,1986-11-27,45.5,лично,,,,,,37.5,40,-45,40,,,,,,,40,3
F,Lyudmila Mikhaleva,Людмила Михалева,Yes,52,B,Raw,Pro Open,1979-12-15,52,max-gym,,,,,,55,57.5,-60,57.5,,,,,,,57.5,1
F,Natalya Pykina,Наталья Пыкина,Yes,56,B,Raw,Pro Teen 18-19,1995-09-04,53.7,Тверская,,,,,,45,50,-52.5,50,,,,,,,50,1
F,Irina Skrynnikova,Ирина Скрынникова,Yes,56,B,Raw,Pro Juniors 20-23,1994-08-24,53.9,лично,,,,,,52.5,57.5,-62.5,57.5,,,,,,,57.5,1
F,Evgeniya Kovalenko,Евгения Коваленко,Yes,56,B,Raw,Pro Open,1982-03-21,55.7,лично,,,,,,-82.5,82.5,-85,82.5,,,,,,,82.5,1
F,Tatyana Krotova,Татьяна Кротова,Yes,56,B,Raw,Pro Open,1986-04-10,56,лично,,,,,,-77.5,77.5,80,80,,,,,,,80,2
F,Elena Gulko,Елена Гулько,Yes,56,B,Raw,Pro Open,1989-06-28,55.9,Сокол,,,,,,75,-80,-80,75,,,,,,,75,3
F,Ekaterina Ilinskaya,Екатерина Ильинская,Yes,56,B,Raw,Pro Open,1988-12-04,54.5,лично,,,,,,-67.5,67.5,-70,67.5,,,,,,,67.5,4
F,Oksana Bezugolnikova,Оксана Безугольникова,Yes,56,B,Raw,Pro Masters 45-49,1969-09-15,55.7,лично,,,,,,47.5,52.5,-55,52.5,,,,,,,52.5,1
F,Elizaveta Shinkareva,Елизавета Шинкарева,Yes,60,B,Raw,Pro Teen 16-17,1998-01-01,59.7,лично,,,,,,62.5,67.5,-70,67.5,,,,,,,67.5,1
F,Anastasiya Dyakova,Анастасия Дьякова,Yes,60,B,Raw,Pro Juniors 20-23,1993-02-23,57.8,лично,,,,,,30,35,-40,35,,,,,,,35,1
F,Elizaveta Shinkareva,Елизавета Шинкарева,Yes,60,B,Raw,Pro Open,1998-01-01,59.7,лично,,,,,,62.5,67.5,-70,67.5,,,,,,,67.5,1
F,Elena Razumova,Елена Разумова,Yes,60,B,Raw,Pro Open,1977-02-24,58,лично,,,,,,-55,57.5,-62.5,57.5,,,,,,,57.5,2
F,Yuliya Kuznetsova,Юлия Кузнецова,Yes,67.5,B,Raw,Pro Open,1973-05-15,65.2,лично,,,,,,95,-100,-100,95,,,,,,,95,1
F,Olga Shtele,Ольга Штеле,Yes,67.5,B,Raw,Pro Open,1982-07-31,62.5,лично,,,,,,55,60,-65,60,,,,,,,60,2
F,Olga Ilichyova,Ольга Ильичёва,Yes,75,B,Raw,Pro Open,1979-03-03,70.5,лично,,,,,,50,55,60,60,,,,,,,60,1
F,Natalya Golovina,Наталья Головина,Yes,90+,B,Raw,Pro Open,1984-10-01,112.9,лично,,,,,,60,65,-72.5,65,,,,,,,65,1
M,Daniil Belykh,Даниил Белых,Yes,52,B,Raw,Pro Youth,2007-09-02,27.7,лично,,,,,,25,-27.5,27.5,27.5,,,,,,,27.5,1
M,Ruslan Belikov,Руслан Беликов,Yes,67.5,B,Raw,Pro Teen 18-19,1997-04-16,65.3,Team Bregan,,,,,,75,82.5,-85,82.5,,,,,,,82.5,1
M,Maksim Gridnev,Максим Гриднев,Yes,67.5,B,Raw,Pro Juniors 20-23,1992-10-31,66.9,лично,,,,,,145,-152.5,152.5,152.5,,,,,,,152.5,1
M,Sergey Tochilov,Сергей Точилов,Yes,67.5,B,Raw,Pro Open,1987-09-13,66.7,лично,,,,,,120,125,130,130,,,,,,,130,1
M,Dmitriy Tyutrin,Дмитрий Тютрин,Yes,67.5,B,Raw,Pro Open,1989-08-12,67.4,Сокол,,,,,,-107.5,107.5,112.5,112.5,,,,,,,112.5,2
M,Sergey Subbotin,Сергей Субботин,Yes,67.5,B,Raw,Pro Open,1984-06-27,67.4,РООСФИС,,,,,,95,102.5,107.5,107.5,,,,,,,107.5,3
M,Maksim Gordeev,Максим Гордеев,Yes,67.5,B,Raw,Pro Open,1988-07-10,65.8,лично,,,,,,-95,-100,-100,,,,,,,,,DQ
M,Vakha Khadziev,Ваха Хадзиев,Yes,75,B,Raw,Pro Juniors 20-23,1994-09-26,75,лично,,,,,,165,175,-185,175,,,,,,,175,1
M,Igor Panov,Игорь Панов,Yes,75,B,Raw,Pro Juniors 20-23,1992-03-05,73.4,лично,,,,,,-137.5,142.5,-147.5,142.5,,,,,,,142.5,2
M,Anton Pesochin,Антон Песочин,Yes,75,B,Raw,Pro Juniors 20-23,1993-08-18,74.5,Олимп,,,,,,120,127.5,-135,127.5,,,,,,,127.5,3
M,Nikita Abramenko,Никита Абраменко,Yes,75,B,Raw,Pro Juniors 20-23,1995-03-24,72.2,лично,,,,,,125,-135,-135,125,,,,,,,125,4
M,Andrey Nedvizhay,Андрей Недвижай,Yes,75,B,Raw,Pro Juniors 20-23,1991-08-03,75,лично,,,,,,120,-125,-125,120,,,,,,,120,5
M,Aleksandr Vladimirov,Александр Владимиров,Yes,75,B,Raw,Pro Open,1982-02-06,73.9,Хорошие Колеса,,,,,,150,160,-165,160,,,,,,,160,1
M,Pavel Grisheev,Павел Гришеев,Yes,75,B,Raw,Pro Open,1982-06-28,74,лично,,,,,,147.5,-152.5,-152.5,147.5,,,,,,,147.5,2
M,Radik Matyygullin,Радик Матыйгуллин,Yes,75,B,Raw,Pro Open,1976-03-28,72.7,лично,,,,,,130,135,140,140,,,,,,,140,3
M,Namig Gabuev,Намиг Габуев,Yes,75,B,Raw,Pro Open,1989-01-30,72.1,лично,,,,,,-135,137.5,-145,137.5,,,,,,,137.5,4
M,Evgeniy Klyukvin,Евгений Клюквин,Yes,75,B,Raw,Pro Open,1981-07-04,72.5,лично,,,,,,117.5,125,135,135,,,,,,,135,5
M,Nikolay Tulyankin,Николай Тулянкин,Yes,75,B,Raw,Pro Open,1983-06-08,73.5,лично,,,,,,127.5,-135,-135,127.5,,,,,,,127.5,6
M,Evgeniy Kolosov,Евгений Колосов,Yes,75,B,Raw,Pro Open,1989-07-28,71.9,лично,,,,,,100,105,-107.5,105,,,,,,,105,7
M,Leonid Kazantsev,Леонид Казанцев,Yes,75,B,Raw,Pro Open,1989-06-13,72.8,лично,,,,,,-135,-135,,,,,,,,,,DQ
M,Roman Vasilev,Роман Васильев,Yes,75,B,Raw,Pro Masters 40-44,1973-02-10,73.7,динамо,,,,,,150,-152.5,-152.5,150,,,,,,,150,1
M,Dmitriy Levitskiy,Дмитрий Левицкий,Yes,75,B,Raw,Pro Masters 40-44,1971-02-07,71.8,лично,,,,,,120,122.5,-125,122.5,,,,,,,122.5,2
M,Aleksandr Kolotov,Александр Колотов,Yes,75,B,Raw,Pro Masters 40-44,1970-10-21,73.8,Сокол,,,,,,117.5,-125,-125,117.5,,,,,,,117.5,3
M,Ivan Zyablikov,Иван Зябликов,Yes,75,B,Raw,Pro Masters 65-69,1948-08-21,75,лично,,,,,,120,125.5,126,126,,,,,,,126,1
M,Miron Kim,Мирон Ким,Yes,75,B,Raw,Pro Masters 70-74,1941-08-05,70,лично,,,,,,90,-92.5,-92.5,90,,,,,,,90,1
M,Vladislav Tregubov,Владислав Трегубов,Yes,82.5,B,Raw,Pro Teen 18-19,1996-03-17,76.9,лично,,,,,,-125,-125,,,,,,,,,,DQ
M,Ramazan Tsuroev,Рамазан Цуроев,Yes,82.5,B,Raw,Pro Juniors 20-23,1994-01-23,81,Ингушетия,,,,,,140,145,150,150,,,,,,,150,1
M,Yusup Barkhanoev,Юсуп Барханоев,Yes,82.5,B,Raw,Pro Juniors 20-23,1993-05-22,82.2,Ингушетия,,,,,,140,145,150,150,,,,,,,150,2
M,Andrey Pavlov #9,Андрей Павлов,Yes,82.5,B,Raw,Pro Juniors 20-23,1994-04-08,80,лично,,,,,,145,-147.5,147.5,147.5,,,,,,,147.5,3
M,Mikhail Ostashkov,Михаил Осташков,Yes,82.5,B,Raw,Pro Juniors 20-23,1995-05-25,79.8,лично,,,,,,140,-145,145,145,,,,,,,145,4
M,Nikolay Trivashkevich,Николай Тривашкевич,Yes,82.5,B,Raw,Pro Juniors 20-23,1993-02-15,79,Форум,,,,,,132.5,137.5,140,140,,,,,,,140,5
M,Ioann Botantsov,Иоанн Ботанцов,Yes,82.5,B,Raw,Pro Juniors 20-23,1992-08-10,81.1,лично,,,,,,120,-125,-125,120,,,,,,,120,6
M,Danila Botantsov,Данила Ботанцов,Yes,82.5,B,Raw,Pro Juniors 20-23,1994-06-24,80.6,лично,,,,,,105,-112.5,-112.5,105,,,,,,,105,7
M,Sergey Kurbanov,Сергей Курбанов,Yes,82.5,B,Raw,Pro Open,1974-07-22,81,лично,,,,,,165,172.5,177.5,177.5,,,,,,,177.5,1
M,Evgeniy Zhelvakov,Евгений Желваков,Yes,82.5,B,Raw,Pro Open,1988-04-15,81.2,ЕвроФитнес,,,,,,155,160,165,165,,,,,,,165,2
M,Evgeniy Sorokin,Евгений Сорокин,Yes,82.5,B,Raw,Pro Open,1977-02-11,82.2,лично,,,,,,-137.5,142.5,-145,142.5,,,,,,,142.5,3
M,Igor Skripnik,,Yes,82.5,B,Raw,Pro Open,1977-09-14,81.5,лично,,,,,,127.5,-132.5,-132.5,127.5,,,,,,,127.5,4
M,Aleksandr Balabin,Александр Балабин,Yes,82.5,B,Raw,Pro Open,1980-06-22,82,лично,,,,,,-125,125,-130,125,,,,,,,125,5
M,Grigoriy Martynov,Григорий Мартынов,Yes,82.5,B,Raw,Pro Open,1985-12-18,80.6,лично,,,,,,-120,-120,120,120,,,,,,,120,6
M,Dmitriy Kruchuk,Дмитрий Кручук,Yes,82.5,B,Raw,Pro Open,1985-10-08,77,лично,,,,,,-157.5,-157.5,,,,,,,,,,DQ
M,Sergey Kurbanov,Сергей Курбанов,Yes,82.5,B,Raw,Pro Masters 40-44,1974-07-22,81,лично,,,,,,165,172.5,177.5,177.5,,,,,,,177.5,1
M,Yuriy Migalkin,Юрий Мигалкин,Yes,82.5,B,Raw,Pro Masters 40-44,1973-10-31,81.5,лично,,,,,,-127.5,127.5,-135,127.5,,,,,,,127.5,2
M,Vecheslav Kolotov,Вечеслав Колотов,Yes,82.5,B,Raw,Pro Masters 40-44,1973-07-02,80.7,Сокол,,,,,,120,125,-127.5,125,,,,,,,125,3
M,Mikhail Tolstikov,Михаил Толстиков,Yes,82.5,B,Raw,Pro Masters 40-44,1973-03-28,81.1,лично,,,,,,-142.5,-142.5,-142.5,,,,,,,,,DQ
M,Dmitriy Karezin,Дмитрий Карезин,Yes,82.5,B,Raw,Pro Masters 45-49,1970-01-07,80.5,лично,,,,,,160,165,167.5,167.5,,,,,,,167.5,1
M,Valentin Lebedev,Валентин Лебедев,Yes,82.5,B,Raw,Pro Masters 45-49,1965-07-24,75.6,Пикалево,,,,,,135,-137.5,-137.5,135,,,,,,,135,2
M,Eduard Vladimirov,Эдуард Владимиров,Yes,82.5,B,Raw,Pro Masters 45-49,1966-05-14,82.5,ДЮСШ,,,,,,-130,130,-135,130,,,,,,,130,3
M,Aleksey Molochkov,Алексей Молочков,Yes,82.5,B,Raw,Pro Masters 50-54,1962-08-08,81.5,лично,,,,,,125,130,-135,130,,,,,,,130,1
M,Vasiliy Mosin,Василий Мосин,Yes,82.5,B,Raw,Pro Masters 55-59,1956-06-09,79.5,лично,,,,,,140,145,,145,,,,,,,145,1
M,Vladimir Vrinchan,Владимир Вринчан,Yes,82.5,B,Raw,Pro Masters 60-64,1954-11-14,79.2,лично,,,,,,100,-110,110,110,,,,,,,110,1
M,Artem Kukin,Артем Кукин,Yes,90,B,Raw,Pro Juniors 20-23,1991-07-22,89.9,лично,,,,,,115,125,132.5,132.5,,,,,,,132.5,1
M,Leonid Sitkevich,Леонид Ситкевич,Yes,90,B,Raw,Pro Open,1985-12-22,89.7,лично,,,,,,165,170,175,175,,,,,,,175,1
M,Nikolay Mulin,Николай Мулин,Yes,90,B,Raw,Pro Open,1964-01-07,89,лично,,,,,,162.5,165,-167.5,165,,,,,,,165,2
M,Kim Bondarenko,Ким Бондаренко,Yes,90,B,Raw,Pro Open,1982-12-17,87.9,лично,,,,,,-155,155,-160,155,,,,,,,155,3
M,Nikolay Kostev,Николай Костев,Yes,90,B,Raw,Pro Open,1959-12-17,85.7,лично,,,,,,150,-160,-160,150,,,,,,,150,4
M,Ilya Nikitin,Илья Никитин,Yes,90,B,Raw,Pro Open,1978-05-12,89,лично,,,,,,145,-152.5,-152.5,145,,,,,,,145,5
M,Evgeniy Naumkin,Евгений Наумкин,Yes,90,B,Raw,Pro Open,1980-03-11,87.5,лично,,,,,,-140,140,-152.5,140,,,,,,,140,6
M,Igor Pukhkalo,Игорь Пухкало,Yes,90,B,Raw,Pro Open,1988-06-06,87.2,лично,,,,,,125,132.5,-137.5,132.5,,,,,,,132.5,7
M,Shamil Petushkov,Шамиль Петушков,Yes,90,B,Raw,Pro Open,1975-10-16,87.7,лично,,,,,,132.5,-142.5,-142.5,132.5,,,,,,,132.5,8
M,Yuriy Elisichenko,Юрий Елисиченко,Yes,90,B,Raw,Pro Open,1989-09-19,85.7,лично,,,,,,-157.5,-157.5,-175,,,,,,,,,DQ
M,Bair Badmadashiev,Баир Бадмадашиев,Yes,90,B,Raw,Pro Open,1976-06-18,89.4,лично,,,,,,-165,-175,-175,,,,,,,,,DQ
M,Leonid Zaytsev,Леонид Зайцев,Yes,90,B,Raw,Pro Masters 40-44,1974-06-28,84.9,Хорошие Колеса,,,,,,-110,-110,-115,,,,,,,,,DQ
M,Igor Shimalov,Игорь Шималов,Yes,90,B,Raw,Pro Masters 40-44,1974-07-07,87.6,лично,,,,,,-147.5,-147.5,-152.5,,,,,,,,,DQ
M,Denis Bryskin,Денис Брыскин,Yes,90,B,Raw,Pro Masters 40-44,1974-10-31,89,лично,,,,,,-125,-125,-125,,,,,,,,,DQ
M,Aleksandr Vorobev,Александр Воробьев,Yes,90,B,Raw,Pro Masters 45-49,1967-02-18,87.2,лично,,,,,,155,160,165,165,,,,,,,165,1
M,Aleksandr Rumyantsev,Александр Румянцев,Yes,90,B,Raw,Pro Masters 45-49,1969-11-26,88.5,лично,,,,,,155,-160,160,160,,,,,,,160,2
M,Arkadij Mazur,,Yes,90,B,Raw,Pro Masters 45-49,1966-04-01,88.9,лично,,,,,,135,-140,140,140,,,,,,,140,3
M,Nikolay Mulin,Николай Мулин,Yes,90,B,Raw,Pro Masters 50-54,1964-01-07,89,лично,,,,,,162.5,165,-167.5,165,,,,,,,165,1
M,Sergey Bazanov,Сергей Базанов,Yes,90,B,Raw,Pro Masters 50-54,1962-06-22,85.5,лично,,,,,,150,155,157.5,157.5,,,,,,,157.5,2
M,Aleksandr Belousov,Александр Белоусов,Yes,90,B,Raw,Pro Masters 50-54,1960-08-02,90,Пикалево,,,,,,145,152.5,-157.5,152.5,,,,,,,152.5,3
M,Valeriy Zheleznov,Валерий Железнов,Yes,90,B,Raw,Pro Masters 55-59,1959-09-05,88.6,Сокол,,,,,,147.5,155,-157.5,155,,,,,,,155,1
M,Nikolay Kostev,Николай Костев,Yes,90,B,Raw,Pro Masters 55-59,1959-12-17,85.7,лично,,,,,,150,-160,-160,150,,,,,,,150,2
M,Andrey Nikitin,Андрей Никитин,Yes,90,B,Raw,Pro Masters 60-64,1955-01-02,89.4,лично,,,,,,125,-130,130,130,,,,,,,130,1
M,Valeriy Nugumanov,Валерий Нугуманов,Yes,90,B,Raw,Pro Masters 75-79,1939-06-25,86.3,лично,,,,,,-90,90,,90,,,,,,,90,1
M,Oleg Kharkov,Олег Харьков,Yes,100,B,Raw,Pro Juniors 20-23,1993-05-21,99,лично,,,,,,155,162.5,167.5,167.5,,,,,,,167.5,1
M,Artyom Plotnikov,Артём Плотников,Yes,100,B,Raw,Pro Juniors 20-23,1992-11-09,97.3,AlexFitness Богатырский,,,,,,130,140,-145,140,,,,,,,140,2
M,Bagaudin Algatov,Багаудин Алгатов,Yes,100,B,Raw,Pro Open,1990-04-28,96.7,лично,,,,,,175,182.5,187.5,187.5,,,,,,,187.5,1
M,Aleksey Maksimov,Алексей Максимов,Yes,100,B,Raw,Pro Open,1986-09-11,96.9,лично,,,,,,-185,185,-190,185,,,,,,,185,2
M,Aleksey Vasilev,Алексей Васильев,Yes,100,B,Raw,Pro Open,1979-10-27,99,Динамит,,,,,,170,180,-185,180,,,,,,,180,3
M,Roman Kholod,Роман Холод,Yes,100,B,Raw,Pro Open,1991-03-15,94.4,лично,,,,,,165,175,-182.5,175,,,,,,,175,4
M,Nikolay Anisimov,Николай Анисимов,Yes,100,B,Raw,Pro Open,1981-10-04,95.7,лично,,,,,,165,175,-185,175,,,,,,,175,5
M,Kharis Pelivanidis,Харис Пеливанидис,Yes,100,B,Raw,Pro Open,1981-02-18,99.4,лично,,,,,,140,162.5,170,170,,,,,,,170,6
M,Pavel Belykh,Павел Белых,Yes,100,B,Raw,Pro Open,1980-08-06,92.9,лично,,,,,,162.5,165,-170,165,,,,,,,165,7
M,Stanislav Maslennikov,Станислав Масленников,Yes,100,B,Raw,Pro Open,1985-10-05,99.3,Архыз,,,,,,165,-172.5,-172.5,165,,,,,,,165,8
M,Vachagan Bagdagyulyan,Вачаган Багдагюлян,Yes,100,B,Raw,Pro Open,1988-02-23,96.3,лично,,,,,,155,-162.5,162.5,162.5,,,,,,,162.5,9
M,Aleksandr Zagorevskiy,Александр Загоревский,Yes,100,B,Raw,Pro Open,1984-07-15,97.5,лично,,,,,,152.5,-162.5,162.5,162.5,,,,,,,162.5,10
M,Lev Aksenov,Лев Аксенов,Yes,100,B,Raw,Pro Open,1978-10-13,99.1,СКБ-1,,,,,,157.5,162.5,-165,162.5,,,,,,,162.5,11
M,Egor Golubev,Егор Голубев,Yes,100,B,Raw,Pro Open,1985-05-23,93.3,ЕвроФитнес,,,,,,150,-160,-160,150,,,,,,,150,12
M,Igor Ivanov #1,Игорь Иванов,Yes,100,B,Raw,Pro Open,1968-08-05,97.3,лично,,,,,,150,-157.5,-157.5,150,,,,,,,150,13
M,Pavel Vorobev,Павел Воробьев,Yes,100,B,Raw,Pro Open,1989-11-16,96.3,лично,,,,,,-135,-135,,,,,,,,,,DQ
M,Konstantin Berdinskikh,Константин Бердинских,Yes,100,B,Raw,Pro Masters 40-44,1970-08-24,100,лично,,,,,,165,172.5,177.5,177.5,,,,,,,177.5,1
M,Konstantin Bulkin,Константин Булкин,Yes,100,B,Raw,Pro Masters 40-44,1971-08-24,98.6,лично,,,,,,130,135,-140,135,,,,,,,135,2
M,Igor Ivanov #1,Игорь Иванов,Yes,100,B,Raw,Pro Masters 45-49,1968-08-05,97.3,лично,,,,,,150,-157.5,-157.5,150,,,,,,,150,1
M,Mikhail Bugaev,Михаил Бугаев,Yes,100,B,Raw,Pro Masters 50-54,1962-06-07,97.2,лично,,,,,,145,152.5,157.5,157.5,,,,,,,157.5,1
M,Evgeniy Uskov,Евгений Усков,Yes,100,B,Raw,Pro Masters 50-54,1964-01-18,97.9,max-gym,,,,,,145,-152.5,-152.5,145,,,,,,,145,2
M,Aleksandr Pedchenko,Александр Педченко,Yes,110,B,Raw,Pro Juniors 20-23,1993-01-01,107.4,Топ-джим,,,,,,190,195,-202.5,195,,,,,,,195,1
M,Maksim Gromov,Максим Громов,Yes,110,B,Raw,Pro Juniors 20-23,1993-12-01,106.6,max-gym,,,,,,170,-175,-175,170,,,,,,,170,2
M,Igor Muravev,Игорь Муравьев,Yes,110,B,Raw,Pro Open,1985-09-16,108.4,Sportlife,,,,,,207.5,212.5,215,215,,,,,,,215,1
M,Vitaliy Stolbovoy,Виталий Столбовой,Yes,110,B,Raw,Pro Open,1973-06-14,108.8,лично,,,,,,200,-205,-205,200,,,,,,,200,2
M,Konstantin Sharapa,Константин Шарапа,Yes,110,B,Raw,Pro Open,1974-07-26,104.3,Хорошие Колеса,,,,,,175,180,-185,180,,,,,,,180,3
M,Andrey Alekseik,Андрей Алексеик,Yes,110,B,Raw,Pro Open,1980-01-16,108,лично,,,,,,-180,-180,-180,,,,,,,,,DQ
M,Vladimir Severov,Владимир Северов,Yes,110,B,Raw,Pro Open,1979-08-14,108.8,лично,,,,,,-182.5,-190,-192.5,,,,,,,,,DQ
M,Vitaliy Stolbovoy,Виталий Столбовой,Yes,110,B,Raw,Pro Masters 40-44,1973-06-14,108.8,лично,,,,,,200,-205,-205,200,,,,,,,200,1
M,Aleksey Saitov,Алексей Саитов,Yes,110,B,Raw,Pro Masters 40-44,1973-09-05,107.8,лично,,,,,,175,182.5,190,190,,,,,,,190,2
M,Konstantin Sharapa,Константин Шарапа,Yes,110,B,Raw,Pro Masters 40-44,1974-07-26,104.3,Хорошие Колеса,,,,,,175,180,-185,180,,,,,,,180,3
M,Sergey Komissarov,Сергей Комиссаров,Yes,110,B,Raw,Pro Masters 40-44,1974-11-03,104.5,лично,,,,,,170,-177.5,-177.5,170,,,,,,,170,4
M,Nikolay Vovk,Николай Вовк,Yes,110,B,Raw,Pro Masters 45-49,1968-10-25,109.6,max-gym,,,,,,160,170,-180,170,,,,,,,170,1
M,Andrey Fedorov,Андрей Федоров,Yes,110,B,Raw,Pro Masters 45-49,1965-10-16,100.7,лично,,,,,,145,150,-152.5,150,,,,,,,150,2
M,Dmitriy Kireev,Дмитрий Киреев,Yes,110,B,Raw,Pro Masters 45-49,1969-08-25,108.2,лично,,,,,,145,-152.5,-152.5,145,,,,,,,145,3
M,Igor Kurotchenko,Игорь Куротченко,Yes,110,B,Raw,Pro Masters 50-54,1962-03-20,108.7,лично,,,,,,140,145,150,150,,,,,,,150,1
M,Sergey Dyakonov,Сергей Дьяконов,Yes,110,B,Raw,Pro Masters 55-59,1957-07-08,101.7,лично,,,,,,152.5,-157.5,-160,152.5,,,,,,,152.5,1
M,Kirill Karlyukov,Кирилл Карлюков,Yes,125,B,Raw,Pro Open,1982-03-10,123.1,Олимп,,,,,,192.5,202.5,210,210,,,,,,,210,1
M,Ruslan Murashko,Руслан Мурашко,Yes,125,B,Raw,Pro Open,1974-08-22,124.4,лично,,,,,,205,210,-215,210,,,,,,,210,2
M,Vadim Pchelkin,Вадим Пчелкин,Yes,125,B,Raw,Pro Masters 40-44,1971-09-10,120.4,лично,,,,,,200,210,-215,210,,,,,,,210,1
M,Ruslan Murashko,Руслан Мурашко,Yes,125,B,Raw,Pro Masters 40-44,1974-08-22,124.4,лично,,,,,,205,210,-215,210,,,,,,,210,2
M,Anatoliy Zolotov,Анатолий Золотов,Yes,125,B,Raw,Pro Masters 40-44,1972-04-13,117.3,лично,,,,,,195,-202.5,-202.5,195,,,,,,,195,3
M,Aleksey Sablukov,Алексей Саблуков,Yes,125,B,Raw,Pro Masters 45-49,1966-06-01,119.1,Пикалево,,,,,,155,160,-167.5,160,,,,,,,160,1
M,Vladimir Chubarov,Владимир Чубаров,Yes,125,B,Raw,Pro Masters 50-54,1964-04-03,115.5,лично,,,,,,150,155,157.5,157.5,,,,,,,157.5,1
M,Vladimir Popov,Владимир Попов,Yes,125,B,Raw,Pro Masters 55-59,1956-02-26,124.5,лично,,,,,,145,-150,152.5,152.5,,,,,,,152.5,1
M,Sergey Semyonov,Сергей Семёнов,Yes,125,B,Raw,Pro Masters 55-59,1957-08-23,114.4,Пикалево,,,,,,125,-130,-130,125,,,,,,,125,2
M,Aleksandr Starov,Александр Старов,Yes,125,B,Raw,Pro Masters 60-64,1952-07-09,119.9,Пикалево,,,,,,125,130,135,135,,,,,,,135,1
M,Anatoliy Stepanov,Анатолий Степанов,Yes,125,B,Raw,Pro Masters 60-64,1951-12-23,113.1,Пикалево,,,,,,125,130,-132.5,130,,,,,,,130,2
M,Andrey Inyutin,Андрей Инютин,Yes,140,B,Raw,Pro Open,1975-05-18,128.7,лично,,,,,,190,-210,-210,190,,,,,,,190,1
M,Yuriy Panteleev,Юрий Пантелеев,Yes,140+,B,Raw,Pro Open,1975-09-23,142.3,max-gym,,,,,,180,190,200,200,,,,,,,200,1
M,Sergey Lazarev,Сергей Лазарев,Yes,140+,B,Raw,Pro Masters 55-59,1960-04-04,145,лично,,,,,,120,-130,-130,120,,,,,,,120,1
F,Mariya Serdyuchenko,Мария Сердюченко,Yes,56,B,Single-ply,Pro Juniors 20-23,1992-05-04,55.1,лично,,,,,,67.5,70,-72.5,70,,,,,,,70,1
F,Yuliya Kuznetsova,Юлия Кузнецова,Yes,67.5,B,Single-ply,Pro Open,1973-05-15,65.2,лично,,,,,,115,122.5,-125,122.5,,,,,,,122.5,1
F,Lyudmila Dmitrieva,Людмила Дмитриева,Yes,67.5,B,Single-ply,Pro Open,1985-09-01,62.3,лично,,,,,,-65,67.5,-75,67.5,,,,,,,67.5,2
M,Vasiliy Legkiy,Василий Легкий,Yes,67.5,B,Single-ply,Pro Open,1984-03-06,66.4,Сокол,,,,,,165,170,-177.5,170,,,,,,,170,1
M,Dmitriy Tyutrin,Дмитрий Тютрин,Yes,67.5,B,Single-ply,Pro Open,1989-08-12,67.1,Сокол,,,,,,127.5,-132.5,-132.5,127.5,,,,,,,127.5,2
M,Aleksandr Davydtsev,Александр Давыдцев,Yes,67.5,B,Single-ply,Pro Open,1987-10-25,66.1,лично,,,,,,-152.5,-152.5,-152.5,,,,,,,,,DQ
M,Andrey Dyozhin,Андрей Дёжин,Yes,75,B,Single-ply,Pro Juniors 20-23,1992-07-30,73.5,лично,,,,,,160,165,-172.5,165,,,,,,,165,1
M,Kamil Galiev,Камиль Галиев,Yes,75,B,Single-ply,Pro Juniors 20-23,1994-06-01,75,лично,,,,,,160,-170,-170,160,,,,,,,160,2
M,Aleksandr Isaev,Александр Исаев,Yes,75,B,Single-ply,Pro Open,1987-12-07,71.9,лично,,,,,,170,185,-197.5,185,,,,,,,185,1
M,Andrey Dyozhin,Андрей Дёжин,Yes,75,B,Single-ply,Pro Open,1992-07-30,73.5,лично,,,,,,160,165,-172.5,165,,,,,,,165,2
M,Anton Sosunov,Антон Сосунов,Yes,75,B,Single-ply,Pro Open,1980-12-14,73.4,лично,,,,,,150,-160,-170,150,,,,,,,150,3
M,Yuriy Volkov,Юрий Волков,Yes,75,B,Single-ply,Pro Masters 40-44,1972-04-01,74.4,лично,,,,,,120,130,-147.5,130,,,,,,,130,1
M,Miron Kim,Мирон Ким,Yes,75,B,Single-ply,Pro Masters 70-74,1941-08-05,69.9,лично,,,,,,102.5,107.5,110,110,,,,,,,110,1
M,Aleksandr Vetrov,Александр Ветров,Yes,82.5,B,Single-ply,Pro Open,1977-06-14,82,лично,,,,,,-150,150,160,160,,,,,,,160,1
M,Oleg Martynenko,Олег Мартыненко,Yes,82.5,B,Single-ply,Pro Masters 40-44,1974-05-15,82.3,Хорошие Колеса,,,,,,-230,-230,-230,,,,,,,,,DQ
M,Igor Petrov,Игорь Петров,Yes,82.5,B,Single-ply,Pro Masters 55-59,1956-07-18,82.4,Сокол,,,,,,155,-160,,155,,,,,,,155,1
M,Aleksandr Shishlenin,Александр Шишленин,Yes,90,B,Single-ply,Pro Open,1977-03-12,87.9,Архыз,,,,,,185,187.5,190,190,,,,,,,190,1
M,Kirill Kudachkin,Кирилл Кудачкин,Yes,90,B,Single-ply,Pro Open,1985-12-10,87.8,Олимп,,,,,,170,175,-185,175,,,,,,,175,2
M,Aleksandr Deltsov,Александр Дельцов,Yes,90,B,Single-ply,Pro Open,1958-09-13,88.1,Архыз,,,,,,150,157.5,160,160,,,,,,,160,3
M,Kirill Sidorenko,Кирилл Сидоренко,Yes,90,B,Single-ply,Pro Open,1980-01-12,87.1,Сокол,,,,,,-140,142.5,145,145,,,,,,,145,4
M,Aleksandr Deltsov,Александр Дельцов,Yes,90,B,Single-ply,Pro Masters 55-59,1958-09-13,88.1,Архыз,,,,,,150,157.5,160,160,,,,,,,160,1
M,Pavel Efremenkov,Павел Ефременков,Yes,100,B,Single-ply,Pro Open,1986-02-04,97.7,лично,,,,,,170,-187.5,-187.5,170,,,,,,,170,1
M,Aleksandr Kvyatkovskiy,Александр Квятковский,Yes,100,B,Single-ply,Pro Open,1967-04-10,99.6,Архыз,,,,,,170,-177.5,-180,170,,,,,,,170,2
M,Denis Karpov,Денис Карпов,Yes,100,B,Single-ply,Pro Open,1981-04-20,98.1,лично,,,,,,-190,-190,-190,,,,,,,,,DQ
M,Aleksandr Kvyatkovskiy,Александр Квятковский,Yes,100,B,Single-ply,Pro Masters 45-49,1967-04-10,99.6,Архыз,,,,,,170,-177.5,-180,170,,,,,,,170,1
M,Vyacheslav Frank,Вячеслав Франк,Yes,100,B,Single-ply,Pro Masters 50-54,1962-03-03,96.7,лично,,,,,,160,165,-167.5,165,,,,,,,165,1
M,Bagdasar Agamalyan,Багдасар Агамалян,Yes,110,B,Single-ply,Pro Open,1985-01-03,101.6,лично,,,,,,207.5,-215,-215,207.5,,,,,,,207.5,1
M,Dmitriy Slepnev,Дмитрий Слепнев,Yes,110,B,Single-ply,Pro Open,1980-08-18,110,Сила России,,,,,,195,200,-205,200,,,,,,,200,2
M,Yuriy Serbin,Юрий Сербин,Yes,110,B,Single-ply,Pro Open,1972-05-01,107.2,Хорошие Колеса,,,,,,170,-177.5,177.5,177.5,,,,,,,177.5,3
M,Andrey Shtivelberg,Андрей Штивельберг,Yes,110,B,Single-ply,Pro Open,1984-12-06,109.5,Архыз,,,,,,150,-157.5,157.5,157.5,,,,,,,157.5,4
M,Yuriy Serbin,Юрий Сербин,Yes,110,B,Single-ply,Pro Masters 40-44,1972-05-01,107.2,Хорошие Колеса,,,,,,170,-177.5,177.5,177.5,,,,,,,177.5,1
M,Igor Bogachev,Игорь Богачев,Yes,75,B,Multi-ply,Pro Open,1977-08-03,74.6,лично,,,,,,165,-175,-175,165,,,,,,,165,1
M,Vladimir Lyubov,Владимир Любов,Yes,100,B,Multi-ply,Pro Masters 40-44,1971-12-11,98.8,Сила и воля России,,,,,,-182.5,-185,-185,,,,,,,,,DQ
M,Mikhail Abrashkin,Михаил Абрашкин,Yes,110,B,Multi-ply,Pro Open,1983-07-19,110,Сила и воля,,,,,,280,-290,290,290,,,,,,,290,1
M,Valeriy Kurochkin,Валерий Курочкин,Yes,110,B,Multi-ply,Pro Open,1978-11-09,109.3,лично,,,,,,250,-260,-260,250,,,,,,,250,2
M,Evgeniy Baranov,Евгений Баранов,Yes,125,B,Multi-ply,Pro Open,1982-07-27,124.2,лично,,,,,,250,-265,-280,250,,,,,,,250,1
F,Anastasiya Dzyuba,Анастасия Дзюба,Yes,44,D,Raw,Pro Youth,2003-10-13,43.6,лично,,,,,,,,,,,85,90,95,95,,95,1
F,Natalya Krikunova,Наталья Крикунова,Yes,48,D,Raw,Pro Open,1981-07-19,47.1,лично,,,,,,,,,,,122.5,127.5,-132.5,127.5,,127.5,1
F,Anastasiya Vedeneeva,Анастасия Веденеева,Yes,48,D,Raw,Pro Open,1981-11-21,47.6,лично,,,,,,,,,,,112.5,-117.5,-117.5,112.5,,112.5,2
F,Ekaterina Shmakova,Екатерина Шмакова,Yes,52,D,Raw,Pro Teen 16-17,1998-05-08,51.9,лично,,,,,,,,,,,105,110,115,115,,115,1
F,Ekaterina Bazhenova,Екатерина Баженова,Yes,52,D,Raw,Pro Open,1991-03-14,49.5,Team Bregan,,,,,,,,,,,90,102.5,110,110,,110,1
F,Lyubov Smirnova,Любовь Смирнова,Yes,56,D,Raw,Pro Juniors 20-23,1995-04-27,56,Team Bregan,,,,,,,,,,,110,122.5,-125,122.5,,122.5,1
F,Tatyana Nazarova,Татьяна Назарова,Yes,56,D,Raw,Pro Open,1980-09-16,55.6,лично,,,,,,,,,,,115,120,122.5,122.5,,122.5,1
F,Anastasiya Dyakova,Анастасия Дьякова,Yes,60,D,Raw,Pro Juniors 20-23,1993-02-23,58,лично,,,,,,,,,,,-100,105,,105,,105,1
F,Yuliya Buzhin,Юлия Бужин,Yes,60,D,Raw,Pro Juniors 20-23,1993-07-31,57.2,лично,,,,,,,,,,,-147.5,-147.5,-147.5,,,,DQ
F,Ekaterina Melekhina,Екатерина Мелехина,Yes,60,D,Raw,Pro Open,1984-11-26,59,лично,,,,,,,,,,,100,105,110,110,,110,1
F,Anastasiya Dyakova,Анастасия Дьякова,Yes,60,D,Raw,Pro Open,1993-02-23,58,лично,,,,,,,,,,,-100,105,,105,,105,2
F,Yuliya Buzhin,Юлия Бужин,Yes,60,D,Raw,Pro Open,1993-07-31,57.2,лично,,,,,,,,,,,-147.5,-147.5,-147.5,,,,DQ
F,Evgeniya Volkova,Евгения Волкова,Yes,67.5,D,Raw,Pro Juniors 20-23,1994-09-01,67.4,Team Bregan,,,,,,,,,,,130,140,150,150,-157.5,150,1
F,Nadezhda Talikova,Надежда Таликова,Yes,67.5,D,Raw,Pro Open,1960-04-01,66.3,лично,,,,,,,,,,,-165,165,-177.5,165,,165,1
F,Aleksandra Tarasenko,Александра Тарасенко,Yes,67.5,D,Raw,Pro Open,1985-06-26,66.1,лично,,,,,,,,,,,110,117.5,-125,117.5,,117.5,2
F,Nadezhda Talikova,Надежда Таликова,Yes,67.5,D,Raw,Pro Masters 55-59,1960-04-01,66.3,лично,,,,,,,,,,,-165,165,-177.5,165,,165,1
F,Darina Zorina,Дарина Зорина,Yes,75,D,Raw,Pro Juniors 20-23,1994-01-25,72.8,Team Bregan,,,,,,,,,,,100,117.5,-125,117.5,,117.5,1
F,Oksana Fomenko,Оксана Фоменко,Yes,75,D,Raw,Pro Open,1988-07-28,68.8,Паллада,,,,,,,,,,,125,137.5,147.5,147.5,,147.5,1
F,Natalya Tyulyukova,Наталья Тюлюкова,Yes,90,D,Raw,Pro Open,1979-09-22,83.9,лично,,,,,,,,,,,85,-112.5,-115,85,,85,1
F,Galina Titova,Галина Титова,Yes,90,D,Raw,Pro Masters 55-59,1958-11-18,86.3,лично,,,,,,,,,,,80,90,95,95,,95,1
M,Ruslan Belikov,Руслан Беликов,Yes,67.5,D,Raw,Pro Teen 18-19,1997-04-16,65.4,Team Bregan,,,,,,,,,,,150,157.5,165,165,,165,1
M,Aleksey Demin,Алексей Демин,Yes,67.5,D,Raw,Pro Juniors 20-23,1994-11-12,66.4,лично,,,,,,,,,,,205,217.5,222.5,222.5,,222.5,1
M,Ildar Yankov,Ильдар Янков,Yes,67.5,D,Raw,Pro Juniors 20-23,1991-07-11,66.7,лично,,,,,,,,,,,180,-190,-190,180,,180,2
M,Sergey Krupka,Сергей Крупка,Yes,75,D,Raw,Pro Teen 13-15,2000-11-08,71.7,лично,,,,,,,,,,,170,177.5,180,180,,180,1
M,Denis Bakarius,Денис Бакариус,Yes,75,D,Raw,Pro Teen 18-19,1995-08-18,70.8,лично,,,,,,,,,,,115,122.5,130,130,,130,1
M,Andrey Nedvizhay,Андрей Недвижай,Yes,75,D,Raw,Pro Juniors 20-23,1991-08-03,74.4,лично,,,,,,,,,,,165,-170,,165,,165,1
M,Mikhail Yakovenko,Михаил Яковенко,Yes,75,D,Raw,Pro Open,1988-07-08,73.7,лично,,,,,,,,,,,240,250,,250,,250,1
M,Leonid Sedlyar,Леонид Седляр,Yes,75,D,Raw,Pro Open,1973-01-31,72,лично,,,,,,,,,,,230,240,247.5,247.5,,247.5,2
M,Pavel Veselov,Павел Веселов,Yes,75,D,Raw,Pro Open,1987-09-13,69.8,лично,,,,,,,,,,,197.5,-200,200,200,,200,3
M,Andrey Pavlyuchenko,Андрей Павлюченко,Yes,75,D,Raw,Pro Open,1990-04-20,72.4,Team Bregan,,,,,,,,,,,180,-202.5,-202.5,180,,180,4
M,Leonid Sedlyar,Леонид Седляр,Yes,75,D,Raw,Pro Masters 40-44,1973-01-31,72,лично,,,,,,,,,,,230,240,247.5,247.5,,247.5,1
M,Sergey Alampiev,Сергей Алампиев,Yes,75,D,Raw,Pro Masters 55-59,1957-04-07,71.4,лично,,,,,,,,,,,180,205,212.5,212.5,,212.5,1
M,Renat Salikhov,Ренат Салихов,Yes,82.5,D,Raw,Pro Juniors 20-23,1995-02-13,79.7,лично,,,,,,,,,,,-195,205,-215,205,,205,1
M,Ioann Botantsov,Иоанн Ботанцов,Yes,82.5,D,Raw,Pro Juniors 20-23,1992-08-10,81.1,лично,,,,,,,,,,,195,-200,,195,,195,2
M,Danila Botantsov,Данила Ботанцов,Yes,82.5,D,Raw,Pro Juniors 20-23,1994-06-24,80.6,лично,,,,,,,,,,,165,185,-190,185,,185,3
M,Vasiliy Perov,Василий Перов,Yes,82.5,D,Raw,Pro Open,1979-03-06,82,лично,,,,,,,,,,,250,260,270,270,,270,1
M,Aleksandr Fedosov,Александр Федосов,Yes,82.5,D,Raw,Pro Open,1988-12-01,81.8,лично,,,,,,,,,,,240,245,-250,245,,245,2
M,Aleksey Arbuzov,Алексей Арбузов,Yes,82.5,D,Raw,Pro Open,1989-06-12,77.9,лично,,,,,,,,,,,200,225,-237.5,225,,225,3
M,Dmitriy Strakh,Дмитрий Страх,Yes,82.5,D,Raw,Pro Open,1988-08-31,78.5,лично,,,,,,,,,,,162.5,175,185,185,,185,4
M,Aleksey Molochkov,Алексей Молочков,Yes,82.5,D,Raw,Pro Masters 50-54,1962-08-08,81.6,лично,,,,,,,,,,,170,182.5,-192.5,182.5,,182.5,1
M,Viktor Skokin,Виктор Скокин,Yes,82.5,D,Raw,Pro Masters 55-59,1957-06-20,81.2,лично,,,,,,,,,,,230,242.5,,242.5,,242.5,1
M,Aleksandr Mikhaylov,Александр Михайлов,Yes,82.5,D,Raw,Pro Masters 55-59,1958-12-09,81,Динамит,,,,,,,,,,,140,-150,,140,,140,2
M,Valeriy Khomenko,Валерий Хоменко,Yes,82.5,D,Raw,Pro Masters 60-64,1951-09-03,76,лично,,,,,,,,,,,-170,180,190,190,,190,1
M,Artur Mamedyarov,Артур Мамедяров,Yes,90,D,Raw,Pro Open,1991-08-20,88.9,Team Bregan,,,,,,,,,,,290,310,330,330,,330,1
M,Sergey Lysenok,Сергей Лысенок,Yes,90,D,Raw,Pro Masters 40-44,1971-07-13,89.4,лично,,,,,,,,,,,235,245,-250,245,,245,1
M,Nikolay Kostev,Николай Костев,Yes,90,D,Raw,Pro Masters 55-59,1959-12-17,86.7,лично,,,,,,,,,,,160,180,190,190,,190,1
M,Vyacheslav Chevordaev,Вячеслав Чевордаев,Yes,90,D,Raw,Pro Masters 65-69,1948-04-06,87.6,лично,,,,,,,,,,,190,195,210,210,,210,1
M,Aleksey Krylov,Алексей Крылов,Yes,100,D,Raw,Pro Open,1988-02-21,99.3,Динамит,,,,,,,,,,,247.5,262.5,270,270,,270,1
M,Dmitriy Kalinin,Дмитрий Калинин,Yes,100,D,Raw,Pro Open,1970-02-16,94.4,лично,,,,,,,,,,,250,267.5,-270,267.5,,267.5,2
M,Vachagan Bagdagyulyan,Вачаган Багдагюлян,Yes,100,D,Raw,Pro Open,1988-02-23,96.3,лично,,,,,,,,,,,232.5,242.5,255,255,,255,3
M,Artem Dymokurov,Артем Дымокуров,Yes,100,D,Raw,Pro Open,1989-04-03,98.8,лично,,,,,,,,,,,250,-267.5,-267.5,250,,250,4
M,Aleksey Dyubarev,Алексей Дюбарев,Yes,100,D,Raw,Pro Masters 40-44,1975-01-19,92.5,лично,,,,,,,,,,,222.5,237.5,252.5,252.5,,252.5,1
M,Konstantin Bulkin,Константин Булкин,Yes,100,D,Raw,Pro Masters 40-44,1971-08-24,98.6,лично,,,,,,,,,,,222.5,232.5,-240,232.5,,232.5,2
M,Dmitriy Kalinin,Дмитрий Калинин,Yes,100,D,Raw,Pro Masters 45-49,1970-02-16,94.4,лично,,,,,,,,,,,250,267.5,-270,267.5,,267.5,1
M,Roman Yankov,Роман Яньков,Yes,110,D,Raw,Pro Teen 18-19,1996-10-26,105.5,лично,,,,,,,,,,,210,215,227.5,227.5,,227.5,1
M,Pavel Shtatnov,Павел Штатнов,Yes,110,D,Raw,Pro Open,1980-12-27,100.5,лично,,,,,,,,,,,260,270,-277.5,270,,270,1
M,Egor Leontev,Егор Леонтьев,Yes,110,D,Raw,Pro Open,1989-02-03,105,лично,,,,,,,,,,,220,240,255,255,,255,2
M,Aleksey Oshurkov,Алексей Ошурков,Yes,125,D,Raw,Pro Open,1977-11-11,124.8,лично,,,,,,,,,,,295,310,322.5,322.5,330,322.5,1
M,Vadim Pchelkin,Вадим Пчелкин,Yes,125,D,Raw,Pro Masters 40-44,1971-09-10,120.4,лично,,,,,,,,,,,260,275,290,290,,290,1
M,Vladimir Polivanov,Владимир Поливанов,Yes,125,D,Raw,Pro Masters 50-54,1963-01-20,119.8,лично,,,,,,,,,,,230,245,-260,245,,245,1
M,Andrey Inyutin,Андрей Инютин,Yes,140,D,Raw,Pro Open,1975-05-18,128.7,лично,,,,,,,,,,,285,300,305,305,-312.5,305,1
M,Nikolay Krasotkin,Николай Красоткин,Yes,140,D,Raw,Pro Open,1981-12-07,131.6,лично,,,,,,,,,,,285,300,-305,300,,300,2
M,Vladimir Markov,Владимир Марков,Yes,140,D,Raw,Pro Open,1975-06-16,137,лично,,,,,,,,,,,222.5,-255,-255,222.5,,222.5,3
M,Denis Danilov,Денис Данилов,Yes,140,D,Raw,Pro Open,1980-07-24,134.6,лично,,,,,,,,,,,-145,,,,,,DQ
M,Andrey Inyutin,Андрей Инютин,Yes,140,D,Raw,Pro Masters 40-44,1975-05-18,128.7,лично,,,,,,,,,,,285,300,305,305,-312.5,305,1
F,Mariya Serdyuchenko,Мария Сердюченко,Yes,56,D,Single-ply,Pro Juniors 20-23,1992-05-04,55.1,лично,,,,,,,,,,,115,120,127.5,127.5,,127.5,1
M,Andrey Pavlyuchenko,Андрей Павлюченко,Yes,75,D,Single-ply,Pro Open,1990-04-20,72.4,Team Bregan,,,,,,,,,,,160,185,202.5,202.5,,202.5,1
M,Dmitriy Vyazmin,Дмитрий Вязьмин,Yes,82.5,D,Single-ply,Pro Open,1979-08-18,81.2,лично,,,,,,,,,,,215,-225,,215,,215,1
M,Leonid Sitkevich,Леонид Ситкевич,Yes,90,D,Single-ply,Pro Open,1985-12-22,89.7,лично,,,,,,,,,,,225,232.5,240,240,,240,1
M,Aleksey Vasilev,Алексей Васильев,Yes,110,D,Single-ply,Pro Masters 40-44,1971-05-07,101.2,лично,,,,,,,,,,,250,,,250,,250,1
