Name,Sex,BodyweightKg,Deadlift1Kg,Deadlift2Kg,Deadlift3Kg,Best3DeadliftKg,Deadlift4Kg,TotalKg,WeightClassKg,Event,Equipment,Tested,Bench1Kg,Bench2Kg,Bench3Kg,Best3BenchKg,Bench4Kg,Squat1Kg,Squat2Kg,Squat3Kg,Best3SquatKg,Squat4Kg,Division,Age,Place
Igor Filippov,M,81.5,260,-272.5,-272.5,260,,260,82.5,D,Single-ply,Yes,,,,,,,,,,,Open,33,1
Elena Enina,F,52.16,-115,,,,,,56,D,Raw,Yes,,,,,,,,,,,Open,28,DQ
Vladislav Piskaryov,M,66.8,170,180,187.5,187.5,,187.5,67.5,D,Raw,Yes,,,,,,,,,,,Juniors 20-23,22,1
Alexandr Osokin,M,74.3,-150,-160,160,160,,160,75,D,Raw,Yes,,,,,,,,,,,Juniors 20-23,22,1
Valentin Gruzdev,M,74.8,195,202.5,-205,202.5,,202.5,75,D,Raw,Yes,,,,,,,,,,,Open,27,1
Andrey Kulkov,M,73.4,185,200,205,205,,205,75,D,Raw,Yes,,,,,,,,,,,Submasters 33-39,34,1
Nikolay Konstantinov,M,72.1,170,190,200,200,,200,75,D,Raw,Yes,,,,,,,,,,,Masters 60-64,60,1
Nikita Kratt,M,80.2,225,237.5,-245,237.5,,237.5,82.5,D,Raw,Yes,,,,,,,,,,,Teen 16-17,17,1
Vladimir Volkov,M,88,185,195,205,205,,205,90,D,Raw,Yes,,,,,,,,,,,Teen 16-17,17,1
Victor Chalenko,M,86.7,235,245,-255,245,,245,90,D,Raw,Yes,,,,,,,,,,,Open,30,1
Vusal Aliev,M,88.6,212.5,217.5,222.5,222.5,,222.5,90,D,Raw,Yes,,,,,,,,,,,Open,32,2
Alexey Gureev,M,93.3,202.5,-212.5,,202.5,,202.5,100,D,Raw,Yes,,,,,,,,,,,Open,28,1
Maksim Neznamov,M,107.5,-275,280,-290,280,,280,110,D,Raw,Yes,,,,,,,,,,,Open,39,1
Ruslan Mardonov,M,102.9,190,210,220,220,,220,110,D,Raw,Yes,,,,,,,,,,,Open,39,2
Aleksandr Smirnov,M,109.3,215,-230,,215,,215,110,D,Raw,Yes,,,,,,,,,,,Masters 40-44,43,1
Nikolay Prokaev,M,65,170,195,205,205,,205,67.5,D,Single-ply,No,,,,,,,,,,,Open,30,1
Sarmat Ikaev,M,120.8,250,270,-280,270,,270,125,D,Raw,No,,,,,,,,,,,Juniors 20-23,21,1
Alexandr Bereznikov,M,115.2,260,270,-280,270,,270,125,D,Raw,No,,,,,,,,,,,Masters 50-54,53,1
Albina Popkova,F,52.16,,,,,,77.5,56,B,Raw,Yes,70,75,77.5,77.5,,,,,,,Open,28,1
Natalia Romenskaya,F,55.79,,,,,,57.5,56,B,Raw,Yes,-57.5,57.5,-62.5,57.5,,,,,,,Open,32,2
Fadis Musin,M,65.8,,,,,,,67.5,B,Raw,Yes,-135,-135,-135,,,,,,,,Open,28,DQ
Mikhail Sherlin,M,73.6,,,,,,,75,B,Raw,Yes,-117.5,-117.5,-117.5,,,,,,,,Teen 16-17,17,DQ
Valentin Gruzdev,M,74.8,,,,,,127.5,75,B,Raw,Yes,125,127.5,-130,127.5,,,,,,,Open,27,1
Vitaliy Vorobyov,M,72.5,,,,,,117.5,75,B,Raw,Yes,110,-117.5,117.5,117.5,,,,,,,Open,36,2
Dmitriy Sudarev,M,72.8,,,,,,,75,B,Raw,Yes,-127.5,-135,-135,,,,,,,,Open,27,DQ
Dmitriy Romanovskiy,M,79.2,,,,,,152.5,82.5,B,Raw,Yes,127.5,145,152.5,152.5,,,,,,,Open,26,1
Oleg Sugak,M,82.4,,,,,,142.5,82.5,B,Raw,Yes,142.5,-147.5,-147.5,142.5,,,,,,,Open,26,2
Ivan Vasiliev,M,81.9,,,,,,135,82.5,B,Raw,Yes,-135,-135,135,135,,,,,,,Open,26,3
Igor Kozlov #2,M,81.2,,,,,,127.5,82.5,B,Raw,Yes,-127.5,-127.5,127.5,127.5,,,,,,,Open,27,4
Sergey Vorobyov,M,81.5,,,,,,122.5,82.5,B,Raw,Yes,117.5,122.5,-127.5,122.5,,,,,,,Open,37,5
Alexandr Voronov,M,88.8,,,,,,135,90,B,Raw,Yes,127.5,132.5,135,135,,,,,,,Open,27,1
Sergey Urazov,M,86.9,,,,,,132.5,90,B,Raw,Yes,125,132.5,-135,132.5,,,,,,,Open,24,2
Abdul-Rashid Metrischev,M,98.7,,,,,,190,100,B,Raw,Yes,190,-195,-195,190,,,,,,,Open,43,1
Abdul-Rashid Metrischev,M,98.7,,,,,,190,100,B,Raw,Yes,190,-195,-195,190,,,,,,,Masters 40-44,43,1
Nikolay Romasenko,M,99.1,,,,,,182.5,100,B,Raw,Yes,172.5,-180,182.5,182.5,,,,,,,Masters 40-44,44,2
Vadim Shabanov,M,94.1,,,,,,160,100,B,Raw,Yes,150,160,-170,160,,,,,,,Masters 45-49,45,1
Alexey Kiryanov,M,101.3,,,,,,185,110,B,Raw,Yes,167.5,175,185,185,,,,,,,Open,28,1
Anatoliy Pauesov,M,109.5,,,,,,145,110,B,Raw,Yes,145,-150,,145,,,,,,,Masters 60-64,64,1
Alexandr Malyshev,M,117,,,,,,,125,B,Raw,Yes,-175,-175,-180,,,,,,,,Open,36,DQ
Dobrogor Raskhodchikov,M,118.8,,,,,,160,125,B,Raw,Yes,155,160,-165,160,,,,,,,Masters 40-44,40,1
Igor Bichkov,M,113,,,,,,172.5,125,B,Raw,Yes,170,172.5,-175,172.5,,,,,,,Masters 45-49,47,1
Vladimir Chubarov,M,123.9,,,,,,172.5,125,B,Raw,Yes,172.5,-177.5,-177.5,172.5,,,,,,,Masters 50-54,53,1
Alexandr Ratkin,M,112.6,,,,,,105,125,B,Raw,Yes,105,-110,-110,105,,,,,,,Masters 55-59,57,1
Vladimir Seleznev,M,127.2,,,,,,182.5,140,B,Raw,Yes,177.5,182.5,-187.5,182.5,,,,,,,Masters 40-44,40,1
Natalia Sidorkina,F,54.89,117.5,120,125,125,,280,56,SBD,Raw,Yes,50,55,-57.5,55,,90,95,100,100,,Open,30,1
Inessa Kontar,F,53.98,-105,105,112.5,112.5,,235,56,SBD,Raw,Yes,40,45,-50,45,,65,-72.5,77.5,77.5,,Open,37,2
Yulia Balamutova,F,54.43,60,70,75,75,,165,56,SBD,Raw,Yes,25,30,-32.5,30,,50,60,-67.5,60,,Open,31,3
Anastasiya Mindlina,F,61.24,117.5,125,-130,125,,317.5,67.5,SBD,Raw,Yes,-72.5,72.5,-75,72.5,,-115,115,120,120,,Juniors 20-23,21,1
Artyom Polyakov,M,81.3,215,222.5,227.5,227.5,,527.5,82.5,SBD,Raw,Yes,115,120,-125,120,,-165,172.5,180,180,,Juniors 20-23,23,1
Andrey Ansimov,M,89.7,220,240,-245,240,,595,90,SBD,Raw,Yes,145,150,155,155,,190,200,,200,,Open,30,1
Vusal Aliev,M,88.6,-210,215,-227.5,215,,552.5,90,SBD,Raw,Yes,137.5,-147.5,-147.5,137.5,,180,200,-207.5,200,,Open,32,2
Nikolay Borisov,M,89.2,160,175,,175,,435,90,SBD,Raw,Yes,95,102.5,107.5,107.5,,135,145,152.5,152.5,,Masters 55-59,55,1
Ivan Lakhanov,M,95.9,230,237.5,-245,237.5,,560,100,SBD,Raw,Yes,137.5,-145,-145,137.5,,175,185,-200,185,,Open,30,1
Andrey Mikhailov,M,94.9,190,215,-225,215,,565,100,SBD,Raw,Yes,-140,145,155,155,,170,-190,195,195,,Submasters 33-39,34,1
Artyom Bezpalenko,M,109.1,240,255,267.5,267.5,,687.5,110,SBD,Raw,Yes,170,185,-192.5,185,,180,210,235,235,,Open,27,1
Maksim Neznamov,M,107.5,-275,-275,275,275,,675,110,SBD,Raw,Yes,170,180,-190,180,,-220,220,-240,220,,Open,39,2
Olga Bachmaga,F,53.07,,,,,,75,56,B,Raw,No,-67.5,70,75,75,,,,,,,Open,32,1
Artemiy Miroshnikov,M,54.1,,,,,,85,56,B,Raw,No,85,-90,-90,85,,,,,,,Open,36,1
Alexey Simutkin,M,79.1,,,,,,150,82.5,B,Raw,No,-150,-150,150,150,,,,,,,Open,31,1
Nofar Jafarov,M,98.9,,,,,,220,100,B,Raw,No,-220,-220,220,220,,,,,,,Open,28,1
Yuriy Grigoriev,M,100,,,,,,197.5,100,B,Raw,No,-192.5,192.5,197.5,197.5,,,,,,,Open,35,2
Igor Kurinnoy,M,102,,,,,,165,110,B,Raw,No,150,155,165,165,,,,,,,Juniors 20-23,21,1
Vladislav Kolesnikov,M,104.2,,,,,,207.5,110,B,Raw,No,202.5,207.5,-210,207.5,,,,,,,Open,33,1
Oleg Tikhonov,M,106.9,,,,,,170,110,B,Raw,No,160,170,-172.5,170,,,,,,,Masters 45-49,48,1
Evgeniy Abrosimov,M,104.8,,,,,,200,110,B,Raw,No,190,195,200,200,,,,,,,Masters 50-54,51,1
Alexandr Bereznikov,M,115.2,,,,,,160,125,B,Raw,No,155,160,-165,160,,,,,,,Masters 50-54,53,1
Sergey Kryuchkov,M,69.1,-90,,,,,,75,SBD,Raw,No,-55,,,,,-80,-95,-95,,,Masters 45-49,47,DQ
Sarmat Ikaev,M,120.8,250,270,-280,270,,670,125,SBD,Raw,No,140,150,-160,150,,-240,250,-270,250,,Juniors 20-23,21,1
Andrey Goncharov,M,67.1,,,,,,145,67.5,B,Unlimited,Yes,-145,-145,145,145,,,,,,,Open,33,1
Alexey Ivanov,M,86.8,,,,,,150,90,B,Unlimited,Yes,140,150,-160,150,,,,,,,Open,27,1
Sergey Myachik,M,88.8,,,,,,245,90,B,Unlimited,No,245,-252.5,-252.5,245,,,,,,,Open,38,1
Aleksey Leksin,M,97.3,,,,,,195,100,B,Unlimited,No,185,-195,195,195,,,,,,,Juniors 20-23,21,1
Sergey Prudnikov,M,112.5,,,,,,301,125,B,Unlimited,No,280,301,-305,301,,,,,,,Open,36,1
