Place,Name,CyrillicName,BirthDate,BodyweightKg,WeightClassKg,Sex,Bench1Kg,Bench2Kg,Bench3Kg,Best3BenchKg,TotalKg,Event,Equipment,Division
1,Tella Silla,Тэлла Силла,1968-08-11,47.6,48,F,-50,50,52.5,52.5,52.5,B,Raw,Pro Open
1,Olga Potapova,Ольга Потапова,1980-01-23,55.9,56,F,-57.5,57.5,60,60,60,B,Raw,Pro Open
2,Elena Petrova,Елена Петрова,1982-05-25,55.6,56,F,52.5,55,57.5,57.5,57.5,B,Raw,Pro Open
3,Olga Boychenko,Ольга Бойченко,1969-10-01,55.2,56,F,35,37.5,40,40,40,B,Raw,Pro Open
1,Mariam Simonishvili,Мариам Симонишвили,1992-09-01,57.6,60,F,-55,55,-62.5,55,55,B,Raw,Pro Open
2,Anastasiya Skobkaryova,Анастасия Скобкарёва,1984-08-31,60,60,F,-50,50,-52.5,50,50,B,Raw,Pro Open
1,Alena Maslennikova,Алена Масленникова,1991-04-09,66.3,67.5,F,75,80,-82.5,80,80,B,Raw,Pro Open
1,Aleksandr Antonenko,Александр Антоненко,1989-07-30,65.8,67.5,M,110,115,120,120,120,B,Raw,Pro Open
1,Ivan Afanasev,Иван Афанасьев,1987-01-13,74,75,M,140,150,155,155,155,B,Raw,Pro Open
2,Maksim Dunko,Максим Дунько,1995-04-26,72.5,75,M,-135,135,140,140,140,B,Raw,Pro Open
3,Sergey Khmelevskiy,Сергей Хмелевский,1990-04-15,72.7,75,M,135,140,-142.5,140,140,B,Raw,Pro Open
1,Maksim Kazdoba,Максим Каздоба,1987-11-15,80.9,82.5,M,160,165,170,170,170,B,Raw,Pro Open
1,Vladimir Rybalko,Владимир Рыбалко,1987-05-04,84.4,90,M,160,165,170,170,170,B,Raw,Pro Open
2,Nikolay Timoshev,Николай Тимошев,1986-06-15,90,90,M,160,162.5,-165,162.5,162.5,B,Raw,Pro Open
3,Armen Vardanyan,Армен Варданян,1984-10-15,89.9,90,M,150,-157.5,-157.5,150,150,B,Raw,Pro Open
4,Dmitriy Kurinov,Дмитрий Куринов,1987-07-18,89.4,90,M,-135,137.5,-140,137.5,137.5,B,Raw,Pro Open
5,Ashot Karakezov,Ашот Каракезов,1985-02-02,88.7,90,M,-125,125,130,130,130,B,Raw,Pro Open
DQ,Aleksandr Parshin,Александр Паршин,1994-12-23,89.9,90,M,-140,-150,,,,B,Raw,Pro Open
1,Vladimir Zakharov,Владимир Захаров,1955-07-07,99.9,100,M,180,185,190,190,190,B,Raw,Pro Open
2,Aleksandr Vlaskov,Александр Власков,1984-11-10,94.2,100,M,160,170,172.5,172.5,172.5,B,Raw,Pro Open
3,Viktor Zhavoronkov,Виктор Жаворонков,1988-12-12,98.1,100,M,150,152.5,-155,152.5,152.5,B,Raw,Pro Open
1,Aleksey Ermakov,Алексей Ермаков,1994-05-06,109.5,110,M,160,-170,-170,160,160,B,Raw,Pro Open
DQ,Igor Tkachenko,Игорь Ткаченко,2000-02-18,104.1,110,M,-100,-100,-100,,,B,Raw,Pro Open
1,Denis Supryaga,Денис Супряга,1996-05-15,122.4,125,M,160,170,175,175,175,B,Raw,Pro Open
1,Aleksandr Sokolov,Александр Соколов,1979-09-10,134.5,140,M,190,200,205,205,205,B,Raw,Pro Open
2,Sergey Dronin,Сергей Дронин,1980-05-06,132,140,M,-155,155,160,160,160,B,Raw,Pro Open
1,Sergey Ledenyov,Сергей Леденёв,1988-10-19,105.3,110,M,-210,210,-220,210,210,B,Single-ply,Pro Open
