Sex,Name,CyrillicName,Country,Place,BodyweightKg,Squat1Kg,Squat2Kg,Squat3Kg,Best3SquatKg,Squat4Kg,Bench1Kg,Bench2Kg,Bench3Kg,Best3BenchKg,Bench4Kg,Deadlift1Kg,Deadlift2Kg,Deadlift3Kg,Best3DeadliftKg,Deadlift4Kg,TotalKg,WeightClassKg,Event,Equipment,Tested,Division,Age,BirthDate
F,Lyudmila Ovchinnikova,Людмила Овчинникова,Russia,1,47.3,70,80,85,85,,40,-45,-45,40,,80,-87.5,-87.5,80,,205,48,SBD,Wraps,Yes,Open,29,1988-10-15
F,Yuliya Tyurikova,Юлия Тюрикова,Russia,1,63.2,60,-65,70,70,,40,-45,-45,40,,80,-90,95,95,,205,67.5,SBD,Wraps,Yes,Open,30,1988-03-21
M,Batgerel,,Mongolia,1,82.5,100,120,140,140,,60,65,-70,65,,130,150,160,160,,365,82.5,SBD,Wraps,Yes,Open,20,1997-09-16
M,Artyom Dmitriev,Артём Дмитриев,Russia,1,52.8,75,82.5,90,90,,-62.5,62.5,65,65,,100,110,120,120,,275,56,SBD,Wraps,Yes,Teen 13-15,14,2003-06-09
M,Andrey Petukhov,Андрей Петухов,Russia,1,59.3,120,130,135,135,,92.5,100,-102.5,100,,145,160,165,165,,400,60,SBD,Wraps,Yes,Teen 16-17,17,2001-02-23
M,Andrey Smolyankin,Андрей Смолянкин,Russia,1,63.9,100,105,110,110,,60,65,70,70,,110,-120,-120,110,,290,67.5,SBD,Wraps,Yes,Teen 13-15,14,2003-10-29
M,Zakhar Bogdanov,Захар Богданов,Russia,1,65.9,100,105,112.5,112.5,,-70,75,80,80,,155,165,170,170,,362.5,67.5,SBD,Wraps,Yes,Teen 16-17,16,2001-07-19
M,Maksim Yakovlev,Максим Яковлев,Russia,1,66.4,120,130,140,140,,85,90,,90,,160,170,-190,170,,400,67.5,SBD,Wraps,Yes,Juniors 20-23,20,1998-01-21
M,Igor Gabrielyan,Игорь Габриелян,Russia,1,66.6,170,-190,190,190,,130,140,,140,,180,-200,200,200,,530,67.5,SBD,Wraps,Yes,Open,32,1986-03-13
M,Nikita Rassadin,Никита Рассадин,Russia,1,68.8,70,80,-90,80,,-50,50,55,55,,90,100,105,105,,240,75,SBD,Wraps,Yes,Teen 13-15,15,2003-03-24
M,Ilya Vtorushin,Илья Вторушин,Russia,1,72.9,115,120,122.5,122.5,,-90,90,92.5,92.5,,137.5,140,142.5,142.5,,357.5,75,SBD,Wraps,Yes,Teen 16-17,17,2000-10-21
M,Aleksey Astrakhantsev,Алексей Астраханцев,Russia,2,71.4,80,85,90,90,,55,62.5,65,65,,-140,145,150,150,,305,75,SBD,Wraps,Yes,Teen 16-17,17,2000-07-05
M,Semyon Silantev,Семён Силантьев,Russia,1,80.3,110,-115,-115,110,,70,75,-80,75,,110,115,120,120,,305,82.5,SBD,Wraps,Yes,Teen 16-17,17,2000-11-07
M,Pyotr Tokarev,Пётр Токарев,Russia,1,77.8,-190,-200,200,200,,-125,125,-135,125,,230,-250,-260,230,,555,82.5,SBD,Wraps,Yes,Open,28,1989-10-30
M,Andrey Akulov,Андрей Акулов,Russia,2,78.8,200,210,-220,210,,105,110,115,115,,200,205,210,210,,535,82.5,SBD,Wraps,Yes,Open,25,1992-11-24
M,Aleksandr Chekasin,Александр Чекасин,Russia,DQ,80.4,157.5,172.5,-180,172.5,,-102.5,-102.5,-102.5,,,-187.5,,,,,,82.5,SBD,Wraps,Yes,Masters 40-44,44,1973-08-11
M,Bair-Munko Bolotov,Баир-Мунко Болотов,Russia,1,82,160,-170,-180,160,,85,100,,100,,170,195,-215,195,,455,82.5,SBD,Wraps,Yes,Masters 45-49,46,1972-01-28
M,Evgeniy Korablev,Евгений Кораблев,Russia,1,86.1,210,220,-225,220,,-125,125,,125,,210,220,-225,220,,565,90,SBD,Wraps,Yes,Open,30,1987-09-04
M,Anton Maslennikov,Антон Масленников,Russia,2,85,140,-155,-165,140,,80,-92.5,-92.5,80,,150,160,,160,,380,90,SBD,Wraps,Yes,Open,36,1982-01-03
M,Munkh-Yertunts Gonchigdorj,,Mongolia,1,90,120,150,-170,150,,-120,120,-137.5,120,,170,190,-210,190,,460,90,SBD,Wraps,Yes,Masters 40-44,42,1975-07-04
M,Amarzaya Taivantumur,,Mongolia,1,99.2,250,280,300,300,,180,190,,190,,240,255,-265,255,,745,100,SBD,Wraps,Yes,Open,30,1987-08-02
M,Sergey Sokolov,Сергей Соколов,Russia,2,98.7,-200,205,215,215,,130,-135,-135,130,,210,225,-240,225,,570,100,SBD,Wraps,Yes,Open,35,1983-01-06
M,Aleksey Skubiev,Алексей Скубиев,Russia,3,90.3,-140,-140,140,140,,110,120,125,125,,150,170,180,180,,445,100,SBD,Wraps,Yes,Open,33,1984-11-24
M,Dmitriy Oprokidnyov,Дмитрий Опрокиднёв,Russia,DQ,99.4,-190,-190,-190,,,-120,,,,,-210,,,,,,100,SBD,Wraps,Yes,Open,28,1989-10-09
M,Sergey Soklakov,Сергей Соклаков,Russia,1,97.3,180,195,-205,195,,155,-160,,155,,190,205,,205,,555,100,SBD,Wraps,Yes,Masters 45-49,48,1970-02-21
M,Fyodor Sokolov,Фёдор Соколов,Russia,1,94.8,110,115,,115,,110,115,,115,,140,150,,150,,380,100,SBD,Wraps,Yes,Masters 60-64,64,1953-07-31
M,Gennadiy Zolotuev,Геннадий Золотуев,Russia,1,123.3,130,140,-150,140,,75,-87.5,-87.5,75,,130,140,150,150,,365,125,SBD,Wraps,Yes,Teen 18-19,18,1999-11-10
F,Irina Zemskova,Ирина Земскова,Russia,1,49.5,,,,,,50,-57.5,-57.5,50,,,,,,,50,52,B,Raw,Yes,Teen 16-17,17,2001-01-27
F,Zhanna Dorofeeva,Жанна Дорофеева,Russia,1,56,,,,,,47.5,52.5,55,55,,,,,,,55,56,B,Raw,Yes,Teen 16-17,16,2001-10-21
F,Kseniya Burchyonkova,Ксения Бурчёнкова,Russia,1,56,,,,,,60,65,-67.5,65,,,,,,,65,56,B,Raw,Yes,Open,26,1992-03-01
F,Marta Tivelyova,Марта Тивелёва,Russia,1,68.9,,,,,,57.5,62.5,-65,62.5,,,,,,,62.5,75,B,Raw,Yes,Open,26,1991-11-30
M,Akim Pavlov,Аким Павлов,Russia,1,53.2,,,,,,-75,-75,75,75,,,,,,,75,56,B,Raw,Yes,Teen 16-17,17,2001-04-19
M,Anton Arkhipov,Антон Архипов,Russia,1,57.2,,,,,,55,60,-65,60,,,,,,,60,60,B,Raw,Yes,Teen 13-15,13,2004-07-01
M,Andrey Petukhov,Андрей Петухов,Russia,1,59.3,,,,,,92.5,100,-102.5,100,,,,,,,100,60,B,Raw,Yes,Teen 16-17,17,2001-02-23
M,Aleksandr Shestakov,Александр Шестаков,Russia,1,70.7,,,,,,130,135,-137.5,135,,,,,,,135,75,B,Raw,Yes,Juniors 20-23,22,1995-08-07
M,Aleksey Shcherbakov,Алексей Щербаков,Russia,1,72.6,,,,,,135,137.5,142.5,142.5,,,,,,,142.5,75,B,Raw,Yes,Open,37,1980-09-21
M,Dmitriy Nikitin,Дмитрий Никитин,Russia,2,74,,,,,,130,135,142.5,142.5,,,,,,,142.5,75,B,Raw,Yes,Open,24,1993-06-05
M,Andrey Nesterenko,Андрей Нестеренко,Russia,3,73.5,,,,,,-125,125,-135,125,,,,,,,125,75,B,Raw,Yes,Open,31,1986-06-22
M,Denis Kozulin,Денис Козулин,Russia,4,73.6,,,,,,-112.5,112.5,-117.5,112.5,,,,,,,112.5,75,B,Raw,Yes,Open,32,1985-11-22
M,Ilya Klimov,Илья Климов,Russia,1,78.6,,,,,,90,95,102.5,102.5,,,,,,,102.5,82.5,B,Raw,Yes,Teen 16-17,16,2001-10-08
M,Artyom Plyaskin,Артём Пляскин,Russia,1,81.1,,,,,,137.5,145,-152.5,145,,,,,,,145,82.5,B,Raw,Yes,Juniors 20-23,22,1995-06-25
M,Denis Zolotukhin,Денис Золотухин,Russia,1,82.3,,,,,,145,-147.5,,145,,,,,,,145,82.5,B,Raw,Yes,Open,32,1986-01-27
M,Ivan Chanonsi,Иван Чанонси,Russia,2,82,,,,,,130,140,-145,140,,,,,,,140,82.5,B,Raw,Yes,Open,29,1989-02-21
M,Sergey Shlyakhtin,Сергей Шляхтин,Russia,3,81.6,,,,,,120,130,-140,130,,,,,,,130,82.5,B,Raw,Yes,Open,35,1982-09-17
M,Aleksandr Trofimov,Александр Трофимов,Russia,1,88.2,,,,,,170,175,-180,175,,,,,,,175,90,B,Raw,Yes,Open,25,1992-10-22
M,Amarzaya Taivantumur,,Russia,1,99.2,,,,,,185,,,185,,,,,,,185,100,B,Raw,Yes,Open,30,1987-08-02
M,Dmitriy Gritsaenko,Дмитрий Грицаенко,Russia,2,98.8,,,,,,160,165,-167.5,165,,,,,,,165,100,B,Raw,Yes,Open,38,1979-07-17
M,Dmitriy Porushnichak,Дмитрий Порушничак,Russia,3,98.8,,,,,,155,-162.5,-165,155,,,,,,,155,100,B,Raw,Yes,Open,34,1984-04-07
M,Dmitriy Grigoryev #4,Дмитрий Григорьев,Russia,4,93.6,,,,,,117.5,-125,125,125,,,,,,,125,100,B,Raw,Yes,Open,29,1989-03-12
M,Dmitriy Gritsaenko,Дмитрий Грицаенко,Russia,1,98.8,,,,,,160,165,-167.5,165,,,,,,,165,100,B,Raw,Yes,Submasters 33-39,38,1979-07-17
M,Vladislav Dolgov,Владислав Долгов,Russia,1,100,,,,,,150,162.5,,162.5,,,,,,,162.5,100,B,Raw,Yes,Masters 40-44,41,1977-02-23
M,Aleksey Solovyov,Алексей Соловьёв,Russia,2,100,,,,,,120,127.5,132.5,132.5,,,,,,,132.5,100,B,Raw,Yes,Masters 40-44,40,1977-11-08
M,Eduard Veliks,Эдуард Великс,Russia,1,98.6,,,,,,140,-145,147.5,147.5,,,,,,,147.5,100,B,Raw,Yes,Masters 45-49,45,1973-02-01
M,Fyodor Sokolov,Фёдор Соколов,Russia,1,94.8,,,,,,110,115,120,120,,,,,,,120,100,B,Raw,Yes,Masters 60-64,64,1953-07-31
M,Dmitriy Peshkov,Дмитрий Пешков,Russia,1,108.9,,,,,,142.5,155,-162.5,155,,,,,,,155,110,B,Raw,Yes,Open,26,1991-07-06
M,Artyom Zaytsev #2,Артём Зайцев,Russia,2,102.5,,,,,,-150,150,,150,,,,,,,150,110,B,Raw,Yes,Open,27,1990-10-30
M,Vladimir Alfyorov,Владимир Алфёров,Russia,1,121.1,,,,,,167.5,177.5,182.5,182.5,,,,,,,182.5,125,B,Raw,Yes,Open,34,1983-12-14
M,Pyotr Druzhinin,Пётр Дружинин,Russia,2,123.4,,,,,,162.5,-170,,162.5,,,,,,,162.5,125,B,Raw,Yes,Open,28,1989-08-27
M,Nikolay Shchegrin,Николай Щегрин,Russia,1,135,,,,,,210,-215,215,215,,,,,,,215,140,B,Raw,Yes,Open,25,1992-12-19
F,Valeriya Podoynitsyna,Валерия Подойницына,Russia,1,53.6,,,,,,,,,,,95,100,105,105,,105,56,D,Raw,Yes,Teen 16-17,16,2002-03-30
F,Viktoriya Stepanenko,Виктория Степаненко,Russia,1,55,,,,,,,,,,,130,140,-145,140,,140,56,D,Raw,Yes,Open,25,1992-11-13
M,Vladislav Ivanov,Владислав Иванов,Russia,1,39.4,,,,,,,,,,,85,90,-95,90,,90,44,D,Raw,Yes,Sub-Teen 11-12,11,2007-04-05
M,Grigoriy Kustov,Григорий Кустов,Russia,1,52,,,,,,,,,,,130,145,-152.5,145,,145,52,D,Raw,Yes,Teen 13-15,15,2002-06-24
M,Vyacheslav Tebenkov,Вячеслав Тебеньков,Russia,1,55.3,,,,,,,,,,,150,-162.5,162.5,162.5,,162.5,56,D,Raw,Yes,Teen 16-17,16,2001-11-20
M,Akim Pavlov,Аким Павлов,Russia,2,53.2,,,,,,,,,,,120,130,142.5,142.5,,142.5,56,D,Raw,Yes,Teen 16-17,17,2001-04-19
M,Vladislav Sveshnikov,Владислав Свешников,Russia,1,59.1,,,,,,,,,,,140,155,160,160,,160,60,D,Raw,Yes,Teen 18-19,18,2000-01-24
M,Danil Vatutin,Данил Ватутин,Russia,1,65.5,,,,,,,,,,,170,180,-185,180,,180,67.5,D,Raw,Yes,Teen 16-17,16,2001-12-06
M,Valeriy Mekhovnikov,Валерий Меховников,Russia,2,66.7,,,,,,,,,,,145,-150,150,150,,150,67.5,D,Raw,Yes,Teen 16-17,17,2000-09-17
M,Matvey Shatov,Матвей Шатов,Russia,1,70.6,,,,,,,,,,,170,180,190,190,,190,75,D,Raw,Yes,Teen 16-17,17,2000-07-04
M,Andrey Nesterenko,Андрей Нестеренко,Russia,1,73.5,,,,,,,,,,,190,-202.5,202.5,202.5,,202.5,75,D,Raw,Yes,Open,31,1986-06-22
M,Ruslan Gavryushin,Руслан Гаврюшин,Russia,1,75.7,,,,,,,,,,,-175,175,-185,175,,175,82.5,D,Raw,Yes,Teen 18-19,19,1998-11-15
M,Vladislav Sokolov,Владислав Соколов,Russia,2,76.4,,,,,,,,,,,-140,-160,160,160,,160,82.5,D,Raw,Yes,Teen 18-19,18,2000-05-07
M,Aleksandr Chekasin,Александр Чекасин,Russia,1,80.4,,,,,,,,,,,175,-190,-190,175,,175,82.5,D,Raw,Yes,Masters 40-44,44,1973-08-11
M,Bair-Munko Bolotov,Баир-Мунко Болотов,Russia,1,82,,,,,,,,,,,170,195,,195,,195,82.5,D,Raw,Yes,Masters 45-49,46,1972-01-28
M,Ivan Kondratev,Иван Кондратьев,Russia,1,86.6,,,,,,,,,,,195,,,195,,195,90,D,Raw,Yes,Open,35,1982-11-23
M,Anton Redikultsev,Антон Редикульцев,Russia,1,89.7,,,,,,,,,,,235,255,265,265,,265,90,D,Raw,Yes,Masters 40-44,43,1975-05-26
M,Sergey Sokolov,Сергей Соколов,Russia,1,98.7,,,,,,,,,,,210,227.5,232.5,232.5,,232.5,100,D,Raw,Yes,Open,35,1983-01-06
M,Dmitriy Oprokidnyov,Дмитрий Опрокиднёв,Russia,2,99.4,,,,,,,,,,,180,210,-232.5,210,,210,100,D,Raw,Yes,Open,28,1989-10-09
M,Evgeniy Safiulin,Евгений Сафиулин,Russia,1,96.1,,,,,,,,,,,-190,202.5,205,205,,205,100,D,Raw,Yes,Masters 40-44,44,1973-09-08
M,Fyodor Sokolov,Фёдор Соколов,Russia,1,94.8,,,,,,,,,,,150,160,170,170,,170,100,D,Raw,Yes,Masters 60-64,64,1953-07-31
M,Dmitriy Peshkov,Дмитрий Пешков,Russia,1,108.9,,,,,,,,,,,220,230,-240,230,,230,110,D,Raw,Yes,Open,26,1991-07-06
M,Sergey Orekhov,Сергей Орехов,Russia,1,69.8,125,130,140,140,,70,75,80,80,,150,155,160,160,,380,75,SBD,Wraps,No,Teen 16-17,17,2001-04-01
M,Ilya Maltsev,Илья Мальцев,Russia,1,104.8,230,245,260,260,,140,145,150,150,,230,245,255,255,,665,110,SBD,Wraps,No,Open,39,1978-08-02
M,Ilya Maltsev,Илья Мальцев,Russia,1,104.8,230,245,260,260,,140,145,150,150,,230,245,255,255,,665,110,SBD,Wraps,No,Submasters 33-39,39,1978-08-02
M,Ilya Lovtsov,Илья Ловцов,Russia,1,111,-240,240,-250,240,,200,,,200,,240,260,-270,260,,700,125,SBD,Wraps,No,Juniors 20-23,23,1994-08-02
M,Stanislav Trubin,Станислав Трубин,Russia,1,52,180,187.5,192.5,192.5,,115,120,125,125,,-155,155,160,160,,477.5,52,SBD,Unlimited,No,Juniors 20-23,22,1995-10-14
M,Oleg Solonenko,Олег Солоненко,Russia,DQ,70.3,,,,,,,,,,,,,,,,,75,B,Raw,No,Open,47,1970-09-26
M,Pyotr Belousov,Пётр Белоусов,Russia,1,81,,,,,,165,175,185,185,,,,,,,185,82.5,B,Raw,No,Open,28,1989-06-09
M,Aleksandr Turaev,Александр Тураев,Russia,1,81,,,,,,155,162.5,165,165,,,,,,,165,82.5,B,Raw,No,Masters 45-49,49,1968-08-07
M,Aleksandr Sukhanov,Александр Суханов,Russia,1,97.6,,,,,,165,175,180,180,,,,,,,180,100,B,Raw,No,Open,35,1982-12-28
M,Stanislav Zinchuk,Станислав Зинчук,Russia,2,92.4,,,,,,165,175,-180,175,,,,,,,175,100,B,Raw,No,Open,25,1993-04-14
M,Aleksandr Fyodorov,Александр Фёдоров,Russia,1,108.4,,,,,,190,200,205,205,,,,,,,205,110,B,Raw,No,Open,32,1986-04-29
M,Boris Prosverennikov,Борис Просверенников,Russia,1,123.1,,,,,,175,180,185,185,,,,,,,185,125,B,Raw,No,Masters 40-44,41,1977-02-13
M,Aleksey Prikhodko,Алексей Приходько,Russia,1,115.8,,,,,,190,200,,200,,,,,,,200,125,B,Raw,No,Masters 45-49,45,1972-08-18
M,Stanislav Trubin,Станислав Трубин,Russia,1,52,,,,,,110,120,127.5,127.5,,,,,,,127.5,52,B,Unlimited,No,Juniors 20-23,22,1995-10-14
M,Oleg Solonenko,Олег Солоненко,Russia,1,70.3,,,,,,,,,,,190,-200,,190,,190,75,D,Raw,No,Open,47,1970-09-26
M,Oleg Solonenko,Олег Солоненко,Russia,1,70.3,,,,,,,,,,,190,-200,,190,,190,75,D,Raw,No,Masters 45-49,47,1970-09-26
M,Sergey Mik,Сергей Мик,Russia,1,81.7,,,,,,,,,,,-235,250,-270,250,,250,82.5,D,Raw,No,Open,31,1987-01-22
M,Pyotr Zolotuev,Пётр Золотуев,Russia,1,98.6,,,,,,,,,,,-240,260,280,280,,280,100,D,Raw,No,Open,25,1992-08-01
M,Igor Umerenkov,Игорь Умеренков,Russia,1,102,,,,,,,,,,,260,270,285,285,,285,110,D,Raw,No,Open,37,1980-09-13
M,Igor Umerenkov,Игорь Умеренков,Russia,1,102,,,,,,,,,,,260,270,285,285,,285,110,D,Raw,No,Submasters 33-39,37,1980-09-13
M,Andrey Kupriyanov,Андрей Куприянов,Russia,1,95.1,,,,,,185,192.5,-200,192.5,,,,,,,192.5,100,B,Unlimited,Yes,Open,28,1989-06-01
M,Konstantin Semyonov,Константин Семёнов,Russia,1,73.6,,,,,,170,175,180,180,,,,,,,180,75,B,Unlimited,No,Open,53,1964-08-24
M,Konstantin Semyonov,Константин Семёнов,Russia,1,73.6,,,,,,170,175,180,180,,,,,,,180,75,B,Unlimited,No,Masters 50-54,53,1964-08-24
M,Anton Dvodnenko,Антон Дводненко,Russia,1,98.4,,,,,,-190,190,-205,190,,,,,,,190,100,B,Unlimited,No,Open,31,1986-06-27
M,Aleksandr Lyozin,Александр Лёзин,Russia,1,106.3,,,,,,250,270,-287.5,270,,,,,,,270,110,B,Unlimited,No,Masters 45-49,47,1970-06-03
