Division,WeightClassKg,Place,Name,Team,BodyweightKg,Best3SquatKg,Best3BenchKg,Best3DeadliftKg,TotalKg,Equipment,Event,Sex
Boys,51.71,1,Marc Celaya,Fort Stockton,51.53,127.01,72.57,133.81,333.39,Single-ply,SBD,M
Boys,51.71,2,Chris Ortiz,Pecos,50.8,129.27,68.04,127.01,324.32,Single-ply,SBD,M
Boys,51.71,3,Rafael Corralez,Fort Stockton,51.07,106.59,61.23,122.47,290.3,Single-ply,SBD,M
Boys,51.71,4,Derek Hatchett,Lamesa Klondike,42.27,63.5,38.56,81.65,183.7,Single-ply,SBD,M
Boys,51.71,DQ,Jerome Hernandez,Fort Stockton,44.91,,,,,Single-ply,SBD,M
Boys,51.71,DQ,Zach Alvarez,Fort Stockton,51.26,,,,,Single-ply,SBD,M
Boys,55.79,DQ,Tucker Craig,Midland,51.8,129.27,,,,Single-ply,SBD,M
Boys,55.79,1,Diago Lara,Fort Stockton,55.16,147.42,88.45,161.03,396.89,Single-ply,SBD,M
Boys,55.79,2,Noel Ybarra,Pecos,55.61,138.35,72.57,149.69,360.61,Single-ply,SBD,M
Boys,55.79,3,Xzavier Estrada,Andrews,55.25,136.08,74.84,131.54,342.46,Single-ply,SBD,M
Boys,55.79,4,Zavian Florez,Kermit,55.7,122.47,68.04,145.15,335.66,Single-ply,SBD,M
Boys,55.79,DQ,Kelby O'Brien,Lamesa Klondike,54.79,,,,,Single-ply,SBD,M
Boys,59.87,1,David Muela,Pecos,59.78,102.06,52.16,113.4,267.62,Single-ply,SBD,M
Boys,59.87,DQ,George Barker,Lamesa Klondike,56.79,,,,,Single-ply,SBD,M
Boys,59.87,DQ,Isiah Petralba,Fort Stockton,58.97,167.83,92.99,,,Single-ply,SBD,M
Boys,59.87,DQ,Nathaniel Garcia,Fort Stockton,58.42,136.08,,,,Single-ply,SBD,M
Boys,67.13,1,Christian Arzabala,Andrews,64.14,181.44,95.25,195.04,471.74,Single-ply,SBD,M
Boys,67.13,2,Oscar Salgado,Alpine,64.59,156.49,106.59,176.9,439.98,Single-ply,SBD,M
Boys,67.13,3,Oscar Solis,Pecos,66.86,158.76,106.59,158.76,424.11,Single-ply,SBD,M
Boys,67.13,4,Chase Rheilander,Midland,65.32,158.76,90.72,167.83,417.3,Single-ply,SBD,M
Boys,67.13,5,Manuel Cordova,Pecos,63.96,158.76,83.91,170.1,412.77,Single-ply,SBD,M
Boys,67.13,6,Raul Vasquez,Andrews,65.41,145.15,83.91,161.03,390.09,Single-ply,SBD,M
Boys,67.13,7,Marco Cordova,Pecos,63.23,136.08,83.91,158.76,378.75,Single-ply,SBD,M
Boys,67.13,8,Jeremiah Salinas,Lamesa Klondike,64.5,145.15,74.84,151.95,371.95,Single-ply,SBD,M
Boys,67.13,9,Marcus Molina,Lamesa Klondike,64.86,136.08,86.18,149.69,371.95,Single-ply,SBD,M
Boys,67.13,10,Zane Smith,Lamesa Klondike,66.13,102.06,70.31,136.08,308.44,Single-ply,SBD,M
Boys,67.13,11,Desmond Munoz,Fort Stockton,66.22,97.52,54.43,95.25,247.21,Single-ply,SBD,M
Boys,74.84,1,Salvador Salinas,Midland,73.39,197.31,131.54,217.72,546.58,Single-ply,SBD,M
Boys,74.84,2,Oscar Sanchez,Fort Stockton,73.39,185.97,115.67,176.9,478.54,Single-ply,SBD,M
Boys,82.1,3,Juan Gonzalez,Fort Stockton,74.93,181.44,102.06,181.44,464.93,Single-ply,SBD,M
Boys,74.84,4,Leroy Sanchez,Andrews,67.95,192.78,77.11,192.78,462.66,Single-ply,SBD,M
Boys,74.84,5,Michael Key,Lamesa Klondike,74.12,170.1,92.99,183.7,446.79,Single-ply,SBD,M
Boys,74.84,6,Jacob Rodriguez #2,Fort Stockton,68.86,172.37,83.91,156.49,412.77,Single-ply,SBD,M
Boys,82.1,1,Cris Stallings,Kermit,82.01,226.8,158.76,235.87,621.42,Single-ply,SBD,M
Boys,82.1,2,Jose Cornejo,Andrews,81.56,229.06,133.81,249.48,612.35,Single-ply,SBD,M
Boys,82.1,3,Zach Denny,Kermit,81.74,213.19,127.01,226.8,566.99,Single-ply,SBD,M
Boys,82.1,4,Nicky Hoang,Midland,81.01,204.12,124.74,231.33,560.19,Single-ply,SBD,M
Boys,82.1,5,Marcos Rodriguez,Fort Stockton,80.38,204.12,113.4,195.04,512.56,Single-ply,SBD,M
Boys,82.1,6,Jake Strickland,Monahans,81.01,199.58,117.93,185.97,503.49,Single-ply,SBD,M
Boys,82.1,7,Blake Narrell,Andrews,81.28,192.78,108.86,188.24,489.88,Single-ply,SBD,M
Boys,82.1,8,Upton Sewell,Midland,76.02,174.63,124.74,181.44,480.81,Single-ply,SBD,M
Boys,82.1,9,Robert Natividad,Midland,80.1,188.24,111.13,174.63,474,Single-ply,SBD,M
Boys,82.1,10,Jacob Horner,Midland,80.92,183.7,102.06,188.24,474,Single-ply,SBD,M
Boys,82.1,11,Tyler Curtis,Alpine,80.92,147.42,95.25,183.7,426.38,Single-ply,SBD,M
Boys,82.1,12,Tyler Reynolds,Pecos,75.39,158.76,81.65,170.1,410.5,Single-ply,SBD,M
Boys,82.1,13,Victor Duenas,Pecos,79.02,158.76,102.06,147.42,408.23,Single-ply,SBD,M
Boys,82.1,DQ,Alonzo Corral,Fort Stockton,79.38,165.56,,,,Single-ply,SBD,M
Boys,82.1,DQ,Darian Vasquez,Fort Stockton,81.92,149.69,,,,Single-ply,SBD,M
Boys,89.81,1,Dannyk Ramos,Midland,89.81,272.16,129.27,235.87,637.3,Single-ply,SBD,M
Boys,89.81,2,Matthew Seibert,Pecos,88.18,208.65,131.54,226.8,566.99,Single-ply,SBD,M
Boys,89.81,3,Cody Fuentes,Monahans,83.73,174.63,102.06,183.7,460.4,Single-ply,SBD,M
Boys,89.81,4,Brandon Propst,Fort Stockton,83.73,165.56,115.67,156.49,437.72,Single-ply,SBD,M
Boys,89.81,DQ,Sam Tarin,Pecos,85.09,197.31,124.74,,,Single-ply,SBD,M
Boys,99.79,1,Dillon Springer,Midland,99.25,204.12,147.42,226.8,578.33,Single-ply,SBD,M
Boys,99.79,2,Keoni Garcia,Midland,97.52,215.46,131.54,219.99,566.99,Single-ply,SBD,M
Boys,99.79,3,Turner Phillips,Midland,90.26,201.85,129.27,208.65,539.77,Single-ply,SBD,M
Boys,99.79,4,Isaiah Marquez #1,Kermit,97.79,215.46,115.67,206.38,537.51,Single-ply,SBD,M
Boys,99.79,5,Sam Prewit,Pecos,98.52,208.65,108.86,188.24,505.76,Single-ply,SBD,M
Boys,99.79,6,Duston Vargas,Andrews,92.53,190.51,113.4,195.04,498.95,Single-ply,SBD,M
Boys,99.79,7,Willie Echols,Midland,92.35,192.78,111.13,190.51,494.42,Single-ply,SBD,M
Boys,99.79,8,Abraham Dominguez,Fort Stockton,97.43,183.7,113.4,183.7,480.81,Single-ply,SBD,M
Boys,99.79,9,Matt Mechler,Andrews,98.79,185.97,86.18,204.12,476.27,Single-ply,SBD,M
Boys,99.79,10,Josh Caldwell,Monahans,92.99,185.97,95.25,192.78,474,Single-ply,SBD,M
Boys,99.79,11,Nathan Tone,Monahans,93.35,185.97,117.93,167.83,471.74,Single-ply,SBD,M
Boys,99.79,12,Felipe Rodriguez,Kermit,99.52,183.7,97.52,181.44,462.66,Single-ply,SBD,M
Boys,99.79,13,Matthew Leyva,Kermit,95.62,190.51,83.91,158.76,433.18,Single-ply,SBD,M
Boys,99.79,DQ,Arnulfo Leyva,Kermit,93.53,,,,,Single-ply,SBD,M
Boys,99.79,DQ,Coleton Whitlock,Midland,97.07,272.16,,,,Single-ply,SBD,M
Boys,109.77,1,Javier Valdes,Midland,104.96,260.82,165.56,244.94,671.32,Single-ply,SBD,M
Boys,109.77,2,Esteban Lopez,Andrews,106.32,229.06,138.35,235.87,603.28,Single-ply,SBD,M
Boys,109.77,3,Ben Madrid,Pecos,103.24,197.31,165.56,226.8,589.67,Single-ply,SBD,M
Boys,109.77,4,Paxton Heiting,Midland,106.23,197.31,142.88,249.48,589.67,Single-ply,SBD,M
Boys,109.77,5,Micah Melton,Andrews,104.96,217.72,129.27,213.19,560.19,Single-ply,SBD,M
Boys,109.77,6,David Goodwin,Fort Stockton,105.23,215.46,129.27,201.85,546.58,Single-ply,SBD,M
Boys,109.77,7,Ty Crabtree,Monahans,105.32,197.31,136.08,210.92,544.31,Single-ply,SBD,M
Boys,109.77,8,Justin Rayos,Pecos,106.59,204.12,131.54,204.12,539.77,Single-ply,SBD,M
Boys,109.77,9,Marco Martínez,Kermit,108.95,195.04,111.13,204.12,510.29,Single-ply,SBD,M
Boys,109.77,10,Caleb Gonzales,Midland,102.97,190.51,120.2,195.04,505.76,Single-ply,SBD,M
Boys,109.77,11,Derek Leyva,Fort Stockton,109.32,190.51,111.13,195.04,496.68,Single-ply,SBD,M
Boys,109.77,12,Ivan Pena,Fort Stockton,106.41,192.78,102.06,185.97,480.81,Single-ply,SBD,M
Boys,109.77,13,Brock Barkowsky,Lamesa Klondike,104.51,158.76,106.59,195.04,460.4,Single-ply,SBD,M
Boys,109.77,14,Noah Barriga,Fort Stockton,106.14,167.83,77.11,151.95,396.89,Single-ply,SBD,M
Boys,109.77,15,Ricky Rosalez,Pecos,106.5,147.42,83.91,131.54,362.87,Single-ply,SBD,M
Boys,124.74,1,Oscar Gutierrez,Monahans,120.2,263.08,151.95,213.19,628.23,Single-ply,SBD,M
Boys,124.74,2,Damian Rodriguez,Kermit,115.03,226.8,131.54,240.4,598.74,Single-ply,SBD,M
Boys,124.74,3,Luis Valenzuela,Andrews,116.85,217.72,124.74,238.14,580.6,Single-ply,SBD,M
Boys,124.74,4,Chris LeBeouf,Pecos,112.76,222.26,136.08,204.12,562.45,Single-ply,SBD,M
Boys,124.74,5,Braxton Gardner,Midland,121.56,226.8,108.86,208.65,544.31,Single-ply,SBD,M
Boys,124.74,6,Bryson Calixto,Monahans,111.58,213.19,115.67,179.17,508.02,Single-ply,SBD,M
Boys,124.74,7,Jesse Carter,Midland,111.95,183.7,122.47,192.78,498.95,Single-ply,SBD,M
Boys,124.74,8,Derek Woods,Kermit,119.02,192.78,102.06,183.7,478.54,Single-ply,SBD,M
Boys,124.74,DQ,Jesus Ramos,Kermit,115.21,213.19,120.2,,,Single-ply,SBD,M
Boys,124.74+,1,Cj Carillo,Midland,136.35,238.14,165.56,219.99,623.69,Single-ply,SBD,M
Boys,124.74+,2,Alex Holguin,Monahans,126.19,226.8,117.93,195.04,539.77,Single-ply,SBD,M
Boys,124.74+,3,Seth Jaramillo,Andrews,127.28,215.46,122.47,201.85,539.77,Single-ply,SBD,M
Boys,124.74+,4,Branden Marriott,Fort Stockton,159.48,217.72,129.27,172.37,519.36,Single-ply,SBD,M
Boys,124.74+,5,Raymond Porras,Monahans,128.28,204.12,120.2,165.56,489.88,Single-ply,SBD,M
Boys,124.74+,6,Price Cooper,Lamesa Klondike,125.65,190.51,102.06,172.37,464.93,Single-ply,SBD,M
Boys,124.74+,7,Marcus Olvera,Lamesa Klondike,140.43,154.22,83.91,142.88,381.02,Single-ply,SBD,M
Boys,124.74+,DQ,Cesar Juarez,Midland,127.55,254.01,142.88,,,Single-ply,SBD,M
