Sex,Name,CyrillicName,BodyweightKg,Squat1Kg,Squat2Kg,Squat3Kg,Best3SquatKg,Squat4Kg,Bench1Kg,Bench2Kg,Bench3Kg,Best3BenchKg,Bench4Kg,Deadlift1Kg,Deadlift2Kg,Deadlift3Kg,Best3DeadliftKg,Deadlift4Kg,TotalKg,WeightClassKg,Event,Equipment,Tested,Division,BirthDate,Place
F,Galina Lebedkova,Галина Лебедькова,50.5,80,-85,85,85,,50,55,-57,55,,95,100,105,105,,245,52,SBD,Raw,No,Pro Masters 45-49,1972-03-20,1
F,Bozhena Lavrinenko,Божена Лавриненко,55.5,70,75,-80,75,,40,45,47.5,47.5,,102.5,112.5,-122.5,112.5,,235,56,SBD,Raw,No,Pro Open,1983-07-26,1
F,Ekaterina Budakovskaya,Екатерина Будаковская,60,90,100,-105,100,,50,55,-57.5,55,,-145,155,-162.5,155,,310,60,SBD,Raw,No,Pro Open,1982-02-05,1
M,Gleb Krutilov,Глеб Крутилов,61.3,-90,92.5,-95,92.5,,85,-90,-90,85,,130,-145,150,150,,327.5,67.5,SBD,Raw,No,Pro Teen 16-17,2002-08-08,1
M,Daniil Pakhuchiy,Даниил Пахучий,74.7,150,160,170,170,,105,117.5,120,120,,170,190,202.5,202.5,,492.5,75,SBD,Raw,No,Pro Teen 16-17,2001-09-12,1
M,Nikita Maksimov,Никита Максимов,73.8,100,110,-120,110,,65,72.5,-80,72.5,,130,140,-145,140,,322.5,75,SBD,Raw,No,Pro Teen 16-17,2002-05-18,2
M,Aleksandr Bashkaykin,Александр Башкайкин,74.6,180,190,200,200,,125,130,135,135,,210,220,230,230,,565,75,SBD,Raw,No,Pro Open,1993-03-27,1
M,Vladislav Zharikov,Владислав Жариков,80.6,150,160,170,170,,115,120,125,125,,200,215,220,220,,515,82.5,SBD,Raw,No,Pro Juniors 20-23,1995-01-14,1
M,Vazgen Grigoryan,Вазген Григорян,79.5,165,170,180,180,,140,145,-150,145,,200,215,220,220,,545,82.5,SBD,Raw,No,Pro Open,1991-05-01,1
M,Yuriy Gaevets,Юрий Гаевец,88.3,140,160,-172.5,160,,-110,-110,110,110,,170,190,210,210,,480,90,SBD,Raw,No,Pro Open,1978-12-08,1
M,Vladimir Gonchar,Владимир Гончар,108.4,230,-250,-255,230,,150,170,-177.5,170,,260,280,300,300,,700,110,SBD,Raw,No,Pro Open,1991-09-28,1
M,Evgeniy Sidelnikov,Евгений Сидельников,122.5,200,210,-220,210,,140,150,157.5,157.5,,220,232.5,-250,232.5,,600,125,SBD,Raw,No,Pro Open,1983-03-09,1
M,Igor Ganzhela,Игорь Ганжела,114.4,200,-210,-215,200,,135,142.5,-147.5,142.5,,210,220,230,230,,572.5,125,SBD,Raw,No,Pro Masters 45-49,1970-01-16,1
F,Veronika Pavlenko,Вероника Павленко,48,95,102.5,107.5,107.5,,52.5,-57.5,-57.5,52.5,,90,-95,-95,90,,250,48,SBD,Wraps,No,Pro Teen 13-15,2003-10-14,1
F,Oksana Pakhuchaya,Оксана Пахучая,52,100,110,115,115,,50,-52.5,-52.5,50,,135,145,-150,145,,310,52,SBD,Wraps,No,Pro Open,1978-09-19,1
F,Oksana Pakhuchaya,Оксана Пахучая,52,100,110,115,115,,50,-52.5,-52.5,50,,135,145,-150,145,,310,52,SBD,Wraps,No,Pro Masters 40-44,1978-09-19,1
M,Valeriy Bendeberin,Валерий Бендеберин,73.8,-200,-200,200,200,,110,120,122.5,122.5,,237.5,242.5,-245,242.5,,565,75,SBD,Wraps,No,Pro Juniors 20-23,1996-12-02,1
M,Dmitriy Stadnik,Дмитрий Стадник,75,180,-190,-190,180,,115,120,125,125,,220,-240,240,240,,545,75,SBD,Wraps,No,Pro Juniors 20-23,1995-12-20,2
M,Evgeniy Shelestyuk,Евгений Шелестюк,98.3,190,200,-210,200,,-100,100,110,110,,180,200,-205,200,,510,100,SBD,Wraps,No,Pro Teen 18-19,1999-08-02,1
M,Vitaliy Makhnychev,Виталий Махнычев,99.7,210,230,235,235,,110,120,-130,120,,220,240,250,250,,605,100,SBD,Wraps,No,Pro Open,1982-01-01,1
F,Elizaveta Bochkova,Елизавета Бочкова,62.3,120,-130,140,140,,70,-75,-75,70,,140,-150,-150,140,,350,67.5,SBD,Single-ply,No,Pro Juniors 20-23,1994-12-21,1
F,Veronika Pavlenko,Вероника Павленко,48,,,,,,50,55,-60,55,,,,,,,55,48,B,Raw,No,Pro Teen 13-15,2003-10-14,1
F,Kseniya Polyanskaya,Ксения Полянская,48,,,,,,57.5,62.5,-65,62.5,,,,,,,62.5,48,B,Raw,No,Pro Open,1988-11-22,1
F,Marina Vishnyakova,Марина Вишнякова,51.5,,,,,,57.5,60,62.5,62.5,,,,,,,62.5,52,B,Raw,No,Pro Open,1980-01-02,1
F,Marina Bakay,Марина Бакай,51.5,,,,,,55,-57.5,-57.5,55,,,,,,,55,52,B,Raw,No,Pro Open,1973-02-06,2
F,Svetlana Shchyokotova,Светлана Щёкотова,65.5,,,,,,55,65,70,70,,,,,,,70,67.5,B,Raw,No,Pro Masters 40-44,1978-09-02,1
M,Oleg Yarchenko,Олег Ярченко,57.8,,,,,,70,75,77.6,77.6,,,,,,,77.5,60,B,Raw,No,Pro Teen 13-15,2003-03-18,1
M,Andrey Yarchenko,Андрей Ярченко,57.4,,,,,,-67.5,70,-75,70,,,,,,,70,60,B,Raw,No,Pro Teen 13-15,2003-03-18,2
M,Renat Nasibov,Ренат Насибов,59.5,,,,,,80,85,87.5,87.5,,,,,,,87.5,60,B,Raw,No,Pro Teen 16-17,2001-11-06,1
M,Andrey Konko,Андрей Конько,64.5,,,,,,85,90,-97.5,90,,,,,,,90,67.5,B,Raw,No,Pro Teen 13-15,2002-12-23,1
M,Egor Volikov,Егор Воликов,64.8,,,,,,65,67.5,72.5,72.5,,,,,,,72.5,67.5,B,Raw,No,Pro Teen 13-15,2003-04-15,2
M,Daniil Bogomaz,Даниил Богомаз,62.3,,,,,,55,-60,-62.5,55,,,,,,,55,67.5,B,Raw,No,Pro Teen 13-15,2004-10-28,3
M,Nikita Makarenko,Никита Макаренко,65.3,,,,,,107.5,110,115,115,,,,,,,115,67.5,B,Raw,No,Pro Juniors 20-23,1996-04-19,1
M,Ilya Kazakov,Илья Казаков,66.7,,,,,,100,107.5,112.5,112.5,,,,,,,112.5,67.5,B,Raw,No,Pro Open,1987-11-23,1
M,Artem Mkrtchyan,Артем Мкртчян,67.3,,,,,,-145,-145,-145,,,,,,,,,67.5,B,Raw,No,Pro Open,1993-02-25,DQ
M,Marat Chernov,Марат Чернов,71.8,,,,,,70,75,-85,75,,,,,,,75,75,B,Raw,No,Pro Teen 13-15,2003-11-14,1
M,Daniil Pakhuchiy,Даниил Пахучий,74.7,,,,,,105,117.5,120,120,,,,,,,120,75,B,Raw,No,Pro Teen 16-17,2001-09-12,1
M,Andrey Shipov,Андрей Шипов,72,,,,,,-135,-135,135,135,,,,,,,135,75,B,Raw,No,Pro Juniors 20-23,1996-12-15,1
M,David Khamaev,Давид Хамаев,82.1,,,,,,125,135,-145,135,,,,,,,135,82.5,B,Raw,No,Pro Juniors 20-23,1996-05-24,1
M,Aleksandr Prokopenko,Александр Прокопенко,81.8,,,,,,157.5,162.5,-165,162.5,,,,,,,162.5,82.5,B,Raw,No,Pro Open,1988-11-18,1
M,Renat Abdulaev,Ренат Абдулаев,81.2,,,,,,145,-150,152.5,152.5,,,,,,,152.5,82.5,B,Raw,No,Pro Open,1991-09-25,2
M,Valeriy Skorokhodov,Валерий Скороходов,80.3,,,,,,-140,-140,-145,,,,,,,,,82.5,B,Raw,No,Pro Open,1979-06-06,DQ
M,Artur Pak,Артур Пак,81.6,,,,,,-127.5,-127.5,-127.5,,,,,,,,,82.5,B,Raw,No,Pro Open,1991-08-04,DQ
M,Maksim Krivenkov,Максим Кривенков,88.1,,,,,,147.5,152.5,157.5,157.5,,,,,,,157.5,90,B,Raw,No,Pro Open,1986-02-05,1
M,Ruslan Aguzov,Руслан Агузов,89.8,,,,,,145,152.5,155,155,,,,,,,155,90,B,Raw,No,Pro Open,1984-04-18,2
M,Andrey Chemeriskiy,Андрей Чемериский,88.7,,,,,,-130,132.5,135,135,,,,,,,135,90,B,Raw,No,Pro Open,1979-04-13,3
M,Ruslan Albershteyn,Руслан Альберштейн,89.8,,,,,,125,135,140,140,,,,,,,140,90,B,Raw,No,Pro Masters 45-49,1973-01-09,1
M,Nikolay Kelep,Николай Келеп,97.1,,,,,,175,182.5,190,190,,,,,,,190,100,B,Raw,No,Pro Open,1984-03-17,1
M,Roman Tonkikh,Роман Тонких,107.4,,,,,,150,167.5,,167.5,,,,,,,167.5,110,B,Raw,No,Pro Open,1978-10-28,1
M,Ovsep Ogannisyan,Овсеп Оганнисян,122.1,,,,,,-150,160,165,165,,,,,,,165,125,B,Raw,No,Pro Juniors 20-23,1996-09-16,1
F,Tatyana Bondarenko,Татьяна Бондаренко,51.9,,,,,,-70,70,-75,70,,,,,,,70,52,B,Single-ply,No,Pro Open,1991-09-12,1
M,Emi Vaykhanov,Эми Вайханов,89.5,,,,,,180,-190,,180,,,,,,,180,90,B,Single-ply,No,Pro Open,1987-07-13,2
M,Ruslan Albershteyn,Руслан Альберштейн,89.8,,,,,,160,170,180,180,,,,,,,180,90,B,Unlimited,No,Pro Open,1973-01-09,1
M,Maksim Uchaev,Максим Учаев,109.9,,,,,,235,242.5,-250,242.5,,,,,,,242.5,110,B,Unlimited,No,Pro Open,1980-06-21,1
F,Veronika Pavlenko,Вероника Павленко,48,,,,,,,,,,,90,-95,-95,90,,90,48,D,Raw,No,Pro Teen 13-15,2003-10-14,1
F,Oksana Pakhuchaya,Оксана Пахучая,52,,,,,,,,,,,135,145,-150,145,,145,52,D,Raw,No,Pro Open,1978-09-19,1
F,Yuliya Chabannaya,Юлия Чабанная,51.4,,,,,,,,,,,122.5,132.5,-135,132.5,,132.5,52,D,Raw,No,Pro Open,1986-02-12,2
F,Natalya Molodikova,Наталья Молодикова,51,,,,,,,,,,,100,-110,-115,100,,100,52,D,Raw,No,Pro Open,1979-06-21,3
F,Oksana Pakhuchaya,Оксана Пахучая,52,,,,,,,,,,,135,145,-150,145,,145,52,D,Raw,No,Pro Masters 40-44,1978-09-19,1
F,Tatyana Vayvod,Татьяна Вайвод,53.6,,,,,,,,,,,130,140,-145,140,,140,56,D,Raw,No,Pro Open,1980-07-16,1
F,Bozhena Lavrinenko,Божена Лавриненко,55.5,,,,,,,,,,,102.5,112.5,-122.5,112.5,,112.5,56,D,Raw,No,Pro Open,1983-07-26,2
F,Ekaterina Budakovskaya,Екатерина Будаковская,60,,,,,,,,,,,-145,155,-162.5,155,,155,60,D,Raw,No,Pro Open,1982-02-05,1
F,Oksana Khrabovskaya,Оксана Храбовская,74.8,,,,,,,,,,,130,-142.5,142.5,142.5,,142.5,75,D,Raw,No,Pro Masters 40-44,1974-11-08,1
M,Evgeniy Maksimov,Евгений Максимов,40,,,,,,,,,,,60,-70,80,80,,80,52,D,Raw,No,Pro Youth,2006-06-08,1
M,Nikita Kulichenko,Никита Куличенко,63.6,,,,,,,,,,,190,200.5,-205,200.5,,200,67.5,D,Raw,No,Pro Teen 16-17,2002-05-08,1
M,Daniil Pakhuchiy,Даниил Пахучий,74.7,,,,,,,,,,,170,190,202.5,202.5,,202.5,75,D,Raw,No,Pro Teen 16-17,2001-09-12,1
M,Andrey Katretskiy,Андрей Катрецкий,80.5,,,,,,,,,,,200,207.5,-215,207.5,,207.5,82.5,D,Raw,No,Pro Open,1981-07-25,1
M,Evgeniy Chistyakov,Евгений Чистяков,81,,,,,,,,,,,202.5,-215,-215,202.5,,202.5,82.5,D,Raw,No,Pro Open,1993-04-11,2
M,Sergey Plaksunov,Сергей Плаксунов,78.5,,,,,,,,,,,170,185,-190,185,,185,82.5,D,Raw,No,Pro Open,1984-02-06,3
M,Mikhail Kublikov,Михаил Кубликов,80.1,,,,,,,,,,,165,-185,-185,165,,165,82.5,D,Raw,No,Pro Masters 45-49,1970-08-12,1
M,Roman Borodin,Роман Бородин,88.6,,,,,,,,,,,215,222.5,230,230,,230,90,D,Raw,No,Pro Open,1985-04-17,4
M,Sergey Keselman,Сергей Кесельман,89.7,,,,,,,,,,,210,222.5,-225,222.5,,222.5,90,D,Raw,No,Pro Open,1986-06-10,5
M,Dmitriy Belokon,Дмитрий Белоконь,100,,,,,,,,,,,250,260,-280,260,,260,100,D,Raw,No,Pro Open,1992-12-22,3
M,Vitaliy Makhnychev,Виталий Махнычев,99.7,,,,,,,,,,,220,240,250,250,,250,100,D,Raw,No,Pro Open,1982-01-01,4
M,Aleksandr Sulatskiy,Александр Сулацкий,99,,,,,,,,,,,212.5,220,-232.5,220,,220,100,D,Raw,No,Pro Open,1985-12-13,6
M,Ildar Kuzyashev,Ильдар Кузяшев,82.3,140,155,170,170,,130,140,145,145,,160,170,180,180,,495,82.5,SBD,Raw,No,Pro Open,1987-03-16,3
M,Eduard Chubaryan,Эдуард Чубарьян,82,190,-205,-205,190,,115,122.5,-127.5,122.5,,200,210,-220,210,,522.5,82.5,SBD,Raw,No,Pro Open,1986-10-09,2
M,Andrey Pyatygin,Андрей Пятыгин,99.9,245,260,-270,260,,150,160,165,165,,260,282.5,,282.5,,707.5,100,SBD,Raw,No,Pro Open,1986-04-14,1
M,Oleg Son,Олег Сон,82.5,-290,290,-305,290,,160,170,-180,170,,250,-265,,250,,710,82.5,SBD,Single-ply,No,Pro Open,1991-05-22,1
M,Rostislav Petrenko,Ростислав Петренко,55.2,,,,,,70,75,-80,75,,,,,,,75,56,B,Raw,No,Pro Open,1981-08-27,1
M,Aram Markosyan,Арам Маркосян,74.8,,,,,,172.5,-177.5,-177.5,172.5,,,,,,,172.5,75,B,Raw,No,Pro Open,1988-09-23,1
M,Maksim Grachev,Максим Грачев,72.6,,,,,,-140,140,-145,140,,,,,,,140,75,B,Raw,No,Pro Masters 40-44,1977-11-23,1
M,Roman Lyashenko,Роман Ляшенко,99.6,,,,,,165,-175,-175,165,,,,,,,165,100,B,Raw,No,Pro Juniors 20-23,1995-02-07,1
M,Mikhail Petrosov,Михаил Петросов,93.2,,,,,,180,187.5,-190,187.5,,,,,,,187.5,100,B,Raw,No,Pro Open,1986-12-23,2
M,Aleksey Saga,Алексей Сага,99,,,,,,180,185,-190,185,,,,,,,185,100,B,Raw,No,Pro Open,1982-10-11,3
M,Aramais Israelyan,Арамаис Исраелян,100,,,,,,155,160,-165,160,,,,,,,160,100,B,Raw,No,Pro Open,1981-09-06,4
M,Aleksandr Minasyan,Александр Минасян,95.9,,,,,,130,140,-150,140,,,,,,,140,100,B,Raw,No,Pro Open,1986-01-15,5
M,Igor Kolomeytsev,Игорь Коломейцев,118.4,,,,,,122.5,127.5,130,130,,,,,,,130,125,B,Raw,No,Pro Teen 16-17,2001-12-31,1
M,Mikhail Redin,Михаил Редин,89,,,,,,-210,-210,210,210,,,,,,,210,90,B,Single-ply,No,Pro Open,1974-10-07,1
M,Sergey Starodubskiy,Сергей Стародубский,114.2,,,,,,215,225,240,240,,,,,,,240,125,B,Multi-ply,No,Pro Masters 40-44,1977-12-20,1
M,Vladimir Zhabin,Владимир Жабин,88.3,,,,,,220,-237.5,-252.5,220,,,,,,,220,90,B,Unlimited,No,Pro Open,1980-06-27,2
M,Rostislav Petrenko,Ростислав Петренко,55.2,,,,,,,,,,,110,-120,-120,110,,110,56,D,Raw,No,Pro Open,1981-08-27,1
M,Dmitriy Proydakov,Дмитрий Пройдаков,67.5,,,,,,,,,,,190,200,210,210,,210,67.5,D,Raw,No,Pro Open,1992-11-02,1
M,Dmitriy Pavlov,Дмитрий Павлов,74.7,,,,,,,,,,,260,265,270,270,,270,75,D,Raw,No,Pro Open,1992-10-24,1
M,Fedor Isaev,Федор Исаев,90,,,,,,,,,,,280,290,-295,290,,290,90,D,Raw,No,Pro Open,1992-06-06,1
M,Aleksandr Prikhodko,Александр Приходько,90,,,,,,,,,,,270,-280,-280,270,,270,90,D,Raw,No,Pro Open,1989-11-26,2
M,Anatoliy Gukov,Анатолий Гуков,83.5,,,,,,,,,,,235,245,-255,245,,245,90,D,Raw,No,Pro Open,1992-03-17,3
M,Aleksandr Ilyutkin,Александр Илюткин,98.1,,,,,,,,,,,-290,300,317.5,317.5,,317.5,100,D,Raw,No,Pro Open,1993-02-03,1
M,Vagan Dzhilavyan,Ваган Джилавян,99.7,,,,,,,,,,,240,250,272.5,272.5,,272.5,100,D,Raw,No,Pro Open,1986-08-31,2
M,Denis Katerinichev,Денис Катериничев,96.7,,,,,,,,,,,220,230,-240,230,,230,100,D,Raw,No,Pro Open,1989-03-02,5
M,Aleksandr Minasyan,Александр Минасян,95.9,,,,,,,,,,,170,180,-190,180,,180,100,D,Raw,No,Pro Open,1986-01-15,7
