Sex,Name,CyrillicName,BodyweightKg,Squat1Kg,Squat2Kg,Squat3Kg,Best3SquatKg,Squat4Kg,Bench1Kg,Bench2Kg,Bench3Kg,Best3BenchKg,Bench4Kg,Deadlift1Kg,Deadlift2Kg,Deadlift3Kg,Best3DeadliftKg,Deadlift4Kg,TotalKg,WeightClassKg,Event,Equipment,Tested,Division,Age,BirthDate,Place
M,Semen Primakov,Семен Примаков,79.2,115,-125,-125,115,,87.5,-90,-90,87.5,,115,125,137.5,137.5,,340,82.5,SBD,Raw,No,Pro Teen 18-19,18,2000-11-10,1
M,Ivan Surin,Иван Сурин,97,185,200,,200,,150,165,-175,165,,210,225,235,235,,600,100,SBD,Raw,No,Pro Open,28,1990-07-05,2
F,Elena Karmiryan,Елена Кармирян,53.2,87.5,-100,100,100,,45,50,-55,50,,95,105,110,110,,260,56,SBD,Wraps,No,Pro Open,32,1986-03-02,1
F,Irina Cherednichenko,Ирина Чередниченко,74.4,-85,85,95,95,,45,-50,50,50,,95,105,115,115,,260,75,SBD,Wraps,No,Pro Open,31,1987-06-20,1
M,Yakov Khondropulov,Яков Хондропулов,67,-165,-165,165,165,,100,120,-130,120,,170,190,200,200,,485,67.5,SBD,Wraps,No,Pro Open,26,1992-04-27,1
M,Vasiliy Kondratev,Василий Кондратьев,80.8,200,215,,215,,115,125,130,130,,200,-220,230,230,,575,82.5,SBD,Wraps,No,Pro Masters 40-44,43,1975-10-06,1
M,Roman Kurakulov,Роман Куракулов,105.6,170,180,200,200,,130,140,145,145,,190,210,220,220,,565,110,SBD,Wraps,No,Pro Open,29,1989-07-31,1
F,Natalya Kurilenko,Наталья Куриленко,47.3,,,,,,50,52.5,55,55,,,,,,,55,48,B,Raw,No,Pro Open,32,1986-05-20,1
F,Olga Potapova,Ольга Потапова,51.7,,,,,,67.5,72.5,-77.5,72.5,,,,,,,72.5,52,B,Raw,No,Pro Open,38,1980-01-23,1
F,Marina Glazkova,Марина Глазкова,50.7,,,,,,52.5,57.5,60,60,,,,,,,60,52,B,Raw,No,Pro Open,38,1980-02-08,2
F,Tatyana Andreeva,Татьяна Андреева,52,,,,,,55,57.5,60,60,,,,,,,60,52,B,Raw,No,Pro Open,29,1989-03-26,3
F,Tatyana Kislitsyna,Татьяна Кислицына,52,,,,,,-45,-45,-45,,,,,,,,,52,B,Raw,No,Pro Open,37,1981-02-01,DQ
F,Viktoriya Marakhovskaya,Виктория Мараховская,56,,,,,,45,-50,-50,45,,,,,,,45,56,B,Raw,No,Pro Open,26,1992-10-07,1
F,Marina Kuadzhe,Марина Куадже,54,,,,,,30,35,-40,35,,,,,,,35,56,B,Raw,No,Pro Open,28,1990-04-27,2
M,Bogdan Klimok,Богдан Климок,50.2,,,,,,25,30,35,35,,,,,,,35,52,B,Raw,No,Pro Teen 13-15,13,2005-02-09,1
M,Bogdan Konyukhov,Богдан Конюхов,70.8,,,,,,110,117.5,122.5,122.5,,,,,,,122.5,75,B,Raw,No,Pro Juniors 20-23,23,1995-10-09,1
M,Sergey Klimenko,Сергей Клименко,89.7,,,,,,190,202.5,,202.5,,,,,,,202.5,90,B,Raw,No,Pro Open,29,1989-09-01,1
M,Ashot Karakezov,Ашот Каракезов,89.2,,,,,,160,-165,-165,160,,,,,,,160,90,B,Raw,No,Pro Open,33,1985-02-02,2
M,Sergey Atyasov,Сергей Атясов,87.3,,,,,,135,145,-152.5,145,,,,,,,145,90,B,Raw,No,Pro Open,30,1988-02-19,3
M,Andrey Kozhedub,Андрей Кожедуб,88,,,,,,132.5,-140,-140,132.5,,,,,,,132.5,90,B,Raw,No,Pro Open,35,1983-11-04,4
M,Dmitriy Nikanorov,Дмитрий Никаноров,89,,,,,,-142.5,142.5,-150,142.5,,,,,,,142.5,90,B,Raw,No,Pro Masters 45-49,47,1971-10-29,1
M,Sergey Starosvet,Сергей Старосвет,93,,,,,,140,155,165,165,,,,,,,165,100,B,Raw,No,Pro Open,37,1981-05-10,3
M,Oleg Ponomarev,Олег Пономарев,98.3,,,,,,-132.5,-132.5,132.5,132.5,,,,,,,132.5,100,B,Raw,No,Pro Open,24,1994-02-14,4
M,Vladimir Belousov,Владимир Белоусов,106.7,,,,,,-167.5,167.5,-170,167.5,,,,,,,167.5,110,B,Raw,No,Pro Open,32,1986-06-11,1
M,Dmitriy Puchkov,Дмитрий Пучков,105,,,,,,140,150,-155,150,,,,,,,150,110,B,Raw,No,Pro Open,35,1983-08-23,3
M,Ivan Krapivka,Иван Крапивка,108.4,,,,,,160,167.5,170,170,,,,,,,170,110,B,Raw,No,Pro Masters 40-44,41,1977-10-13,1
M,Sergey Ivlev,Сергей Ивлев,137.7,,,,,,195,-205,-205,195,,,,,,,195,140,B,Raw,No,Pro Masters 45-49,47,1971-03-18,1
F,Svetlana Maletskaya,Светлана Малецкая,72.8,,,,,,135,142.5,-150,142.5,,,,,,,142.5,75,B,Unlimited,No,Pro Open,35,1983-06-04,1
F,Tatyana Kislitsyna,Татьяна Кислицына,52,,,,,,,,,,,85,90,-100,90,,90,52,D,Raw,No,Pro Open,37,1981-02-01,1
F,Nadezhda Golovina,Надежда Головина,64.8,,,,,,,,,,,-115,115,120,120,,120,67.5,D,Raw,No,Pro Open,28,1990-10-05,1
F,Dinara Goova,Динара Гоова,72.7,,,,,,,,,,,120,127.5,130,130,,130,75,D,Raw,No,Pro Open,30,1988-02-06,1
M,Maksim Sukhobok,Максим Сухобок,59.9,,,,,,,,,,,205,-225,-225,205,,205,60,D,Raw,No,Pro Open,53,1965-01-01,1
M,Mikhail Angelin,Михаил Ангелин,65.6,,,,,,,,,,,165,-190,-190,165,,165,67.5,D,Raw,No,Pro Open,32,1986-07-31,1
M,Makar Lobastov,Макар Лобастов,74.2,,,,,,,,,,,130,140,155,155,,155,75,D,Raw,No,Pro Teen 16-17,17,2001-07-28,1
M,Konstantin Matlaev,Константин Матлаев,70.9,,,,,,,,,,,190,202.5,-210,202.5,,202.5,75,D,Raw,No,Pro Juniors 20-23,22,1996-08-23,1
M,Khazret Shumen,Хазрет Шумен,73.1,,,,,,,,,,,200,-232.5,-232.5,200,,200,75,D,Raw,No,Pro Juniors 20-23,21,1997-06-06,2
M,Oleg Zenin,Олег Зенин,73.4,,,,,,,,,,,185,195,202.5,202.5,,202.5,75,D,Raw,No,Pro Open,38,1980-12-02,1
M,David Ternovoy,Давид Терновой,77.2,,,,,,,,,,,165,175,-180,175,,175,82.5,D,Raw,No,Pro Teen 16-17,17,2001-09-13,1
M,Ruslan Slonov,Руслан Слонов,81.8,,,,,,,,,,,215,220,-222.5,220,,220,82.5,D,Raw,No,Pro Open,29,1989-11-07,1
M,Artur Dyakin,Артур Дякин,89.5,,,,,,,,,,,170,185,-195,185,,185,90,D,Raw,No,Pro Masters 50-54,52,1966-08-02,1
M,Ivan Krapivka,Иван Крапивка,108.4,,,,,,,,,,,220,240,252.5,252.5,,252.5,110,D,Raw,No,Pro Masters 40-44,41,1977-10-13,1
M,Yaroslav Kopanitskiy,Ярослав Копаницкий,122.8,,,,,,,,,,,215,225,,225,,225,125,D,Raw,No,Pro Open,34,1984-05-28,2
M,Viktor Banman,Виктор Банман,84.5,,,,,,,,,,,160,180,190,190,,190,90,D,Single-ply,No,Pro Masters 60-64,61,1957-01-18,1
F,Tatyana Pashchenko,Татьяна Пащенко,74.3,95,105,120,120,,75,80,-82.5,80,,140,150,155,155,,355,75,SBD,Raw,No,Pro Open,39,1979-08-28,1
M,Denis Storozhko,Денис Сторожко,71.7,110,-112.5,,110,,85,87.5,90,90,,115,120,127.5,127.5,,327.5,75,SBD,Raw,No,Pro Teen 13-15,15,2002-12-14,1
M,Vladislav Grebennikov,Владислав Гребенников,71.5,80,85,90,90,,70,-75,-80,70,,80,95,105,105,,265,75,SBD,Raw,No,Pro Teen 13-15,15,2003-06-05,2
M,Aleksey Prishchepa,Алексей Прищепа,97.8,205,210,,210,,-170,170,175,175,,-220,230,235,235,,620,100,SBD,Raw,No,Pro Open,31,1987-02-10,1
M,Aleksandr Ilyutkin,Александр Илюткин,103.7,220,230,-240,230,,160,167.5,172.5,172.5,,307.5,320,-330,320,,722.5,110,SBD,Raw,No,Pro Open,25,1993-02-03,1
M,Yashar Shavoev,Яшар Шавоев,121.3,280,300,,300,,170,180,185,185,,280,300,-310,300,,785,125,SBD,Raw,No,Pro Open,32,1986-10-02,1
M,Dmitriy Kislitsyn,Дмитрий Кислицын,117.2,160,180,-200,180,,150,-160,-160,150,,245,-260,260,260,,590,125,SBD,Raw,No,Pro Open,38,1980-11-17,2
M,Denis Supryaga,Денис Супряга,123,210,225,240,240,,175,180,185,185,,-200,210,-225,210,,635,125,SBD,Wraps,No,Pro Juniors 20-23,22,1996-05-15,1
M,Aleksandr Boytsevskiy,Александр Бойцевский,104.8,200,230,250,250,,200,230,-250,230,,200,230,-250,230,,710,110,SBD,Unlimited,No,Pro Open,31,1987-05-30,1
F,Olga Boychenko,Ольга Бойченко,56,,,,,,45,-47.5,-47.5,45,,,,,,,45,56,B,Raw,No,Pro Masters 45-49,49,1969-10-01,1
F,Svetlana Kivorkova,Светлана Киворкова,65.5,,,,,,40,50,-60,50,,,,,,,50,67.5,B,Raw,No,Pro Masters 50-54,51,1967-12-08,1
M,Maksim Pashchenko,Максим Пащенко,55.9,,,,,,50,55,-60,55,,,,,,,55,56,B,Raw,No,Pro Teen 13-15,14,2004-01-01,1
M,Khachatur Kazaryan,Хачатур Казарян,68.7,,,,,,52.5,57.5,-60,57.5,,,,,,,57.5,75,B,Raw,No,Pro Teen 13-15,14,2004-05-14,1
M,Daniil Kushnarenko,Даниил Кушнаренко,74,,,,,,115,125,130,130,,,,,,,130,75,B,Raw,No,Pro Teen 16-17,17,2001-01-31,1
M,Georgi Chincharauli,Георги Чинчараули,74.8,,,,,,172.5,-177.5,-177.5,172.5,,,,,,,172.5,75,B,Raw,No,Pro Open,27,1991-04-15,1
M,Avtandil Gabiskiriya,Автандил Габискирия,80.7,,,,,,120,125,130,130,,,,,,,130,82.5,B,Raw,No,Pro Open,37,1981-07-03,1
M,Aleksandr Bazhenov,Александр Баженов,89.1,,,,,,122.5,130,135,135,,,,,,,135,90,B,Raw,No,Pro Masters 65-69,66,1952-04-18,1
M,Vladimir Zakharov,Владимир Захаров,98.8,,,,,,185,190,195,195,,,,,,,195,100,B,Raw,No,Pro Open,63,1955-07-07,1
M,Mikhail Petrosov,Михаил Петросов,93.4,,,,,,175,185,192.5,192.5,,,,,,,192.5,100,B,Raw,No,Pro Open,,1986-12-23,2
M,Dmitriy Troshin,Дмитрий Трошин,98.9,,,,,,125,-132.5,-132.5,125,,,,,,,125,100,B,Raw,No,Pro Open,32,1986-08-29,5
M,Vladimir Zakharov,Владимир Захаров,98.8,,,,,,185,190,195,195,,,,,,,195,100,B,Raw,No,Pro Masters 60-64,63,1955-07-07,1
M,Aleksandr Korshkov,Александр Коршков,102.8,,,,,,150,-180,-180,150,,,,,,,150,110,B,Raw,No,Pro Open,32,1986-01-06,2
M,Vitaliy Sorokotyagin,Виталий Сорокотягин,117,,,,,,215,220,230,230,,,,,,,230,125,B,Raw,No,Pro Open,37,1981-05-28,1
M,Sergey Starodubskiy,Сергей Стародубский,119.4,,,,,,240,250,257.5,257.5,,,,,,,257.5,125,B,Multi-ply,No,Pro Masters 40-44,,1977-12-20,1
M,Eduard Trudnev,Эдуард Труднев,94.7,,,,,,240,260,-280,260,,,,,,,260,100,B,Unlimited,No,Pro Open,39,1979-11-18,1
F,Marina Matusevich,Марина Матусевич,58.1,,,,,,,,,,,110,120,137.5,137.5,,137.5,60,D,Raw,No,Pro Open,30,1988-01-08,1
F,Elnara Badurova,Эльнара Бадурова,57.2,,,,,,,,,,,-85,85,-92.5,85,,85,60,D,Raw,No,Pro Open,24,1994-01-30,2
M,Aleksandr Grushinskiy,Александр Грушинский,89.6,,,,,,,,,,,255,270,-282.5,270,,270,90,D,Raw,No,Pro Masters 40-44,43,1975-02-06,1
M,Aleksandr Prikhodko,Александр Приходько,97.1,,,,,,,,,,,270,-280,-280,270,,270,100,D,Raw,No,Pro Open,29,1989-11-26,1
M,Denis Pashchenko,Денис Пащенко,96.7,,,,,,,,,,,230,240,-250,240,,240,100,D,Raw,No,Pro Masters 40-44,40,1978-09-19,1
M,Aleksandr Ilyutkin,Александр Илюткин,103.7,,,,,,,,,,,305,320,-330,320,,320,110,D,Raw,No,Pro Open,25,1993-02-03,1
M,Pavel Siryak,Павел Сиряк,105,,,,,,,,,,,250,-260,270,270,,270,110,D,Raw,No,Pro Open,32,1986-06-14,2
M,Dmitriy Kislitsyn,Дмитрий Кислицын,117.2,,,,,,,,,,,245,-260,260,260,,260,125,D,Raw,No,Pro Open,38,1980-11-17,1
M,Arman Kulibaev,Арман Кулибаев,73,,,,,,,,,,,212.5,220,-227.5,220,,220,75,D,Single-ply,No,Pro Open,35,1983-01-18,1
