Place,Sex,Name,CyrillicName,BodyweightKg,Deadlift1Kg,Deadlift2Kg,Deadlift3Kg,Best3DeadliftKg,Deadlift4Kg,TotalKg,WeightClassKg,Event,Equipment,Tested,Bench1Kg,Bench2Kg,Bench3Kg,Best3BenchKg,Bench4Kg,Squat1Kg,Squat2Kg,Squat3Kg,Best3SquatKg,Squat4Kg,Division,Age,BirthDate
1,M,Sergey Koryakin,Сергей Корякин,80.9,250,257.5,262.5,262.5,,262.5,82.5,D,Raw,No,,,,,,,,,,,Open,39,1976-07-01
1,F,Olga Sondor,Ольга Сондор,51,102.5,,,102.5,,102.5,52,D,Raw,Yes,,,,,,,,,,,Juniors 20-23,23,1992-07-09
1,F,Mariya Nikulina,Мария Никулина,54.6,92.5,,,92.5,,92.5,56,D,Raw,Yes,,,,,,,,,,,Open,28,1988-01-31
DQ,F,Mariya Gostyukhina,Мария Гостюхина,53.8,-90,-90,-90,,,,56,D,Raw,Yes,,,,,,,,,,,Open,25,1990-09-16
1,F,Evgeniya Vasileva,Евгения Васильева,59.9,110,115,120,120,,120,60,D,Raw,Yes,,,,,,,,,,,Open,38,1977-12-29
1,M,Evgeniy Senko,Евгений Сенько,58,135,155,-160,155,,155,60,D,Raw,Yes,,,,,,,,,,,Open,27,1989-03-19
2,M,Ivan Sosnin-Semernikov,Иван Соснин-Семерников,60,140,152.5,-175,152.5,,152.5,60,D,Raw,Yes,,,,,,,,,,,Open,25,1990-05-22
1,M,Artem Malinov,Артем Малинов,61.8,160,170,180,180,,180,67.5,D,Raw,Yes,,,,,,,,,,,Teen 13-15,15,2000-10-03
2,M,Denis Bukaranov,Денис Букаранов,67.3,145,155,160,160,,160,67.5,D,Raw,Yes,,,,,,,,,,,Teen 13-15,14,2001-07-08
1,M,Ivan Polutov,Иван Полутов,67.4,150,160,170,170,,170,67.5,D,Raw,Yes,,,,,,,,,,,Juniors 20-23,20,1995-07-22
1,M,Andrey Danilov,Андрей Данилов,65.5,180,195,200,200,,200,67.5,D,Raw,Yes,,,,,,,,,,,Open,28,1987-06-06
1,M,Nikita Petryashov,Никита Петряшов,69.5,107.5,112.5,120,120,,120,75,D,Raw,Yes,,,,,,,,,,,Teen 16-17,16,1999-11-13
1,M,Stanislav Tarasov,Станислав Тарасов,74.3,190,207.5,-212.5,207.5,,207.5,75,D,Raw,Yes,,,,,,,,,,,Juniors 20-23,21,1994-10-15
1,M,Aleksandr Kotenkov,Александр Котенков,72,195,207.5,212.5,212.5,,212.5,75,D,Raw,Yes,,,,,,,,,,,Open,23,1992-11-05
2,M,Sergey Efimtsov,Сергей Ефимцов,72.5,160,-182.5,-182.5,160,,160,75,D,Raw,Yes,,,,,,,,,,,Open,24,1991-08-23
1,M,Anton Smirnov,Антон Смирнов,79.7,155,167.5,175,175,,175,82.5,D,Raw,Yes,,,,,,,,,,,Juniors 20-23,20,1995-11-11
2,M,Ilya Zheleznov,Илья Железнов,75.3,187.5,200,-202.5,200,,200,82.5,D,Raw,Yes,,,,,,,,,,,Teen 16-17,17,1998-05-19
3,M,Aleksey Shchelkunov,Алексей Щелкунов,79.1,167.5,180,-190,180,,180,82.5,D,Raw,Yes,,,,,,,,,,,Teen 16-17,17,1998-10-01
1,M,Aleksandr Kazmirskiy,Александр Казмирский,80.8,225,,,225,,225,82.5,D,Raw,Yes,,,,,,,,,,,Juniors 20-23,20,1995-12-22
2,M,Nikita Lichutin,Никита Личутин,82,220,,,220,,220,82.5,D,Raw,Yes,,,,,,,,,,,Juniors 20-23,21,1994-07-10
3,M,Anton Smirnov,Антон Смирнов,81,155,167.5,175,175,,175,82.5,D,Raw,Yes,,,,,,,,,,,Juniors 20-23,20,1995-11-11
1,M,Vyacheslav Bovinov,Вячеслав Бовинов,81.5,185,190,200,200,,200,82.5,D,Raw,Yes,,,,,,,,,,,Open,35,1980-06-16
1,M,Artem Borisov,Артем Борисов,88.3,170,177.5,-180,177.5,,177.5,90,D,Raw,Yes,,,,,,,,,,,Teen 16-17,17,1998-09-05
1,M,Nikolay Dzerin,Николай Дзерин,85.9,175,185,-202.5,185,,185,90,D,Raw,Yes,,,,,,,,,,,Juniors 20-23,22,1993-05-23
1,M,Vyacheslav Tishuk,Вячеслав Тишук,87.7,240,,,240,,240,90,D,Raw,Yes,,,,,,,,,,,Open,26,1989-07-29
1,M,David Sichinava,Давид Сичинава,93.9,195,210,220,220,,220,100,D,Raw,Yes,,,,,,,,,,,Open,24,1991-09-18
1,M,Anatoliy Kudryavtsev,Анатолий Кудрявцев,98.4,220,240,,240,,240,100,D,Raw,Yes,,,,,,,,,,,Masters 40-44,43,1972-08-25
1,M,Maksim Brynin,Максим Брынин,121.8,210,225,-230,225,,225,125,D,Raw,Yes,,,,,,,,,,,Juniors 20-23,22,1994-02-24
1,M,Konstantin Shcheglev,Константин Щеглев,80.8,232.5,250,-257.5,250,,250,82.5,D,Raw,No,,,,,,,,,,,Open,30,1985-08-25
1,M,Vasiliy Burnashov,Василий Бурнашов,88.2,270,280,-290,280,,280,90,D,Raw,No,,,,,,,,,,,Open,38,1977-11-28
2,M,Vladimir Belyaev,Владимир Беляев,89,210,225,-232.5,225,,225,90,D,Raw,No,,,,,,,,,,,Open,34,1981-10-31
1,M,Anatoliy Gorislov,Анатолий Горислов,89,140,160,180,180,,180,90,D,Raw,No,,,,,,,,,,,Masters 75-79,76,1939-11-14
1,M,Sergey Moiseev,Сергей Моисеев,97.4,265,,,265,,265,100,D,Raw,No,,,,,,,,,,,Open,38,1977-08-24
2,M,Aleksey Ugarov,Алексей Угаров,97.9,260,-272.5,-272.5,260,,260,100,D,Raw,No,,,,,,,,,,,Open,28,1987-10-22
3,M,Sergey Kudryavtsev,Сергей Кудрявцев,99,170,197.5,220,220,,220,100,D,Raw,No,,,,,,,,,,,Open,32,1983-06-03
1,M,Bogdan Soldatenkov,Богдан Солдатенков,118.9,240,250,-262.5,250,,250,125,D,Raw,No,,,,,,,,,,,Juniors 20-23,22,1993-07-24
1,M,Aleksey Kostylev,Алексей Костылев,111.8,270,-300,,270,,270,125,D,Raw,No,,,,,,,,,,,Masters 40-44,42,1973-09-04
1,M,Maksim Kalyavin,Максим Калявин,68.8,,,,,,112.5,75,B,Raw,No,112.5,,,112.5,,,,,,,Open,27,1989-04-10
1,F,Natalya Mishukova,Наталья Мишукова,65.2,,,,,,75,67.5,B,Unlimited,Yes,70,75,-80,75,,,,,,,Masters 40-44,44,1972-03-03
1,M,Sergey Stepichev,Сергей Степичев,83.5,,,,,,210,90,B,Unlimited,No,-200,-210,210,210,,,,,,,Open,38,1977-07-06
2,M,Anatoliy Ivashko,Анатолий Ивашко,83.9,,,,,,210,90,B,Unlimited,No,200,210,-215,210,,,,,,,Open,26,1990-01-03
3,M,Aleksey Pavlov,Алексей Павлов,87.3,,,,,,200,90,B,Unlimited,No,180,-200,200,200,,,,,,,Open,38,1978-01-18
1,M,Aleksey Gorislov,Алексей Горислов,88.1,,,,,,210,90,B,Unlimited,No,-200,-200,210,210,,,,,,,Masters 45-49,49,1967-01-10
1,M,Aleksey Krasavin,Алексей Красавин,109.7,,,,,,300,110,B,Unlimited,No,280,300,-317.5,300,,,,,,,Open,35,1980-10-05
2,M,Sergey Fenichev,Сергей Феничев,105.8,,,,,,200,110,B,Unlimited,No,-175,197.5,200,200,,,,,,,Open,28,1987-08-08
1,M,Aleksey Kozlov #3,Алексей Козлов,81.4,,,,,,210,82.5,B,Multi-ply,No,210,-220,-220,210,,,,,,,Open,29,1986-07-14
1,M,Petr Golubev,Петр Голубев,89.7,,,,,,155,90,B,Single-ply,Yes,140,-155,155,155,,,,,,,Open,25,1990-07-03
1,M,Vladislav Sazhnev,Владислав Сажнев,96,,,,,,135,100,B,Single-ply,No,135,-142.5,-142.5,135,,,,,,,Juniors 20-23,21,1994-09-21
1,M,Nikita Gubenskiy,Никита Губенский,101.3,,,,,,220,110,B,Single-ply,No,200,210,220,220,,,,,,,Juniors 20-23,21,1995-04-06
DQ,M,Aleksey Gromov,Алексей Громов,117,,,,,,,125,B,Single-ply,No,-235,,,,,,,,,,Open,29,1986-05-28
1,F,Elizaveta Bazhenova,Елизавета Баженова,47.2,,,,,,47.5,48,B,Raw,Yes,47.5,-50,-50,47.5,,,,,,,Open,24,1991-07-03
1,F,Anastasiya Lebedeva,Анастасия Лебедева,51,,,,,,67.5,52,B,Raw,Yes,65,67.5,-70,67.5,,,,,,,Open,25,1991-01-26
DQ,F,Mariya Prokhorenko,Мария Прохоренко,56,,,,,,,56,B,Raw,Yes,-55,-55,-55,,,,,,,,Teen 16-17,17,1999-02-24
1,F,Vladislava Dluzhnevskaya,Владислава Длужневская,59.8,,,,,,102.5,60,B,Raw,Yes,95,97.5,102.5,102.5,105,,,,,,Teen 13-15,15,2000-06-10
1,F,Darya Patrakeeva,Дарья Патракеева,60,,,,,,42.5,60,B,Raw,Yes,40,42.5,-47.5,42.5,,,,,,,Teen 16-17,17,1998-08-29
1,F,Vladislava Dluzhnevskaya,Владислава Длужневская,59.8,,,,,,102.5,60,B,Raw,Yes,95,97.5,102.5,102.5,105,,,,,,Open,15,2000-06-10
2,F,Anastasiya Garkavenko,Анастасия Гарькавенко,59.7,,,,,,67.5,60,B,Raw,Yes,67.5,,,67.5,,,,,,,Open,26,1990-04-04
3,F,Yana Krutikova,Яна Крутикова,59.7,,,,,,60,60,B,Raw,Yes,-55,57.5,60,60,,,,,,,Open,29,1986-11-29
1,F,Yuliya Kamorina,Юлия Каморина,64.4,,,,,,75,67.5,B,Raw,Yes,70,72.5,75,75,,,,,,,Open,29,1987-03-02
1,M,Konstantin Chashchinov,Константин Чащинов,33.3,,,,,,27.5,52,B,Raw,Yes,-22.5,22.5,27.5,27.5,,,,,,,Youth,11,2004-06-06
1,M,Abdul Mirzoev,Абдул Мирзоев,47.8,,,,,,50,52,B,Raw,Yes,50,-60,-60,50,,,,,,,Teen 18-19,19,1996-12-04
1,M,Aleksey Titov,Алексей Титов,58.2,,,,,,70,60,B,Raw,Yes,62.5,67.5,70,70,,,,,,,Teen 13-15,15,2001-03-20
1,M,Sergey Shilnikovskiy,Сергей Шильниковский,58.9,,,,,,107.5,60,B,Raw,Yes,107.5,-112.5,-112.5,107.5,,,,,,,Teen 18-19,18,1998-05-06
1,M,Ilya Osovskoy,Илья Осовской,62.6,,,,,,100,67.5,B,Raw,Yes,92.5,97.5,100,100,,,,,,,Teen 18-19,18,1998-01-02
1,M,Ivan Turanin,Иван Туранин,65,,,,,,115,67.5,B,Raw,Yes,107.5,115,-120,115,,,,,,,Juniors 20-23,23,1993-01-20
2,M,Daniil Turanin,Даниил Туранин,65.2,,,,,,107.5,67.5,B,Raw,Yes,107.5,-112.5,-112.5,107.5,,,,,,,Juniors 20-23,23,1993-01-20
1,M,Aleksey Istomin,Алексей Истомин,61.2,,,,,,135,67.5,B,Raw,Yes,130,132.5,135,135,,,,,,,Open,19,1996-07-04
2,M,Andrey Sysoev,Андрей Сысоев,66.3,,,,,,125,67.5,B,Raw,Yes,-117.5,-117.5,125,125,,,,,,,Open,28,1987-06-30
3,M,Aleksandr Osokin,Александр Осокин,65.9,,,,,,117.5,67.5,B,Raw,Yes,110,117.5,-122.5,117.5,,,,,,,Open,26,1990-02-02
4,M,Ilya Beloborodov,Илья Белобородов,64.3,,,,,,115,67.5,B,Raw,Yes,115,-125,-125,115,,,,,,,Open,27,1989-02-21
5,M,Andrey Danilov,Андрей Данилов,65.5,,,,,,115,67.5,B,Raw,Yes,110,115,-117.5,115,,,,,,,Open,28,1987-06-06
1,M,Anatoliy Vilchitskiy,Анатолий Вильчицкий,67,,,,,,95,67.5,B,Raw,Yes,80,90,95,95,,,,,,,Masters 60-64,60,1955-08-24
1,M,Vadim Tuzov,Вадим Тузов,71.7,,,,,,117.5,75,B,Raw,Yes,110,117.5,-120,117.5,,,,,,,Teen 18-19,18,1997-12-19
1,M,Nikita Shishenin,Никита Шишенин,74,,,,,,122.5,75,B,Raw,Yes,105,117.5,122.5,122.5,,,,,,,Juniors 20-23,22,1994-01-03
1,M,Dmitriy Guzanov,Дмитрий Гузанов,71.2,,,,,,130,75,B,Raw,Yes,-125,130,-135,130,,,,,,,Open,28,1987-06-22
2,M,Aleksey Ivashevskiy,Алексей Ивашевский,74.3,,,,,,110,75,B,Raw,Yes,110,-117.5,-117.5,110,,,,,,,Open,37,1978-12-29
3,M,Vladimir Ermolin,Владимир Ермолин,70.6,,,,,,105,75,B,Raw,Yes,-95,95,105,105,,,,,,,Open,26,1990-03-05
4,M,Pavel Serov,Павел Серов,74,,,,,,105,75,B,Raw,Yes,95,100,105,105,,,,,,,Open,28,1988-01-26
1,M,Sergey Korovin,Сергей Коровин,73.4,,,,,,120,75,B,Raw,Yes,110,-120,120,120,,,,,,,Masters 40-44,43,1972-12-11
1,M,Ivan Chalyy,Иван Чалый,81.5,,,,,,145,82.5,B,Raw,Yes,135,145,-147.5,145,,,,,,,Juniors 20-23,22,1994-02-16
2,M,Aleksandr Nuzdanov,Александр Нузданов,78.6,,,,,,127.5,82.5,B,Raw,Yes,120,127.5,-130,127.5,,,,,,,Juniors 20-23,21,1995-05-10
3,M,Roman Bogachev,Роман Богачев,76.8,,,,,,122.5,82.5,B,Raw,Yes,115,120,122.5,122.5,,,,,,,Juniors 20-23,20,1996-02-07
1,M,Vyacheslav Bovinov,Вячеслав Бовинов,81.5,,,,,,130,82.5,B,Raw,Yes,122.5,127.5,130,130,,,,,,,Open,35,1980-06-16
2,M,Maksim Tulikov,Максим Туликов,80.7,,,,,,120,82.5,B,Raw,Yes,120,-127.5,-127.5,120,,,,,,,Open,38,1977-06-26
3,M,Evgeniy Kubyshkin,Евгений Кубышкин,79.4,,,,,,112.5,82.5,B,Raw,Yes,105,-112.5,112.5,112.5,,,,,,,Open,29,1987-04-08
1,M,Andrey Gorbunov,Андрей Горбунов,88.6,,,,,,175,90,B,Raw,Yes,160,170,175,175,,,,,,,Open,33,1982-07-21
2,M,Dmitriy Bessolov,Дмитрий Бессолов,87.2,,,,,,170,90,B,Raw,Yes,165,170,-177.5,170,,,,,,,Open,31,1984-12-16
3,M,Evgeniy Shilovskiy,Евгений Шиловский,86,,,,,,165,90,B,Raw,Yes,145,155,165,165,,,,,,,Open,25,1990-07-09
4,M,Dmitriy Gorbunov,Дмитрий Горбунов,89,,,,,,165,90,B,Raw,Yes,165,-175,-175,165,,,,,,,Open,31,1984-11-15
5,M,Vyacheslav Tishuk,Вячеслав Тишук,87.7,,,,,,152.5,90,B,Raw,Yes,-145,-145,152.5,152.5,,,,,,,Open,26,1989-07-29
6,M,Ivan Ruzankin,Иван Рузанкин,89.1,,,,,,152.5,90,B,Raw,Yes,145,152.5,-155,152.5,,,,,,,Open,32,1983-08-02
7,M,Evgeniy Veresov,Евгений Вересов,86.8,,,,,,137.5,90,B,Raw,Yes,120,132.5,137.5,137.5,,,,,,,Open,27,1989-03-09
8,M,Sergey Sokolov,Сергей Соколов,89.5,,,,,,120,90,B,Raw,Yes,120,-132.5,-132.5,120,,,,,,,Open,28,1987-05-24
9,M,Aleksey Kutuzov,Алексей Кутузов,87.8,,,,,,110,90,B,Raw,Yes,100,110,-120,110,,,,,,,Open,25,1990-10-09
1,M,Sergey Shamov,Сергей Шамов,89.6,,,,,,152.5,90,B,Raw,Yes,145,152.5,-155,152.5,,,,,,,Masters 40-44,42,1973-08-21
1,M,Aleksandr Bazanov,Александр Базанов,96.6,,,,,,132.5,100,B,Raw,Yes,127.5,132.5,-140,132.5,,,,,,,Teen 18-19,19,1997-05-02
1,M,Aleksandr Gruzdev,Александр Груздев,95.5,,,,,,140,100,B,Raw,Yes,130,140,-147.5,140,,,,,,,Juniors 20-23,20,1995-07-30
1,M,Mikhail Kanin,Михаил Канин,99,,,,,,175,100,B,Raw,Yes,170,175,-180,175,,,,,,,Open,37,1978-07-06
2,M,Oleg Selyakov,Олег Селяков,97,,,,,,155,100,B,Raw,Yes,145,155,-162.5,155,,,,,,,Open,32,1983-08-24
3,M,Evgeniy Zorin,Евгений Зорин,91.3,,,,,,150,100,B,Raw,Yes,135,140,150,150,,,,,,,Open,25,1991-03-15
4,M,David Sichinava,Давид Сичинава,93.9,,,,,,142.5,100,B,Raw,Yes,-142.5,142.5,-147.5,142.5,,,,,,,Open,24,1991-09-18
DQ,M,Leonid Moskvin,Леонид Москвин,93.4,,,,,,,100,B,Raw,Yes,-145,-150,-150,,,,,,,,Open,31,1985-04-29
DQ,M,Aleksandr Popov,Александр Попов,100,,,,,,,100,B,Raw,Yes,-130,-135,-135,,,,,,,,Open,23,1993-01-01
1,M,Sergey Ukhanov,Сергей Уханов,97,,,,,,190,100,B,Raw,Yes,190,,,190,,,,,,,Masters 40-44,41,1974-05-23
1,M,Evgeniy Sroslov,Евгений Срослов,107.4,,,,,,152.5,110,B,Raw,Yes,147.5,-152.5,152.5,152.5,,,,,,,Open,37,1978-07-15
1,M,Igor Zvezdin,Игорь Звездин,109.4,,,,,,125,110,B,Raw,Yes,110,117.5,125,125,,,,,,,Masters 55-59,57,1958-08-02
1,M,Ilya Chuklin,Илья Чуклин,72,,,,,,155,75,B,Raw,No,70,150,155,155,,,,,,,Juniors 20-23,21,1995-03-27
1,M,Aleksandr Rassokhin,Александр Рассохин,73.1,,,,,,155,75,B,Raw,No,155,-160,-160,155,,,,,,,Open,30,1985-10-08
2,M,Aleksandr Borisov,Александр Борисов,73.4,,,,,,155,75,B,Raw,No,155,,,155,,,,,,,Open,26,1989-12-16
1,M,Igor Parshintsev,Игорь Паршинцев,78,,,,,,155,82.5,B,Raw,No,155,-165,-165,155,,,,,,,Open,25,1990-10-20
1,M,Oleg Egorov,Олег Егоров,87.5,,,,,,202.5,90,B,Raw,No,190,202.5,,202.5,,,,,,,Open,29,1986-12-23
2,M,Pavel Golovin,Павел Головин,89,,,,,,202.5,90,B,Raw,No,190,202.5,-205,202.5,,,,,,,Open,38,1977-06-12
3,M,Aleksandr Bystrov,Александр Быстров,86.7,,,,,,175,90,B,Raw,No,-152.5,175,-180,175,,,,,,,Open,24,1992-03-22
4,M,Sergey Nelaev,Сергей Нелаев,88.9,,,,,,167.5,90,B,Raw,No,160,167.5,-170,167.5,,,,,,,Open,34,1982-03-01
1,M,Vsevolod Smirnov,Всеволод Смирнов,95.4,,,,,,160,100,B,Raw,No,142.5,155,160,160,,,,,,,Juniors 20-23,22,1993-08-02
1,M,Aleksey Sidoruk,Алексей Сидорук,97.9,,,,,,195,100,B,Raw,No,190,195,-200,195,,,,,,,Open,38,1977-11-24
2,M,Dmitriy Fomichev,Дмитрий Фомичев,99.2,,,,,,185,100,B,Raw,No,-185,185,-190,185,,,,,,,Open,29,1986-12-15
3,M,Vitaliy Shishmolin,Виталий Шишмолин,93,,,,,,175,100,B,Raw,No,165,175,-185,175,,,,,,,Open,31,1985-02-15
4,M,Ivan Volchek,Иван Волчек,99.2,,,,,,170,100,B,Raw,No,170,-177.5,-185,170,,,,,,,Open,29,1986-12-22
5,M,Sergey Kudryavtsev,Сергей Кудрявцев,99,,,,,,142.5,100,B,Raw,No,-142.5,142.5,-160,142.5,,,,,,,Open,32,1983-06-03
1,M,Nikita Gubenskiy,Никита Губенский,101.3,,,,,,180,110,B,Raw,No,170,180,-192.5,180,,,,,,,Juniors 20-23,21,1995-04-06
1,M,Mikhail Solovev,Михаил Соловьев,107.5,,,,,,210,110,B,Raw,No,205,210,-222.5,210,,,,,,,Open,30,1985-08-17
2,M,Aleksandr Kulakov,Александр Кулаков,103.3,,,,,,205,110,B,Raw,No,190,200,205,205,,,,,,,Open,29,1986-10-23
3,M,Sergey Fenichev,Сергей Феничев,105.8,,,,,,167.5,110,B,Raw,No,-155,-155,167.5,167.5,,,,,,,Open,28,1987-08-08
1,M,Ilya Kalininskiy,Илья Калининский,112.2,,,,,,230,125,B,Raw,No,210,220,230,230,,,,,,,Open,27,1989-04-11
2,M,Oleg Khokhlov,Олег Хохлов,116,,,,,,190,125,B,Raw,No,180,190,-200,190,,,,,,,Open,35,1981-04-18
1,M,Anatoliy Logunov,Анатолий Логунов,114.7,,,,,,160,125,B,Raw,No,155,160,-165,160,,,,,,,Masters 60-64,63,1953-01-08
1,M,Ivan Kiktenko,Иван Киктенко,126.8,,,,,,220,140,B,Raw,No,210,220,-225,220,,,,,,,Masters 40-44,43,1972-12-13
DQ,M,Dmitriy Trapeznikov,Дмитрий Трапезников,76.9,,,,,,,82.5,S,Wraps,Yes,,,,,,-170,-170,-170,,,Juniors 20-23,21,1995-03-15
1,M,Vyacheslav Tishuk,Вячеслав Тишук,87.7,,,,,,245,90,S,Wraps,Yes,,,,,,-240,245,-255,245,,Open,26,1989-07-29
1,M,Konstantin Kysin,Константин Кысин,70,,,,,,150,75,S,Wraps,No,,,,,,150,-180,-180,150,,Juniors 20-23,21,1994-05-24
1,F,Olga Sondor,Ольга Сондор,51,,,,,,82.5,52,S,Raw,Yes,,,,,,82.5,,,82.5,,Juniors 20-23,23,1992-07-09
1,F,Irina Kudelkina,Ирина Куделькина,66.6,,,,,,90,67.5,S,Raw,Yes,,,,,,-90,-90,90,90,,Open,29,1987-04-27
1,M,Vladimir Degtyaryov,Владимир Дегтярёв,87.3,,,,,,250,90,S,Raw,No,,,,,,230,240,250,250,,Open,31,1984-07-23
1,M,Aleksandr Kazimirskiy,Александр Казимирский,80.8,200,220,222.5,222.5,,342.5,82.5,BD,Raw,Yes,-115,120,-122.5,120,,,,,,,Juniors 20-23,20,1995-12-22
1,M,Viktor Dreko,Виктор Дреко,78.4,170,180,190,190,,310,82.5,BD,Raw,Yes,110,115,120,120,,,,,,,Open,32,1983-11-09
1,M,Yuriy Zavarin,Юрий Заварин,83.1,-190,190,200,200,,290,90,BD,Raw,Yes,85,90,-95,90,,,,,,,Juniors 20-23,21,1995-05-11
1,M,Sergey Ukhanov,Сергей Уханов,97,255,,,255,,445,100,BD,Raw,Yes,190,,,190,,,,,,,Masters 40-44,41,1974-05-23
DQ,M,Anatoliy Gorislov,Анатолий Горислов,89,,,,,,,90,BD,Raw,No,-130,-130,,,,,,,,,Masters 75-79,76,1939-11-14
1,M,Vladislav Sazhnev,Владислав Сажнев,96,160,170,185,185,,295,100,BD,Raw,No,100,110,,110,,,,,,,Juniors 20-23,21,1994-09-21
1,M,Dmitriy Teplyakov,Дмитрий Тепляков,67.5,200,210,,210,,550,67.5,SBD,Single-ply,Yes,-135,135,-140,135,,-205,205,-212.5,205,,Open,42,1974-03-04
1,M,Dmitriy Teplyakov,Дмитрий Тепляков,67.5,200,210,,210,,550,67.5,SBD,Single-ply,Yes,-135,135,-140,135,,-205,205,-212.5,205,,Masters 40-44,42,1974-03-04
DQ,M,Aleksandr Chayka,Александр Чайка,111.5,,,,,,,125,SBD,Single-ply,Yes,,,,,,-200,-200,,,,Open,29,1986-12-12
1,F,Svetlana Burnashova,Светлана Бурнашова,53.6,160,167.5,172.5,172.5,175,435,56,SBD,Single-ply,No,80,85,90,90,,160,167.5,172.5,172.5,,Open,38,1977-10-26
1,M,Sergey Koryakin,Сергей Корякин,80.9,250,255,260,260,,695,82.5,SBD,Single-ply,No,150,155,160,160,,265,-275,275,275,,Open,39,1976-07-01
1,M,Vladimir Zhdanov,Владимир Жданов,88.4,230,-250,,230,,710,90,SBD,Single-ply,No,175,190,195,195,,-270,285,-295,285,,Teen 18-19,19,1997-02-04
1,M,Andrey Zhuravlev,Андрей Журавлев,89.2,235,245,255,255,,702.5,90,SBD,Single-ply,No,160,167.5,170,170,,267.5,277.5,-287.5,277.5,,Open,29,1987-04-10
1,M,Nikolay Chekanov,Николай Чеканов,66.5,-170,175,-180,175,,465,67.5,SBD,Wraps,Yes,100,105,110,110,,-170,180,-190,180,,Open,32,1984-02-29
1,M,Nikita Seytkulov,Никита Сейткулов,73.5,160,165,175,175,,450,75,SBD,Wraps,Yes,90,105,-110,105,,160,170,-180,170,,Teen 16-17,17,1999-02-03
2,M,Dmitriy Tretyakov,Дмитрий Третьяков,72.4,170,180,190,190,,440,75,SBD,Wraps,Yes,85,87.5,-90,87.5,,155,162.5,-170,162.5,,Teen 16-17,17,1998-10-28
DQ,M,Roman Zaytsev,Роман Зайцев,73.5,,,,,,,75,SBD,Wraps,Yes,,,,,,-140,-140,-140,,,Open,27,1988-06-28
1,M,Vyacheslav Tishuk,Вячеслав Тишук,87.7,220,230,240,240,,637.5,90,SBD,Wraps,Yes,145,152.5,-155,152.5,,-240,245,-255,245,,Open,26,1989-07-29
1,M,Pavel Trostin,Павел Тростин,95.7,230,240,,240,,655,100,SBD,Wraps,Yes,-150,160,165,165,,230,240,250,250,,Teen 18-19,18,1998-03-01
1,M,Aleksandr Golovay,Александр Головай,98.4,200,210,215,215,,605,100,SBD,Wraps,Yes,145,150,-155,150,,230,240,-250,240,,Open,32,1983-07-31
1,M,Sergey Ukhanov,Сергей Уханов,97,-250,-255,255,255,,690,100,SBD,Wraps,Yes,185,190,,190,,230,240,245,245,,Masters 40-44,41,1974-05-23
2,M,Anatoliy Kudryavtsev,Анатолий Кудрявцев,98.4,230,240,-245,240,,605,100,SBD,Wraps,Yes,145,150,-155,150,,205,-215,215,215,,Masters 40-44,43,1972-08-25
1,M,Aleksandr Borisov,Александр Борисов,73.4,215,225,237.5,237.5,,582.5,75,SBD,Wraps,No,147.5,155,-160,155,,190,-200,-200,190,,Open,26,1989-12-16
2,M,Ivan Korolev,Иван Королев,71.7,170,180,-195,180,,435,75,SBD,Wraps,No,95,110,115,115,,-140,140,-155,140,,Open,33,1982-07-01
1,M,Sergey Tretyakov,Сергей Третьяков,80.3,180,190,205,205,,580,82.5,SBD,Wraps,No,140,-155,155,155,,190,210,220,220,,Juniors 20-23,21,1994-12-04
1,M,Ruslan Kuznetsov,Руслан Кузнецов,89.4,220,240,-250,240,,625,90,SBD,Wraps,No,140,145,-147.5,145,,240,-250,-250,240,,Juniors 20-23,21,1995-01-26
1,M,Aleksey Yakushevich,Алексей Якушевич,97.2,290,305,-312.5,305,,792.5,100,SBD,Wraps,No,170,180,187.5,187.5,,275,290,300,300,,Open,24,1991-07-02
1,F,Olga Sondor,Ольга Сондор,51,87.5,97.5,102.5,102.5,,230,52,SBD,Raw,Yes,40,42.5,45,45,,-77.5,77.5,82.5,82.5,,Juniors 20-23,23,1992-07-09
1,F,Mariya Nikulina,Мария Никулина,54.6,85,90,92.5,92.5,,212.5,56,SBD,Raw,Yes,40,-42.5,-42.5,40,,75,80,-85,80,,Open,28,1988-01-31
1,F,Anna Eltsina,Анна Ельцина,59.3,100,110,115,115,,255,60,SBD,Raw,Yes,50,-52.5,-52.5,50,,80,90,-100,90,,Juniors 20-23,22,1993-12-31
1,F,Anastasiya Garkavenko,Анастасия Гарькавенко,59.7,100,-112.5,-112.5,100,,262.5,60,SBD,Raw,Yes,-57.5,57.5,-67.5,57.5,,95,105,-112.5,105,,Open,26,1990-04-04
1,F,Natalya Lovtsova,Наталья Ловцова,66.2,130,140,150,150,,380,67.5,SBD,Raw,Yes,90,95,100,100,,100,115,130,130,,Open,29,1986-05-29
1,M,Vladimir Burnashov,Владимир Бурнашов,51.5,142.5,145,-147.5,145,,337.5,52,SBD,Raw,Yes,67.5,70,-72.5,70,,112.5,117.5,122.5,122.5,,Teen 13-15,13,2002-11-15
DQ,M,Abdul Mirzoev,Абдул Мирзоев,47.8,-75,,,,,,52,SBD,Raw,Yes,50,-60,-60,50,,60,-70,70,70,,Teen 18-19,19,1996-12-04
1,M,Yan Lennok,Ян Леннок,64.4,122.5,132.5,142.5,142.5,,342.5,67.5,SBD,Raw,Yes,72.5,80,82.5,82.5,,105,110,117.5,117.5,,Teen 13-15,14,2001-06-08
1,M,Mikhail Kuznetsov,Михаил Кузнецов,64.8,150,160,170,170,,405,67.5,SBD,Raw,Yes,95,105,-110,105,,120,-130,130,130,,Open,25,1990-09-03
1,M,Aleksandr Lukin,Александр Лукин,71.5,122.5,132.5,140,140,,332.5,75,SBD,Raw,Yes,72.5,-77.5,-77.5,72.5,,110,115,120,120,,Teen 16-17,16,1999-12-11
1,M,Stanislav Tarasov,Станислав Тарасов,74.3,205,-210,-210,205,,457.5,75,SBD,Raw,Yes,85,92.5,-97.5,92.5,,-135,-145,160,160,,Juniors 20-23,21,1994-10-15
1,M,Artem Popov,Артем Попов,80.4,230,237.5,240,240,,570,82.5,SBD,Raw,Yes,135,140,-145,140,,-190,-190,190,190,,Open,25,1991-04-08
1,M,Nikita Lichutin,Никита Личутин,82,200,220,-230,220,,550,82.5,SBD,Raw,Yes,125,-130,-130,125,,190,-200,205,205,,Juniors 20-23,21,1994-07-10
1,M,Artem Shasherin,Артем Шашерин,81.5,220,-227.5,-227.5,220,,560,82.5,SBD,Raw,Yes,125,132.5,135,135,,195,-205,205,205,,Open,31,1984-11-08
2,M,Nikita Zuev,Никита Зуев,77.2,170,180,185,185,,430,82.5,SBD,Raw,Yes,95,105,110,110,,135,-145,-145,135,,Open,29,1986-12-02
3,M,Roman Radzhabov,Роман Раджабов,80.7,140,150,160,160,,420,82.5,SBD,Raw,Yes,100,110,-115,110,,140,150,-160,150,,Open,31,1985-02-23
1,M,Sergey Lyuskov,Сергей Люсков,81.2,170,185,192.5,192.5,,475,82.5,SBD,Raw,Yes,105,110,117.5,117.5,,145,-155,165,165,,Masters 40-44,42,1973-11-08
1,M,Aleksandr Molodtsov,Александр Молодцов,89.3,212.5,225,235,235,,597.5,90,SBD,Raw,Yes,140,147.5,152.5,152.5,,197.5,210,-217.5,210,,Open,37,1978-10-21
1,M,Nikolay Shasherin,Николай Шашерин,99.6,270,-282.5,-282.5,270,,715,100,SBD,Raw,Yes,170,-177.5,177.5,177.5,,260,-267.5,267.5,267.5,,Open,29,1987-01-20
1,F,Lyubov Bakancha,Любовь Баканча,64.9,85,90,100,100,,235,67.5,SBD,Raw,No,45,55,-60,55,,65,-75,80,80,,Open,39,1977-03-16
1,M,Gleb Gorynin,Глеб Горынин,74.3,155,165,175,175,,427.5,75,SBD,Raw,No,100,-110,-110,100,,-145,145,152.5,152.5,,Open,26,1989-11-13
1,M,Ivan Vlasov,Иван Власов,76,160,170,180,180,,415,82.5,SBD,Raw,No,90,100,-105,100,,120,130,135,135,,Open,30,1985-12-13
1,M,Anatoliy Ivashko,Анатолий Ивашко,83.9,240,260,270,270,,630,90,SBD,Raw,No,155,-165,-170,155,,205,-215,-225,205,,Open,26,1990-01-03
1,M,Dmitriy Elfimov,Дмитрий Елфимов,96.8,270,-277.5,-277.5,270,,707.5,100,SBD,Raw,No,170,180,-182.5,180,,250,257.5,-262.5,257.5,,Open,29,1986-11-09
2,M,Sergey Moiseev,Сергей Моисеев,97.4,-250,265,-272.5,265,,630,100,SBD,Raw,No,145,150,-155,150,,205,215,-225,215,,Open,38,1977-08-24
3,M,Yuriy Intke,Юрий Интке,94,220,240,255,255,,605,100,SBD,Raw,No,125,135,140,140,,200,210,-220,210,,Open,33,1983-03-31
4,M,Aleksey Bragin,Алексей Брагин,99.1,215,225,235,235,,575,100,SBD,Raw,No,150,155,-160,155,,175,180,185,185,,Open,32,1984-02-13
5,M,Denis Chugunov,Денис Чугунов,95.8,200,-210,-215,200,,527.5,100,SBD,Raw,No,140,-147.5,147.5,147.5,,-180,-180,180,180,,Open,28,1987-06-08
