Tested,Equipment,Place,Name,Division,BirthYear,BodyweightKg,Squat1Kg,Squat2Kg,Squat3Kg,Best3SquatKg,Bench1Kg,Bench2Kg,Bench3Kg,Best3BenchKg,Bench4Kg,Deadlift1Kg,Deadlift2Kg,Deadlift3Kg,Best3DeadliftKg,TotalKg,WeightClassKg,Sex,CyrillicName,Event
Yes,Raw,1,Elena Parubets,Amateur Teen 18-19,1993,52,80,82.5,85,85,40,42.5,-45,42.5,,85,90,95,95,222.5,52,F,Елена Парубец,SBD
Yes,Raw,2,Albina Akhmetzyanova,Amateur Teen 18-19,1993,50.9,52.5,-57.5,-57.5,52.5,35,37.5,-40,37.5,,50,-55,,50,140,52,F,Альбина Ахметзянова,SBD
Yes,Raw,1,Polina Andreeva,Amateur Open,1987,49.8,-82.5,-87.5,87.5,87.5,45,50,-55,50,,85,-95,95,95,232.5,52,F,Полина Андреева,SBD
Yes,Raw,2,Anna Meshkova,Amateur Open,1986,50.5,-70,-75,75,75,30,35,37.5,37.5,,75,77.5,80,80,192.5,52,F,Анна Мешкова,SBD
Yes,Raw,1,Arina Aleksina,Amateur Masters 40-44,1972,51.4,50,55,-60,55,35,-40,40,40,,-65,65,70,70,165,52,F,Арина Алексина,SBD
Yes,Raw,1,Alena Sotnikova,Amateur Juniors 20-23,1989,55.4,80,90,-95,90,50,55,60,60,,-90,90,95,95,245,56,F,Алена Сотникова,SBD
Yes,Raw,2,Irina Karpova,Amateur Juniors 20-23,1989,55.7,75,82.5,87.5,87.5,47.5,52.5,-55,52.5,,87.5,95,100,100,240,56,F,Ирина Карпова,SBD
Yes,Raw,1,Taliya Nigmatzyanova,Amateur Open,1986,53.6,70,72.5,,72.5,45,-50,-50,45,,80,90,-100,90,207.5,56,F,Талия Нигматзянова,SBD
Yes,Raw,2,Lyubov Babkina,Amateur Open,1980,54.3,65,67.5,72.5,72.5,30,35,37.5,37.5,,75,82.5,90,90,200,56,F,Любовь Бабкина,SBD
Yes,Raw,1,Tatiana Ukhlina,Amateur Open,1971,57.4,110,115,-120,115,55,60,62.5,62.5,,115,120,-125,120,297.5,60,F,Татьяна Ухлина,SBD
Yes,Raw,1,Tatiana Ukhlina,Amateur Masters 40-44,1971,57.4,110,115,-120,115,55,60,62.5,62.5,,115,120,-125,120,297.5,60,F,Татьяна Ухлина,SBD
Yes,Raw,2,Mariya Voronina,Amateur Masters 40-44,1972,58.7,80,85,-90,85,45,50,52.5,52.5,,100,105,110,110,247.5,60,F,Мария Воронина,SBD
Yes,Raw,DQ,Anna Kutina,Amateur Open,1978,66.1,-110,-110,-110,,,,,,,,,,,,67.5,F,Анна Кутьина,SBD
Yes,Raw,1,Elena Davydova,Amateur Open,1973,74.4,-80,80,85,85,-47.5,50,-55,50,,100,110,115,115,250,75,F,Елена Давыдова,SBD
Yes,Raw,1,Gleb Titov,Amateur Teen 13-15,1997,50.1,80,87.5,92.5,92.5,60,65,67.5,67.5,,112.5,122.5,132.5,132.5,292.5,52,M,Глеб Титов,SBD
Yes,Raw,1,Evgeniy Pleshkov,Amateur Teen 16-17,1995,52,65,70,75,75,52.5,-55,-55,52.5,,90,100,110,110,237.5,52,M,Евгений Плешков,SBD
Yes,Raw,2,Aleksandr Alekseev,Amateur Teen 16-17,1996,50,50,62.5,-70,62.5,55,62.5,-67.5,62.5,,60,75,85,85,210,52,M,Александр Алексеев,SBD
Yes,Raw,1,Konstantin Umnov,Amateur Juniors 20-23,1990,59.6,-80,80,-115,80,70,82.5,90,90,,120,140,150,150,320,60,M,Константин Умнов,SBD
Yes,Raw,1,Maksim Filyus,Amateur Teen 16-17,1994,64.3,120,-125,-130,120,90,-95,-95,90,,150,-160,-160,150,360,67.5,M,Максим Филюс,SBD
Yes,Raw,2,Andrey Anokhin,Amateur Teen 16-17,1994,64.7,95,-100,-105,95,65,-70,70,70,,120,127.5,132.5,132.5,297.5,67.5,M,Андрей Анохин,SBD
Yes,Raw,1,Viktor Kulpin,Amateur Teen 18-19,1993,65.5,80,100,-112.5,100,70,82.5,-90,82.5,,-110,110,135,135,317.5,67.5,M,Виктор Кульпин,SBD
Yes,Raw,DQ,Petr Zabolotniy,Amateur Juniors 20-23,1989,66,-95,-95,-95,,,,,,,,,,,,67.5,M,Петр Заболотний,SBD
Yes,Raw,DQ,Aleksey Evdokimov,Amateur Juniors 20-23,1991,66.4,-90,-100,-100,,,,,,,,,,,,67.5,M,Алексей Евдокимов,SBD
Yes,Raw,1,Mikhail Vorozhtsov,Amateur Open,1979,66.6,140,150,-160,150,-120,125,130,130,,160,175,185,185,465,67.5,M,Михаил Ворожцов,SBD
Yes,Raw,2,Dmitriy Gromov,Amateur Open,1987,65.5,-140,140,150,150,100,105,107.5,107.5,,150,170,182.5,182.5,440,67.5,M,Дмитрий Громов,SBD
Yes,Raw,1,Georgiy Dubrovin,Amateur Teen 13-15,1997,70.7,140,-145,145,145,105,110,115,115,,175,185,195,195,455,75,M,Георгий Дубровин,SBD
Yes,Raw,2,Viktor Chragyan,Amateur Teen 13-15,1997,73.2,125,132.5,140,140,90,97.5,-105,97.5,,150,160,170,170,407.5,75,M,Виктор Чрагян,SBD
Yes,Raw,DQ,Pavel Belousov,Amateur Teen 18-19,1994,75,-155,-157.5,-157.5,,,,,,,,,,,,75,M,Павел Белоусов,SBD
Yes,Raw,DD,Vladimir Lukinskiy,Amateur Teen 18-19,1994,72.9,-150,150,165,165,90,97.5,-102.5,97.5,,-200,210,220,220,,75,M,Владимир Лукинский,SBD
Yes,Raw,1,Valeriy Proskurkin,Amateur Juniors 20-23,1989,73.3,160,165,-170,165,130,-137.5,-137.5,130,,205,215,222.5,222.5,517.5,75,M,Валерий Проскуркин,SBD
Yes,Raw,2,Dmitriy Kholodkov,Amateur Juniors 20-23,1992,73.85,-135,140,150,150,100,110,115,115,,160,180,190,190,455,75,M,Дмитрий Холодков,SBD
Yes,Raw,3,Vladimir Gurenkov,Amateur Juniors 20-23,1992,70.9,140,145,-150,145,90,97.5,102.5,102.5,,175,182.5,190,190,437.5,75,M,Владимир Гуреньков,SBD
Yes,Raw,4,Mikhail Solntsev,Amateur Juniors 20-23,1991,68.5,110,115,122.5,122.5,80,85,90,90,,-150,150,-155,150,362.5,75,M,Михаил Солнцев,SBD
Yes,Raw,DQ,Aleksey Akimov,Amateur Juniors 20-23,1989,73.7,-170,-170,-170,,,,,,,,,,,,75,M,Алексей Акимов,SBD
Yes,Raw,1,Pavel Schetinin,Amateur Open,1987,74.2,185,190,195,195,125,130,132.5,132.5,,205,210,-215,210,537.5,75,M,Павел Щетинин,SBD
Yes,Raw,2,Aleksey Volkov,Amateur Open,1978,74,180,-200,-210,180,110,-120,120,120,,170,-200,-200,170,470,75,M,Алексей Волков,SBD
Yes,Raw,3,Aleksandr Skorobogatov,Amateur Open,1981,69.4,-170,170,180,180,100,-105,105,105,,170,180,-185,180,465,75,M,Александр Скоробогатов,SBD
Yes,Raw,4,Yuriy Bonachev,Amateur Open,1986,73.7,115,130,145,145,90,-102.5,105,105,,140,160,-180,160,410,75,M,Юрий Боначев,SBD
Yes,Raw,5,Evgeniy Anikin,Amateur Open,1985,71.7,120,125,-130,125,95,100,-102.5,100,,160,170,180,180,405,75,M,Евгений Аникин,SBD
Yes,Raw,DQ,Sergey Lugovoy,Amateur Open,1981,73.8,220,230,-242.5,230,-160,-160,-160,,,,,,,,75,M,Сергей Луговой,SBD
Yes,Raw,DQ,Vladimir Zhaglin,Amateur Open,1986,74.2,-150,-170,-170,,,,,,,,,,,,75,M,Владимир Жаглин,SBD
Yes,Raw,DQ,Viktor Popov,Amateur Masters 60-64,1952,73.4,120,130,140,140,-85,-85,-85,,,,,,,,75,M,Виктор Попов,SBD
Yes,Raw,1,Aleksandr Bukharin,Amateur Teen 13-15,1999,79.1,110,120,125,125,95,100,102.5,102.5,,130,140,-150,140,367.5,82.5,M,Александр Бухарин,SBD
Yes,Raw,1,Artem Sokolov,Amateur Juniors 20-23,1989,81.5,200,210,-220,210,140,-150,,140,,200,217.5,,217.5,567.5,82.5,M,Артем Соколов,SBD
Yes,Raw,2,Aleksandr Savitskiy,Amateur Juniors 20-23,1990,81.2,185,-192.5,-192.5,185,120,130,-135,130,,210,220,-227.5,220,535,82.5,M,Александр Савицкий,SBD
Yes,Raw,3,Stepan Meleshin,Amateur Juniors 20-23,1989,80.9,-170,-175,175,175,135,140,142.5,142.5,,195,202.5,-207.5,202.5,520,82.5,M,Степан Мелешин,SBD
Yes,Raw,4,Rafik Khachaturyan,Amateur Juniors 20-23,1990,75.5,-160,-160,160,160,-110,120,-125,120,,170,180,-200,180,460,82.5,M,Рафик Хачатурян,SBD
Yes,Raw,DQ,Ruslan Ayzyatullov,Amateur Juniors 20-23,1989,79.6,-180,-180,-180,,,,,,,,,,,,82.5,M,Руслан Айзятуллов,SBD
Yes,Raw,1,Dmitriy Timofeev,Amateur Open,1987,78.6,210,217.5,-222.5,217.5,145,-150,150,150,,260,-265,-265,260,627.5,82.5,M,Дмитрий Тимофеев,SBD
Yes,Raw,2,Dmitriy Karpeev,Amateur Open,1984,82.35,180,-190,190,190,130,140,145,145,,200,210,-220,210,545,82.5,M,Дмитрий Карпеев,SBD
Yes,Raw,3,Dmitriy Shelukhin,Amateur Open,1985,81.2,180,-185,-185,180,130,-140,-140,130,,-190,190,200,200,510,82.5,M,Дмитрий Шелухин,SBD
Yes,Raw,4,Sergey Stepanov,Amateur Open,1988,78.5,150,165,170,170,90,95,100,100,,190,200,205,205,475,82.5,M,Сергей Степанов,SBD
Yes,Raw,5,Andrey Kolchenogov,Amateur Open,1985,80.9,155,-160,-160,155,120,122.5,-127.5,122.5,,185,195,-210,195,472.5,82.5,M,Андрей Колченогов,SBD
Yes,Raw,6,Mikhail Severov,Amateur Open,,81.5,-165,165,170,170,100,105,-107.5,105,,180,190,-195,190,465,82.5,M,Михаил Северов,SBD
Yes,Raw,7,Andrey Karpov,Amateur Open,1985,79.7,-160,-165,165,165,120,-127.5,-127.5,120,,-175,-175,175,175,460,82.5,M,Андрей Карпов,SBD
Yes,Raw,8,Ilya Yunak,Amateur Open,1987,79.7,120,-130,130,130,95,100,105,105,,145,162.5,170,170,405,82.5,M,Илья Юнак,SBD
Yes,Raw,DQ,Denis Bavarov,Amateur Open,1978,80.75,-150,-150,-150,,,,,,,,,,,,82.5,M,Денис Баваров,SBD
Yes,Raw,1,Vladimir Kulakov,Amateur Masters 55-59,1955,77.8,95,102.5,107.5,107.5,90,97.5,-102.5,97.5,,115,127.5,135,135,340,82.5,M,Владимир Кулаков,SBD
Yes,Raw,1,Vyacheslav Chevordaev,Amateur Masters 60-64,1948,81.6,165,175,180,180,-92.5,-92.5,92.5,92.5,,200,215,220,220,492.5,82.5,M,Вячеслав Чевордаев,SBD
Yes,Raw,1,Nikolay Novikov,Amateur Masters 70-74,1938,82.5,-100,100,110,110,100,-105,-105,100,,130,140,145,145,355,82.5,M,Николай Новиков,SBD
Yes,Raw,2,Vladislav Sannikov,Amateur Masters 70-74,1938,78.9,90,100,-105,100,80,85,-87.5,85,,120,125,130,130,315,82.5,M,Владислав Санников,SBD
Yes,Raw,DQ,Sergey Evdokimov,Amateur Teen 18-19,1994,83.7,125,-132.5,135,135,-102.5,-102.5,-102.5,,,,,,,,90,M,Сергей Евдокимов,SBD
Yes,Raw,1,Anton Ilyasov,Amateur Juniors 20-23,1988,88.2,180,190,200,200,130,-135,-135,130,,255,265,277.5,277.5,607.5,90,M,Антон Илясов,SBD
Yes,Raw,2,Aleksandr Shabrov,Amateur Juniors 20-23,1991,84.4,205,215,220,220,130,140,-145,140,,230,237.5,245,245,605,90,M,Александр Шабров,SBD
Yes,Raw,3,Roman Romanov,Amateur Juniors 20-23,1989,88.3,190,200,207.5,207.5,122.5,127.5,-130,127.5,,220,230,,230,565,90,M,Роман Романов,SBD
Yes,Raw,4,Aleksandr Ponyavin,Amateur Juniors 20-23,1992,86.2,195,-205,-205,195,130,-140,-140,130,,200,210,225,225,550,90,M,Александр Понявин,SBD
Yes,Raw,5,Yuriy Kurapov,Amateur Juniors 20-23,1990,83.8,170,180,-185,180,130,-140,-140,130,,210,225,230,230,540,90,M,Юрий Курапов,SBD
Yes,Raw,6,Zakhar Gorshkov,Amateur Juniors 20-23,1989,87,140,155,-165,155,125,135,-142.5,135,,195,-215,220,220,510,90,M,Захар Горшков,SBD
Yes,Raw,7,Mikhail Vasilevsky,Amateur Juniors 20-23,1991,85.9,160,167.5,175,175,110,115,-120,115,,-175,180,192.5,192.5,482.5,90,M,Михаил Василевский,SBD
Yes,Raw,8,Andrey Kamenov,Amateur Juniors 20-23,1988,87.8,-135,-135,135,135,100,110,-115,110,,-185,185,195,195,440,90,M,Андрей Каменов,SBD
Yes,Raw,9,Maksim Kharlamov,Amateur Juniors 20-23,1990,88.1,-150,160,-170,160,90,100,102.5,102.5,,160,170,175,175,437.5,90,M,Максим Харламов,SBD
Yes,Raw,1,Nafal Dadashov,Amateur Open,1982,89.5,200,212.5,-220,212.5,150,-160,160,160,,250,260,-270,260,632.5,90,M,Нафал Дадашов,SBD
Yes,Raw,2,Sergey Antsupov,Amateur Open,1974,88.5,170,-175,175,175,140,145,-150,145,,190,200,207.5,207.5,527.5,90,M,Сергей Анцупов,SBD
Yes,Raw,3,Ruslan Aliev,Amateur Open,1981,88.1,-170,-180,185,185,125,135,-137.5,135,,170,195,-217.5,195,515,90,M,Руслан Алиев,SBD
Yes,Raw,4,Aleksey Kholkovskiy,Amateur Open,1974,88.2,170,180,-190,180,-100,107.5,117.5,117.5,,180,195,-200,195,492.5,90,M,Алексей Холковский,SBD
Yes,Raw,5,Andrey Kolesnikov,Amateur Open,1988,84.2,120,125,-130,125,75,80,85,85,,130,135,140,140,350,90,M,Андрей Колесников,SBD
Yes,Raw,1,Igor Khrustalev,Amateur Masters 45-49,1964,87.4,160,170,175,175,120,-125,125,125,,190,200,-205,200,500,90,M,Игорь Хрусталев,SBD
Yes,Raw,1,Aleksandr Nakoryakov,Amateur Masters 60-64,1951,90,130,140,-150,140,110,-115,-115,110,,-130,140,150,150,400,90,M,Александр Накоряков,SBD
Yes,Raw,DQ,Artem Bezpalenko,Amateur Juniors 20-23,1990,98.3,-180,-180,-180,,,,,,,,,,,,100,M,Артем Безпаленко,SBD
Yes,Raw,1,Mikhail Evstigneev,Amateur Open,1976,99.9,200,210,-215,210,175,185,190,190,,225,235,240,240,640,100,M,Михаил Евстигнеев,SBD
Yes,Raw,2,Mikhail Grinko,Amateur Open,1978,98.2,200,210,-220,210,140,150,-155,150,,240,-260,260,260,620,100,M,Михаил Гринько,SBD
Yes,Raw,3,Ilya Karmishin,Amateur Open,1984,98.6,195,205,215,215,165,175,-180,175,,215,225,230,230,620,100,M,Илья Кармишин,SBD
Yes,Raw,4,Magomed Gasiev,Amateur Open,1983,94.8,200,-212.5,-212.5,200,140,145,,145,,220,240,-255,240,585,100,M,Магомед Гасиев,SBD
Yes,Raw,5,Aleksey Tikhomirov,Amateur Open,1988,93.1,190,-200,-200,190,130,-140,145,145,,225,235,240,240,575,100,M,Алексей Тихомиров,SBD
Yes,Raw,6,Aleksey Vorotnikov,Amateur Open,1980,96.9,190,197.5,205,205,125,130,135,135,,202.5,-210,-210,202.5,542.5,100,M,Алексей Воротников,SBD
Yes,Raw,7,Dmitriy Shuyskiy,Amateur Open,1976,96.3,175,185,-195,185,130,135,140,140,,200,207.5,215,215,540,100,M,Дмитрий Шуйский,SBD
Yes,Raw,8,Igor Shuyskiy,Amateur Open,1978,93.7,-180,180,-185,180,120,130,135,135,,200,210,-215,210,525,100,M,Игорь Шуйский,SBD
Yes,Raw,9,Vladimir Konyagin,Amateur Open,1984,98,-170,-170,170,170,130,135,140,140,,205,215,-225,215,525,100,M,Владимир Конягин,SBD
Yes,Raw,10,Denis Boklachev,Amateur Open,1981,98.4,160,175,-182.5,175,110,122.5,,122.5,,190,-215,,190,487.5,100,M,Денис Боклачев,SBD
Yes,Raw,DQ,Andrey Sukharev,Amateur Open,1974,98.4,-225,-225,-225,,,,,,,,,,,,100,M,Андрей Сухарев,SBD
Yes,Raw,DQ,Dmitriy Tururushkin,Amateur Open,1987,98.7,180,190,-200,190,-115,-115,-115,,,,,,,,100,M,Дмитрий Турурушкин,SBD
Yes,Raw,1,Nikolay Dergachev,Amateur Masters 50-54,1960,98.6,180,-190,-190,180,140,-145,145,145,,200,-210,-215,200,525,100,M,Николай Дергачев,SBD
Yes,Raw,1,Nikita Boldyrev,Amateur Teen 16-17,1995,106.4,170,182.5,-190,182.5,110,117.5,125,125,,210,220,230,230,537.5,110,M,Никита Болдырев,SBD
Yes,Raw,1,Nikita Vinogradov,Amateur Teen 18-19,1993,107.7,180,190,200,200,-140,140,145,145,,240,255,267.5,267.5,612.5,110,M,Никита Виноградов,SBD
Yes,Raw,2,Aleksey Averyanov,Amateur Teen 18-19,1993,102.8,150,175,185,185,100,110,-115,110,,180,210,220,220,515,110,M,Алексей Аверьянов,SBD
Yes,Raw,1,Aleksey Koryakin,Amateur Open,1988,106,220,225,-230,225,185,-195,195,195,,235,245,255,255,675,110,M,Алексей Корякин,SBD
Yes,Raw,2,Aleksandr Kuznetsov #1,Amateur Open,1979,108.1,205,215,-220,215,195,-205,-205,195,,225,235,-245,235,645,110,M,Александр Кузнецов,SBD
Yes,Raw,3,Andrey Shevchenko,Amateur Open,1986,102.5,-215,215,-220,215,160,-165,-165,160,,250,265,-280,265,640,110,M,,SBD
Yes,Raw,4,Aleksandr Belikov,Amateur Open,1974,104.8,200,205,207.5,207.5,150,-155,-157.5,150,,215,225,235,235,592.5,110,M,Александр Беликов,SBD
Yes,Raw,5,Igor Sharapov,Amateur Open,1971,102.3,-190,-190,190,190,140,150,155,155,,-205,210,222.5,222.5,567.5,110,M,Игорь Шарапов,SBD
Yes,Raw,1,Svyatoslav Kotik,Amateur Open,1992,107.8,190,202.5,-207.5,202.5,147.5,152.5,-157.5,152.5,,200,220,230,230,585,110,M,Святослав Котик,SBD
Yes,Raw,1,Rafik Gataullin,Amateur Masters 45-49,1967,105.8,180,190,200,200,140,150,155,155,,-200,205,215,215,570,110,M,Рафик Гатауллин,SBD
Yes,Raw,1,Egor Ermolaev,Amateur Teen 16-17,1995,117.9,135,147.5,155,155,-95,97.5,-102.5,97.5,,145,157.5,167.5,167.5,420,125,M,Егор Ермолаев,SBD
Yes,Raw,1,Andrey Shmorgun,Amateur Open,1984,120.5,202.5,212.5,222.5,222.5,160,170,180,180,,230,240,267.5,267.5,670,125,M,Андрей Шморгун,SBD
Yes,Raw,2,Aleksey Kozishnikov,Amateur Open,1973,121.9,230,240,-250,240,175,180,185,185,,230,245,-260,245,670,125,M,Алексей Козишников,SBD
Yes,Raw,3,Aleksey Stepanchenko,Amateur Open,1988,122.2,200,-210,-210,200,140,147.5,152.5,152.5,,230,250,-265,250,602.5,125,M,Алексей Степанченко,SBD
Yes,Raw,4,Sergey Polyakov,Amateur Open,1985,113,160,175,-190,175,130,137.5,142.5,142.5,,190,210,-220,210,527.5,125,M,Сергей Поляков,SBD
Yes,Raw,1,Igor Ivchenkov,Amateur Open,1980,126.1,250,260,270,270,190,200,-210,200,,240,250,,250,720,140,M,Игорь Ивченков,SBD
Yes,Single-ply,1,Svetlana Veselova,Amateur Open,1987,56.5,-100,-100,100,100,-60,60,-70,60,,100,115,-130,115,275,60,F,Светлана Веселова,SBD
Yes,Single-ply,1,Nikolay Savenkov,Amateur Teen 18-19,1993,62.3,160,170,175,175,115,120,122.5,122.5,,165,175,182.5,182.5,480,67.5,M,Николай Савенков,SBD
Yes,Single-ply,2,Vladimir Vasilenko,Amateur Teen 18-19,1994,64.3,-140,140,150,150,80,87.5,95,95,,130,145,155,155,400,67.5,M,Володимир Василенко,SBD
Yes,Single-ply,DQ,Sergey Dolnikov,Amateur Open,1986,65.9,-180,-180,-180,,,,,,,,,,,,67.5,M,Сергей Дольников,SBD
Yes,Single-ply,1,Anton Shevyrin,Amateur Juniors 20-23,1991,74.7,-210,210,220,220,165,-172.5,-172.5,165,,207.5,-215,215,215,600,75,M,Антон Шевырин,SBD
Yes,Single-ply,2,Sergey Gorbunov,Amateur Juniors 20-23,1991,74.4,195,-205,-205,195,130,140,-145,140,,220,230,-235,230,565,75,M,Сергей Горбунов,SBD
Yes,Single-ply,1,Aleksandr Petrov,Amateur Open,1990,74.2,180,195,-210,195,135,142.5,-150,142.5,,190,-210,210,210,547.5,75,M,Александр Петров,SBD
Yes,Single-ply,1,Evgeniy Samodumskiy,Amateur Juniors 20-23,1990,80.5,210,230,-250,230,150,165,-170,165,,200,217.5,232.5,232.5,627.5,82.5,M,Евгений Самодумский,SBD
Yes,Single-ply,DD,Andrey Badanin,Amateur Juniors 20-23,1991,80.1,-210,215,-225,215,-160,165,175,175,,200,220,-230,220,,82.5,M,Андрей Баданин,SBD
Yes,Single-ply,1,Ernest Gazaryan,Amateur Open,1979,79.75,210,227.5,-232.5,227.5,160,165,-170,165,,190,-215,-217.5,190,582.5,82.5,M,Эрнест Газарян,SBD
Yes,Single-ply,2,Aleksey Selischev,Amateur Open,1978,80.9,-180,-180,180,180,95,-100,-100,95,,170,180,190,190,465,82.5,M,Алексей Селищев,SBD
Yes,Single-ply,DQ,Aleksey Zyuban,Amateur Teen 18-19,1994,88.1,-180,-190,-190,,,,,,,,,,,,90,M,Алексей Зюбан,SBD
Yes,Single-ply,1,Sergey Pisarev,Amateur Juniors 20-23,1991,87.5,235,250,260,260,160,167.5,175,175,,220,235,245,245,680,90,M,Сергей Писарев,SBD
Yes,Single-ply,2,Maksim Matros,Amateur Juniors 20-23,1992,88.2,230,242.5,-255,242.5,150,-157.5,,150,,255,267.5,277.5,277.5,670,90,M,Максим Матрос,SBD
Yes,Single-ply,DD,Mikhail Malinov,Amateur Open,1985,87.9,220,-240,-245,220,150,-160,-160,150,,210,225,235,235,,90,M,Михаил Малинов,SBD
Yes,Single-ply,1,Nikolay Yashin,Amateur Teen 16-17,1995,108,-180,180,200,200,-160,-160,160,160,,180,200,-220,200,560,110,M,Николай Яшин,SBD
Yes,Single-ply,1,Denis Demkin,Amateur Open,1979,102.5,175,-185,185,185,145,155,160,160,,170,180,190,190,535,110,M,Денис Демкин,SBD
Yes,Single-ply,DQ,Artur Kupriev,Amateur Open,1978,128.5,-250,-260,-260,,,,,,,,,,,,140,M,Артур Куприев,SBD
Yes,Multi-ply,1,Roman Korshunov,Amateur Open,1980,74.3,-150,160,-170,160,105,,,105,,155,165,-175,165,430,75,M,Роман Коршунов,SBD
Yes,Multi-ply,1,Pavel Perov,Amateur Juniors 20-23,1990,88.9,180,210,-230,210,100,-130,-130,100,,180,200,-220,200,510,90,M,Павел Перов,SBD
Yes,Multi-ply,DQ,Evgeniy Pivovarov,Amateur Open,1988,88.7,260,270,-280,270,-200,-200,-205,,,,,,,,90,M,Евгений Пивоваров,SBD
Yes,Multi-ply,1,Alexander Krovikov,Amateur Masters 50-54,1961,96.7,250,-260,-260,250,170,-180,180,180,,250,-270,-270,250,680,100,M,Александр Кровиков,SBD
No,Raw,1,Irina Yaroshenko,Pro Open,1986,103,167.5,180,,180,100,110,115,115,,175,,,175,470,90+,F,Ирина Ярошенко,SBD
No,Raw,1,Vitaliy Penkov,Pro Juniors 20-23,1992,60,-90,-90,92.5,92.5,70,-75,77.5,77.5,,100,110,120,120,290,60,M,Виталий Пеньков,SBD
No,Raw,1,Ragim Balakshiev,Pro Juniors 20-23,1990,80.7,185,192.5,-200,192.5,-137.5,137.5,142.5,142.5,,230,240,-250,240,575,82.5,M,Рагим Балакшиев,SBD
No,Raw,1,Aleksey Nikulin,Pro Open,1982,82,260,275,282.5,282.5,150,165,172.5,172.5,,280,300,310,310,765,82.5,M,Алексей Никулин,SBD
No,Raw,2,Anton Anikanov,Pro Open,1985,82.5,-200,200,215,215,150,160,-170,160,,240,-250,-250,240,615,82.5,M,Антон Аниканов,SBD
No,Raw,3,Arseniy Mikhaylenko,Pro Open,1987,78.3,-140,140,150,150,140,-145,,140,,190,200,205,205,495,82.5,M,Арсений Михайленко,SBD
No,Raw,1,Pavel Sheludko,Pro Juniors 20-23,1989,88.4,240,-251,251,251,170,180,187.5,187.5,,265,275,-285,275,713.5,90,M,Павел Шелудько,SBD
No,Raw,2,Nikolay Kotlyarov,Pro Juniors 20-23,1990,88.9,-160,-160,160,160,-100,110,-135,110,,200,230,-250,230,500,90,M,Николай Котляров,SBD
No,Raw,DQ,Dmitriy Bogdanov,Pro Juniors 20-23,1992,90,-251,-251,-251,,,,,,,,,,,,90,M,Дмитрий Богданов,SBD
No,Raw,1,Sergey Larionov,Pro Open,1975,90,182.5,-190,-190,182.5,142.5,-150,152.5,152.5,,255,267.5,272.5,272.5,607.5,90,M,Сергей Ларионов,SBD
No,Raw,2,Aleksey Koshuba,Pro Open,1980,87.4,190,200,210,210,130,135,,135,,250,260,-270,260,605,90,M,Алексей Кошуба,SBD
No,Raw,3,Maksim Kiselgof,Pro Open,1974,90,180,190,-200,190,130,135,-140,135,,200,210,220,220,545,90,M,Максим Кисельгоф,SBD
No,Raw,1,Dmitriy Postnov,Pro Masters 40-44,1971,90,180,190,205,205,125,135,145,145,,200,220,232.5,232.5,582.5,90,M,Дмитрий Постнов,SBD
No,Raw,2,Vitaliy Kulikov,Pro Masters 40-44,1971,89.8,-170,175,180,180,-125,125,130,130,,200,215,-230,215,525,90,M,Виталий Куликов,SBD
No,Raw,1,Dmitriy Alekseevskiy,Pro Juniors 20-23,1990,92.9,140,160,170,170,110,120,-130,120,,210,220,235,235,525,100,M,Дмитрий Алексеевский,SBD
No,Raw,1,Anton Yaschuk,Pro Open,1980,98.3,-200,210,220,220,150,160,170,170,,220,250,-260,250,640,100,M,Антон Ящук,SBD
No,Raw,2,Roman Terekhov,Pro Open,1981,92.9,170,180,-185,180,110,115,122.5,122.5,,180,190,200,200,502.5,100,M,Роман Терехов,SBD
No,Raw,3,Andrey Safonov,Pro Open,1979,93,130,140,,140,120,130,-135,130,,160,180,-190,180,450,100,M,Андрей Сафонов,SBD
No,Raw,DQ,Vladimir Syomochkin,Pro Open,1986,98.35,-235,-250,-250,,,,,,,,,,,,100,M,Владимир Сёмочкин,SBD
No,Raw,DQ,Roman Artamonov,Pro Open,1974,99.2,-210,-210,210,210,175,185,-190,185,,-225,-235,-235,,,100,M,Роман Артамонов,SBD
No,Raw,1,Marat Savosin,Pro Juniors 20-23,1990,108.7,225,240,-250,240,170,182.5,-190,182.5,,250,262.5,270,270,692.5,110,M,Марат Савосин,SBD
No,Raw,1,Vitaliy Bobrov,Pro Open,1981,105.3,290,310,-325,310,190,205,217.5,217.5,,290,310,337.5,337.5,865,110,M,Виталий Бобров,SBD
No,Raw,2,Denis Gromanov,Pro Open,1981,107.7,220,240,255,255,155,170,175,175,,-240,280,,280,710,110,M,Денис Громанов,SBD
No,Raw,DQ,Sergey Kuznetsov,Pro Masters 45-49,1965,100.5,180,-190,-190,180,-125,-125,-125,,,,,,,,110,M,Сергей Кузнецов,SBD
No,Raw,1,Oleg Skorobreschuk,Pro Open,1977,113,250,-265,265,265,160,175,182.5,182.5,,230,245,255,255,702.5,125,M,Олег Скоробрещук,SBD
No,Raw,1,Nikolai Chernov,Pro Masters 50-54,1961,115.6,200,220,240,240,150,165,-175,165,,220,240,260,260,665,125,M,Николай Чернов,SBD
No,Raw,1,Aleksandr Volkov,Pro Open,1975,126.2,280,290,300,300,180,190,200,200,,280,300,,300,800,140,M,Александр Волков,SBD
No,Raw,2,Andrey Glombotskiy,Pro Open,1976,128.4,250,265,275,275,150,165,-170,165,,290,-300,,290,730,140,M,Андрей Гломбоцкий,SBD
No,Single-ply,DQ,Aleksandr Rek,Pro Open,1987,67,210,222.5,-230,222.5,-125,-125,-125,,,,,,,,67.5,M,Александр Рек,SBD
No,Single-ply,1,Maksim Tovstonog,Pro Open,1983,70.9,180,-200,200,200,-155,155,160,160,,180,-210,-210,180,540,75,M,Максим Товстоног,SBD
No,Single-ply,2,Vadim Seleznev,Pro Open,1988,72.8,-120,120,-130,120,90,-100,-100,90,,120,130,135,135,345,75,M,Вадим Селезнев,SBD
No,Single-ply,DQ,Vladimir Beletskiy,Pro Open,1988,74.7,-270,-270,-270,,,,,,,,,,,,75,M,Владимир Белецкий,SBD
No,Single-ply,1,Roman Kiselev,Pro Teen 16-17,1995,81.6,240,260,-275,260,120,130,135,135,,200,220,232.5,232.5,627.5,82.5,M,Роман Киселев,SBD
No,Single-ply,1,Andrey Semunin,Pro Teen 16-17,1996,83.9,200,220,-235,220,110,120,125,125,,180,200,-212.5,200,545,90,M,Андрей Семунин,SBD
No,Single-ply,1,Valeriy Kozlovskiy,Pro Open,1982,90,250,265,272.5,272.5,190,200,207.5,207.5,,220,240,260,260,740,90,M,Валерий Козловский,SBD
No,Single-ply,1,Nikolay Bezuglov,Pro Open,1985,96.6,280,305,320,320,180,200,210,210,,280,310,330,330,860,100,M,Николай Безуглов,SBD
No,Single-ply,2,Aleksandr Nosov,Pro Open,1985,97,252.5,-265,-272.5,252.5,185,192.5,200,200,,252.5,270,-282.5,270,722.5,100,M,Александр Носов,SBD
No,Single-ply,1,Semen Salaev,Pro Open,1987,108.4,-270,270,280,280,195,-202.5,-202.5,195,,255,265,-290,265,740,110,M,Семен Салаев,SBD
No,Single-ply,2,Alexey Kurkov,Pro Open,1976,105,180,200,220,220,100,,,100,,-200,200,220,220,540,110,M,Алексей Курков,SBD
No,Multi-ply,1,Vasiliy Tsvetkov,Pro Open,1981,76.3,250,280,300,300,195,-205,-215,195,,240,260,,260,755,82.5,M,Василий Цветков,SBD
No,Multi-ply,DQ,Ilya Kokorev,Pro Open,1973,76.5,-310,-310,-310,,,,,,,,,,,,82.5,M,Илья Кокорев,SBD
No,Multi-ply,DQ,Vasiliy Voropaev,Pro Masters 55-59,1956,101.5,-235,-235,-235,,,,,,,,,,,,110,M,Василий Воропаев,SBD
No,Raw,DQ,Yuriy Egorchenkov,Pro Juniors 20-23,1992,48.9,,,,,-85,-95,-97.5,,,,,,,,52,M,Юрий Егорченков,B
No,Raw,1,Leonid Muravyev,Pro Teen 13-15,1998,67.3,,,,,77.5,83,85,85,,,,,,85,67.5,M,Леонид Муравьев,B
No,Raw,1,Andrei Zhilin,Pro Open,1980,67,,,,,120,125,127.5,127.5,,,,,,127.5,67.5,M,Андрей Жилин,B
No,Raw,2,Artem Vodolagin,Pro Open,1980,64.9,,,,,110,120,125,125,,,,,,125,67.5,M,Артем Водолагин,B
No,Raw,3,Aleksey Schipanov,Pro Open,1980,67.2,,,,,-120,122.5,-127.5,122.5,,,,,,122.5,67.5,M,Алексей Щипанов,B
No,Raw,1,Dmitriy Kazakov,Pro Juniors 20-23,1990,75,,,,,137.5,145,-150,145,,,,,,145,75,M,Дмитрий Казаков,B
No,Raw,1,Dmitriy Kukharenko,Pro Open,1969,74.5,,,,,160,,,160,,,,,,160,75,M,,B
No,Raw,2,Oleg Semenov,Pro Open,1972,72.6,,,,,140,145,-150,145,,,,,,145,75,M,Олег Семенов,B
No,Raw,3,Dmitriy Kazakov,Pro Open,1990,75,,,,,145,,,145,,,,,,145,75,M,Дмитрий Казаков,B
No,Raw,4,Nikolay Chuykov,Pro Open,1976,68.6,,,,,130,137.5,-140,137.5,,,,,,137.5,75,M,Николай Чуйков,B
No,Raw,1,Dmitriy Kukharenko,Pro Masters 40-44,1969,74.5,,,,,160,-165,-165,160,,,,,,160,75,M,,B
No,Raw,1,Nikolay Ionov,Pro Masters 60-64,1949,72.7,,,,,90,100,105,105,,,,,,105,75,M,Николай Ионов,B
No,Raw,1,Nikolay Pugovkin,Pro Teen 13-15,1998,80.5,,,,,100,102.5,-105,102.5,,,,,,102.5,82.5,M,Николай Пуговкин,B
No,Raw,1,Andrey Putyatin,Pro Juniors 20-23,1991,81.3,,,,,150,-160,-160,150,,,,,,150,82.5,M,Андрей Путятин,B
No,Raw,2,Aleksandr Tishunin,Pro Juniors 20-23,1989,77.8,,,,,110,120,-125,120,,,,,,120,82.5,M,Александр Тишунин,B
No,Raw,DQ,Askhat Abuzyarov,Pro Juniors 20-23,1992,81.5,,,,,-115,-125,-125,,,,,,,,82.5,M,Асхат Абузяров,B
No,Raw,1,Matvey Scherbinin,Pro Open,1979,81,,,,,-160,160,165,165,,,,,,165,82.5,M,Матвей Щербинин,B
No,Raw,2,Semen Lyubimskiy,Pro Open,1986,80.5,,,,,140,145,-150,145,,,,,,145,82.5,M,Семен Любимский,B
No,Raw,3,Mikhail Korolev,Pro Open,1977,81.1,,,,,135,140,145,145,,,,,,145,82.5,M,Михаил Королев,B
No,Raw,1,Aleksey Molochkov,Pro Masters 50-54,1962,81.8,,,,,-127.5,130,-135,130,,,,,,130,82.5,M,Алексей Молочков,B
No,Raw,1,Amir Khusnutdinov,Pro Masters 60-64,1948,81.7,,,,,120,130,,130,,,,,,130,82.5,M,Амир Хуснутдинов,B
No,Raw,1,Sergey Mitryashin,Pro Juniors 20-23,1989,87.5,,,,,180,190,,190,,,,,,190,90,M,Сергей Митряшин,B
No,Raw,2,Sergey Kuznetsov,Pro Juniors 20-23,1990,88.7,,,,,170,180,-182.5,180,,,,,,180,90,M,Сергей Кузнецов,B
No,Raw,3,Aleksandr Seropegin,Pro Juniors 20-23,1991,86.2,,,,,-157.5,157.5,-165,157.5,,,,,,157.5,90,M,Александр Серопегин,B
No,Raw,4,Dmitriy Zamuraev,Pro Juniors 20-23,1990,90,,,,,140,150,157.5,157.5,,,,,,157.5,90,M,Дмитрий Замураев,B
No,Raw,5,Linar Nugumanov,Pro Juniors 20-23,1990,87.7,,,,,130,140,-145,140,,,,,,140,90,M,Линар Нугуманов,B
No,Raw,1,Aleksey Blintsov,Pro Open,1980,85.1,,,,,192.5,202.5,-210,202.5,,,,,,202.5,90,M,Алексей Блинцов,B
No,Raw,2,Ruslan Mudrogelov,Pro Open,1983,89.2,,,,,-185,185,190,190,,,,,,190,90,M,,B
No,Raw,3,Aleksandr Belskikh,Pro Open,1987,84.7,,,,,175,182.5,187.5,187.5,,,,,,187.5,90,M,Александр Бельских,B
No,Raw,4,Viktor Gusev,Pro Open,1985,88.1,,,,,155,165,170,170,,,,,,170,90,M,Виктор Гусев,B
No,Raw,5,Denis Karamin,Pro Open,1982,87.3,,,,,160,-170,-180,160,,,,,,160,90,M,Денис Карамин,B
No,Raw,6,Maksim Yuyukin,Pro Open,1982,89.2,,,,,150,157.5,-160,157.5,,,,,,157.5,90,M,Максим Ююкин,B
No,Raw,7,Mikhail Tsarev,Pro Open,1988,86.1,,,,,120,140,-157.5,140,,,,,,140,90,M,Михаил Царев,B
No,Raw,8,Andrey Arkhipov,Pro Open,1979,86.7,,,,,-127.5,130,-140,130,,,,,,130,90,M,Андрей Архипов,B
No,Raw,DQ,Anton Dzhafyarov,Pro Open,1985,88.1,,,,,-170,-170,-170,,,,,,,,90,M,Антон Джафяров,B
No,Raw,1,Maksim Danilov,Pro Teen 18-19,1994,97.7,,,,,125,132.5,-137.5,132.5,,,,,,132.5,100,M,Максим Данилов,B
No,Raw,1,Vyacheslav Chelyshev,Pro Open,1987,95.2,,,,,180,-195,205,205,,,,,,205,100,M,Вячеслав Челышев,B
No,Raw,2,Oleg Nikolaev,Pro Juniors 20-23,1989,93,,,,,180,190,-200,190,,,,,,190,100,M,Олег Николаев,B
No,Raw,DQ,Andrey Negorodov,Pro Juniors 20-23,1989,98.4,,,,,-180,-195,-197.5,,,,,,,,100,M,Андрей Негородов,B
No,Raw,1,Evgeniy Abramov,Pro Open,1978,99.5,,,,,195,202.5,207.5,207.5,,,,,,207.5,100,M,Евгений Абрамов,B
No,Raw,2,Anton Bogdanov,Pro Open,1988,99.9,,,,,185,190,195,195,,,,,,195,100,M,Антон Богданов,B
No,Raw,3,Bogdan Loboda,Pro Open,1987,96.45,,,,,-180,190,-195,190,,,,,,190,100,M,Богдан Лобода,B
No,Raw,4,Dmitriy Obrazumov,Pro Open,1980,99.6,,,,,170,180,-190,180,,,,,,180,100,M,Дмитрий Образумов,B
No,Raw,5,Vyacheslav Tazetdinov,Pro Open,1987,98.7,,,,,170,175,-180,175,,,,,,175,100,M,Вячеслав Тазетдинов,B
No,Raw,6,Sergey Timchenko,Pro Open,1979,93.5,,,,,160,170,-180,170,,,,,,170,100,M,Сергей Тимченко,B
No,Raw,7,Sergey Seleznev,Pro Open,1983,94.9,,,,,150,165,,165,,,,,,165,100,M,Сергей Селезнев,B
No,Raw,8,Vladislav Kolesnikov,Pro Open,1984,97.55,,,,,-115,132.5,-147.5,132.5,,,,,,132.5,100,M,Владислав Колесников,B
No,Raw,1,Igor Shinov,Pro Masters 40-44,1970,97.7,,,,,170,175,-180,175,,,,,,175,100,M,Игорь Шинов,B
No,Raw,2,Aleksandr Fedorov,Pro Masters 40-44,1968,92.3,,,,,-165,165,-172.5,165,,,,,,165,100,M,Александр Федоров,B
No,Raw,3,Dmitriy Pozharskiy,Pro Masters 40-44,1968,97.5,,,,,165,-190,-190,165,,,,,,165,100,M,Дмитрий Пожарский,B
No,Raw,4,Sergey Vorobyev,Pro Masters 40-44,1970,98.3,,,,,160,165,-170,165,,,,,,165,100,M,Сергей Воробьев,B
No,Raw,1,Valeriy Razdorozhnyy,Pro Masters 45-49,1965,98.5,,,,,150,155,,155,,,,,,155,100,M,Валерий Раздорожный,B
No,Raw,DQ,Sergey Verzhanovskiy,Pro Masters 45-49,1967,97.95,,,,,-190,-190,,,,,,,,,100,M,Сергей Вержановский,B
No,Raw,1,Alexander Petrov,Pro Masters 50-54,1960,92,,,,,190,200,205,205,,,,,,205,100,M,Александр Петров,B
No,Raw,1,Mikhail Prokopov,Pro Masters 55-59,1956,97.6,,,,,150,-160,-160,150,,,,,,150,100,M,Михаил Прокопов,B
No,Raw,1,Marat Savosin,Pro Juniors 20-23,1990,108.7,,,,,170,185,190,190,,,,,,190,110,M,Марат Савосин,B
No,Raw,1,Oleksiy Solovyov,Pro Open,1975,104.1,,,,,-225,-225,225,225,,,,,,225,110,M,Олексій Соловйов,B
No,Raw,2,Ruslan Pustovoy,Pro Open,1979,109.8,,,,,200,210,-217.5,210,,,,,,210,110,M,Руслан Пустовой,B
No,Raw,3,Dmitriy Bubnov,Pro Open,1973,110,,,,,195,205,-220,205,,,,,,205,110,M,Дмитрий Бубнов,B
No,Raw,4,Oleg Morozov,Pro Open,1987,105.4,,,,,175,182.5,-185,182.5,,,,,,182.5,110,M,Олег Морозов,B
No,Raw,1,Vadim Shamkov,Pro Masters 45-49,1967,108.7,,,,,165,-170,-170,165,,,,,,165,110,M,Вадим Шамков,B
No,Raw,1,Sergey Molchanov,Pro Open,1973,121.1,,,,,242.5,250,,250,,,,,,250,125,M,Сергей Молчанов,B
No,Raw,2,Aleksey Karpikov,Pro Open,1979,117.3,,,,,225,235,-240,235,,,,,,235,125,M,Алексей Карпиков,B
No,Raw,3,Evgeniy Spirkin,Pro Open,1987,115,,,,,200,207.5,-210,207.5,,,,,,207.5,125,M,Евгений Спиркин,B
No,Raw,4,Nikita Anisimov,Pro Open,1988,116.9,,,,,195,200,-205,200,,,,,,200,125,M,Никита Анисимов,B
No,Raw,5,Stanislav Zakharov,Pro Open,1985,117.7,,,,,190,-207.5,-207.5,190,,,,,,190,125,M,Станислав Захаров,B
No,Raw,6,Aleksey Chernykh,Pro Open,1981,111.2,,,,,172.5,182.5,-185,182.5,,,,,,182.5,125,M,Алексей Черных,B
No,Raw,7,Arseniy Niazashvili,Pro Open,1970,118.3,,,,,170,180,-182.5,180,,,,,,180,125,M,Арсений Ниазашвили,B
No,Raw,1,Mikhail Nikolaev,Pro Masters 50-54,1961,124.85,,,,,200,210,215,215,,,,,,215,125,M,Михаил Николаев,B
No,Raw,1,Murad Alibegov,Pro Open,1977,125.7,,,,,245,260,-265,260,,,,,,260,140,M,Мурад Алибегов,B
No,Raw,2,Dmitriy Kuleshov,Pro Open,1977,126.2,,,,,190,200,205,205,,,,,,205,140,M,Дмитрий Кулешов,B
No,Raw,1,Irina Yaroshenko,Pro Open,1986,103,,,,,,,,,,195,210,222.5,222.5,222.5,90+,F,Ирина Ярошенко,D
No,Raw,1,Igor Maksimov,Pro Juniors 20-23,1992,62.7,,,,,,,,,,-175,180,-197.5,180,180,67.5,M,Игорь Максимов,D
No,Raw,1,Georgiy Bondar,Pro Open,1982,72.1,,,,,,,,,,130,137.5,150,150,150,75,M,Георгий Бондарь,D
No,Raw,1,Nikolay Dokuchaev,Pro Juniors 20-23,1992,78.7,,,,,,,,,,210,-222.5,-222.5,210,210,82.5,M,Николай Докучаев,D
No,Raw,2,Mikhail Charov,Pro Juniors 20-23,1989,78.4,,,,,,,,,,192.5,-200,200,200,200,82.5,M,Михаил Чаров,D
No,Raw,1,Aleksey Nikulin,Pro Open,1982,82,,,,,,,,,,260,280,300,300,300,82.5,M,Алексей Никулин,D
No,Raw,1,Nikolay Kotlyarov,Pro Juniors 20-23,1990,88.9,,,,,,,,,,215,-235,235,235,235,90,M,Николай Котляров,D
No,Raw,1,Aleksey Koshuba,Pro Open,1980,87.4,,,,,,,,,,250,265,-270,265,265,90,M,Алексей Кошуба,D
No,Raw,2,Viktor Gusev,Pro Open,1985,88.1,,,,,,,,,,220,230,-265,230,230,90,M,Виктор Гусев,D
No,Raw,1,Maksim Danilov,Pro Teen 18-19,1994,97.7,,,,,,,,,,-160,165,175,175,175,100,M,Максим Данилов,D
No,Raw,1,Aleksandr Lokhadynov,Pro Juniors 20-23,1992,94.65,,,,,,,,,,230,-240,-240,230,230,100,M,Александр Лохадынов,D
No,Raw,1,Aleksey Gorbonosov,Pro Open,1985,99.9,,,,,,,,,,280,290,,290,290,100,M,Алексей Горбоносов,D
No,Raw,2,Aleksey Smirnov,Pro Open,1977,99.3,,,,,,,,,,250,265,-277.5,265,265,100,M,Алексей Смирнов,D
No,Raw,3,Aleksey Melnikov,Pro Open,1987,92.2,,,,,,,,,,195,215,-240,215,215,100,M,Алексей Мельников,D
No,Raw,DQ,Nikolay Bezuglov,Pro Open,1985,96.6,,,,,,,,,,,,,,,100,M,Николай Безуглов,D
No,Raw,1,Pavel Papenkov,Pro Open,1980,101.2,,,,,,,,,,-255,-255,255,255,255,110,M,Павел Папенков,D
No,Raw,2,Andrey Prokofyev,Pro Open,1986,103,,,,,,,,,,250,-260,,250,250,110,M,Андрей Прокофьев,D
No,Raw,1,Aleksey Bareyshin,Pro Open,1981,112.8,,,,,,,,,,280,295,-310,295,295,125,M,Алексей Барейшин,D
No,Raw,1,Oleg Livshits,Pro Open,1973,128.2,,,,,,,,,,330,350,-360,350,350,140,M,Олег Лившиц,D
No,Single-ply,1,Aleksey Schipanov,Pro Open,1980,67.2,,,,,125,130,-135,130,,,,,,130,67.5,M,Алексей Щипанов,B
No,Single-ply,1,Andrey Zakharov,Pro Teen 18-19,1992,79.9,,,,,160,-170,175,175,,,,,,175,82.5,M,Андрей Захаров,B
No,Single-ply,1,Artur Nigmatullin,Pro Teen 18-19,1994,93.7,,,,,200,215,230,230,,,,,,230,100,M,Артур Нигматуллин,B
No,Single-ply,1,Marat Abdullin,Pro Open,1985,98.3,,,,,277.5,282.5,-295,282.5,,,,,,282.5,100,M,Марат Абдуллин,B
No,Single-ply,2,Evgeniy Gornostaev,Pro Open,1979,99.4,,,,,215,-225,-225,215,,,,,,215,100,M,Евгений Горностаев,B
No,Single-ply,3,Oleg Loktionov,Pro Open,1977,95.4,,,,,170,190,200,200,,,,,,200,100,M,Олег Локтионов,B
No,Single-ply,1,Maksim Tsukanov,Pro Open,1980,131.65,,,,,245,252.5,-260,252.5,,,,,,252.5,140,M,Максим Цуканов,B
No,Multi-ply,1,Aleksandr Fedorov,Pro Open,1976,66.9,,,,,150,-161,,150,,,,,,150,67.5,M,Александр Федоров,B
No,Multi-ply,DQ,Aleksandr Davydtsev,Pro Open,1987,69.2,,,,,-180,-180,-180,,,,,,,,75,M,Александр Давыдцев,B
No,Multi-ply,1,Ilya Kokorev,Pro Open,1973,76.3,,,,,215,225,235,235,,,,,,235,82.5,M,Илья Кокорев,B
No,Multi-ply,1,Mikhail Royanov,Pro Open,1977,100,,,,,210,-220,-220,210,,,,,,210,100,M,Михаил Роянов,B
No,Multi-ply,1,Mikhail Tsatsulin,Pro Open,1988,108.8,,,,,250,-262.5,-265,250,,,,,,250,110,M,Михаил Цацулин,B
No,Single-ply,1,Roman Kiselev,Pro Teen 16-17,1995,81.6,,,,,,,,,,200,210,217.5,217.5,217.5,82.5,M,Роман Киселев,D
No,Single-ply,1,Andrey Semunin,Pro Teen 16-17,1996,89.9,,,,,,,,,,180,185,,185,185,90,M,Андрей Семунин,D
No,Single-ply,DQ,Nikolay Bezuglov,Pro Open,1985,96.6,,,,,,,,,,-300,,,,,100,M,Николай Безуглов,D
No,Single-ply,1,Ruslan Pustovoy,Pro Open,1979,109.8,,,,,,,,,,260,290,-310,290,290,110,M,Руслан Пустовой,D
No,Single-ply,2,Alexey Kurkov,Pro Open,1976,105,,,,,,,,,,215,,,215,215,110,M,Алексей Курков,D
Yes,Raw,1,Natalya Klementyeva,Amateur Open,1980,47.7,,,,,40,45,47.5,47.5,,,,,,47.5,48,F,Наталья Клементьева,B
Yes,Raw,DQ,Evgeniya Svischeva,Amateur Open,1977,47.4,,,,,-30,-35,-35,,,,,,,,48,F,Евгения Свищева,B
Yes,Raw,1,Ekaterina Ilinskaya,Amateur Juniors 20-23,1988,55.3,,,,,55,-57.5,-57.5,55,,,,,,55,56,F,Екатерина Ильинская,B
Yes,Raw,2,Anastasiya Scherenko,Amateur Juniors 20-23,1989,52.75,,,,,40,47.5,50,50,,,,,,50,56,F,Анастасия Щеренко,B
Yes,Raw,1,Nadezhda Vlasova,Amateur Open,1982,55.5,,,,,70,75,-77.5,75,,,,,,75,56,F,Надежда Власова,B
Yes,Raw,2,Marina Gorikova,Amateur Open,1983,53.7,,,,,52.5,-55,57.5,57.5,,,,,,57.5,56,F,Марина Горикова,B
Yes,Raw,3,Lyubov Kultygina,Amateur Open,1977,53.9,,,,,-47.5,50,52.5,52.5,,,,,,52.5,56,F,Любовь Култыгина,B
Yes,Raw,4,Raisa Sharueva,Amateur Open,1983,55.3,,,,,50,-55,-55,50,,,,,,50,56,F,Раиса Шаруева,B
Yes,Raw,5,Alena Dobryakova,Amateur Open,1975,53.3,,,,,37.5,42.5,47.5,47.5,,,,,,47.5,56,F,Алена Добрякова,B
Yes,Raw,1,Polina Biryukova,Amateur Teen 16-17,1996,59.1,,,,,47.5,50,52.5,52.5,,,,,,52.5,60,F,Полина Бирюкова,B
Yes,Raw,1,Olga Timoschenko,Amateur Open,1985,60,,,,,55,60,-62.5,60,,,,,,60,60,F,Ольга Тимощенко,B
Yes,Raw,1,Ekaterina Dyachkova,Amateur Open,,65.4,,,,,67.5,-75,-75,67.5,,,,,,67.5,67.5,F,Екатерина Дъячкова,B
Yes,Raw,2,Elena Dneprovskaya,Amateur Open,1982,65.2,,,,,40,-45,-45,40,,,,,,40,67.5,F,Елена Днепровская,B
Yes,Raw,DQ,Marina Derbeneva,Amateur Open,1984,65.6,,,,,-40,-45,-45,,,,,,,,67.5,F,Марина Дербенева,B
Yes,Raw,1,Anna Nikolenko,Amateur Masters 40-44,1970,65.7,,,,,57.5,62.5,-65,62.5,,,,,,62.5,67.5,F,Анна Николенко,B
Yes,Raw,1,Olga Starostina,Amateur Masters 55-59,1955,67.3,,,,,25,27.5,30,30,,,,,,30,67.5,F,Ольга Старостина,B
Yes,Raw,1,Anastasiya Kovriga,Amateur Teen 18-19,1993,73.6,,,,,80,85,87.5,87.5,,,,,,87.5,75,F,Анастасия Коврига,B
Yes,Raw,1,Ekaterina Isaulova,Amateur Open,1988,72.2,,,,,60,67.5,72.5,72.5,,,,,,72.5,75,F,Екатерина Исаулова,B
Yes,Raw,2,Svetlana Sotnikova,Amateur Open,1983,74.5,,,,,70,-75,-75,70,,,,,,70,75,F,Светлана Сотникова,B
Yes,Raw,3,Elena Galkina,Amateur Open,1978,72.4,,,,,65,-67.5,67.5,67.5,,,,,,67.5,75,F,Елена Галкина,B
Yes,Raw,1,Nadezhda Zhilkina,Amateur Masters 40-44,1969,71.9,,,,,60,67.5,-70,67.5,,,,,,67.5,75,F,Надежда Жилкина,B
Yes,Raw,1,Yustina Boryu,Amateur Open,1987,78.6,,,,,60,62.5,-67.5,62.5,,,,,,62.5,82.5,F,Юстина Борю,B
Yes,Raw,1,Lyudmila Chashkina,Amateur Masters 40-44,1968,77.7,,,,,-40,42.5,-45,42.5,,,,,,42.5,82.5,F,Людмила Чашкина,B
Yes,Raw,1,Lyudmila Frantsuzova,Amateur Masters 60-64,1952,111.2,,,,,40,45,47.5,47.5,,,,,,47.5,90+,F,Людмила Французова,B
Yes,Raw,1,Aleksandr Alekseev,Amateur Teen 16-17,1996,49.8,,,,,55,67.5,-72.5,67.5,,,,,,67.5,52,M,Александр Алексеев,B
Yes,Raw,2,Roman Bokov,Amateur Teen 16-17,1995,43.2,,,,,47.5,50,52.5,52.5,,,,,,52.5,52,M,Роман Боков,B
Yes,Raw,DQ,Abbos Bekov,Amateur Teen 18-19,1993,50.2,,,,,-80,-80,-82.5,,,,,,,,52,M,Аббос Беков,B
Yes,Raw,1,Aleksandr Lantukh,Amateur Teen 16-17,1996,60,,,,,70,75,77.5,77.5,,,,,,77.5,60,M,Александр Лантух,B
Yes,Raw,1,Dias Dzhelilov,Amateur Teen 18-19,1993,57.5,,,,,87.5,97.5,-105,97.5,,,,,,97.5,60,M,Диас Джелилов,B
Yes,Raw,2,Vyacheslav Aleshnovskiy,Amateur Teen 18-19,1994,60,,,,,-77.5,87.5,97.5,97.5,,,,,,97.5,60,M,Вячеслав Алешновский,B
Yes,Raw,1,Konstantin Umnov,Amateur Juniors 20-23,1990,59.1,,,,,77.5,87.5,-97.5,87.5,,,,,,87.5,60,M,Константин Умнов,B
Yes,Raw,1,Andrey Kuprikov,Amateur Open,1987,58.1,,,,,100,105,107.5,107.5,,,,,,107.5,60,M,Андрей Куприков,B
Yes,Raw,1,Denis Monto,Amateur Teen 16-17,1995,61.5,,,,,90,107.5,110,110,,,,,,110,67.5,M,Денис Монто,B
Yes,Raw,1,Denis Simanovskiy,Amateur Teen 18-19,1993,65.9,,,,,120,125,132.5,132.5,-135,,,,,132.5,67.5,M,Денис Симановский,B
Yes,Raw,2,Aleksandr Dyakov,Amateur Teen 18-19,1994,65.7,,,,,-107.5,110,120,120,,,,,,120,67.5,M,Александр Дьяков,B
Yes,Raw,3,Timur Abrosimov,Amateur Teen 18-19,1993,65.5,,,,,97.5,107.5,110,110,,,,,,110,67.5,M,Тимур Абросимов,B
Yes,Raw,DQ,Mikhail Bezin,Amateur Teen 18-19,1993,66.3,,,,,-125,-130,-130,,,,,,,,67.5,M,Михаил Безин,B
Yes,Raw,DQ,Aleksandr Dzhusoev,Amateur Teen 18-19,1994,66.6,,,,,-110,-125,-125,,,,,,,,67.5,M,Александр Джусоев,B
Yes,Raw,1,Aleksey Gritsan,Amateur Juniors 20-23,1992,63.9,,,,,107.5,110,115,115,,,,,,115,67.5,M,Алексей Грицан,B
Yes,Raw,2,Evgeniy Esakov,Amateur Juniors 20-23,1988,67.5,,,,,75,-87.5,-87.5,75,,,,,,75,67.5,M,Евгений Есаков,B
Yes,Raw,1,Artem Tserunyan,Amateur Open,1984,67.1,,,,,125,130,132.5,132.5,,,,,,132.5,67.5,M,Артем Церунян,B
Yes,Raw,2,Sergey Perevalov,Amateur Open,1981,65.4,,,,,130,-135,-135,130,,,,,,130,67.5,M,Сергей Перевалов,B
Yes,Raw,3,Pavel Mironov,Amateur Open,1988,67.5,,,,,130,,,130,,,,,,130,67.5,M,Павел Миронов,B
Yes,Raw,4,Nikita Samokhvalov,Amateur Open,1988,61.3,,,,,122.5,-130,-130,122.5,,,,,,122.5,67.5,M,Никита Самохвалов,B
Yes,Raw,5,Roman Dubinkin,Amateur Open,1987,66.3,,,,,107.5,112.5,115,115,,,,,,115,67.5,M,Роман Дубинкин,B
Yes,Raw,6,Vladimir Alekseev,Amateur Open,1992,65.6,,,,,102.5,-105,-107.5,102.5,,,,,,102.5,67.5,M,,B
Yes,Raw,7,Nikolay Prokaev,Amateur Open,1987,63.2,,,,,-100,-100,100,100,,,,,,100,67.5,M,Николай Прокаев,B
Yes,Raw,1,Arseniy Fedorov,Amateur Teen 13-15,1997,71.2,,,,,90,100,-102.5,100,,,,,,100,75,M,Арсений Федоров,B
Yes,Raw,1,Nikolay Shushkevich,Amateur Teen 16-17,1996,73.9,,,,,120,127.5,-130,127.5,,,,,,127.5,75,M,Николай Шушкевич,B
Yes,Raw,2,Yuriy Kvasnikov,Amateur Teen 16-17,1995,71.2,,,,,77.5,-82.5,82.5,82.5,,,,,,82.5,75,M,Юрий Квасников,B
Yes,Raw,1,Vladimir Yushin,Amateur Teen 18-19,1993,69.95,,,,,100,105,-110,105,,,,,,105,75,M,Владимир Юшин,B
Yes,Raw,2,Sergey Gavrilchenko,Amateur Teen 18-19,1992,72.7,,,,,100,105,-110,105,,,,,,105,75,M,Сергей Гаврильченко,B
Yes,Raw,3,Andrey Muravyev,Amateur Teen 18-19,1994,73.1,,,,,-105,105,-117.5,105,,,,,,105,75,M,Андрей Муравьев,B
Yes,Raw,1,Grigoriy Enokyan,Amateur Juniors 20-23,1991,74.4,,,,,120,135,140,140,,,,,,140,75,M,Григорий Енокян,B
Yes,Raw,2,Konstantin Alekseychuk,Amateur Juniors 20-23,1988,71.7,,,,,117.5,-120,-120,117.5,,,,,,117.5,75,M,Константин Алексейчук,B
Yes,Raw,3,Dmitriy Skalaba,Amateur Juniors 20-23,1992,73.1,,,,,117.5,-120,-120,117.5,,,,,,117.5,75,M,Дмитрий Скалаба,B
Yes,Raw,4,Egor Lintvarev,Amateur Juniors 20-23,1990,73.5,,,,,117.5,,,117.5,,,,,,117.5,75,M,Егор Линтварев,B
Yes,Raw,5,Maksim Kozin,Amateur Juniors 20-23,1992,74.6,,,,,-107.5,107.5,-117.5,107.5,,,,,,107.5,75,M,Максим Козин,B
Yes,Raw,DQ,Ilya Strakh,Amateur Juniors 20-23,1991,74.3,,,,,-105,-105,-105,,,,,,,,75,M,Илья Страх,B
Yes,Raw,DQ,Aleksandr Sulgin,Amateur Juniors 20-23,1989,74.8,,,,,-117.5,,,,,,,,,,75,M,Александр Сулгин,B
Yes,Raw,1,Stanislav Milostnoy,Amateur Open,1978,74.1,,,,,190,197.5,200,200,,,,,,200,75,M,Станислав Милостной,B
Yes,Raw,2,Andrey Petrov,Amateur Open,1979,73.8,,,,,145,-150,-150,145,,,,,,145,75,M,Андрей Петров,B
Yes,Raw,3,Vadim Sakharnyuk,Amateur Open,1981,73.5,,,,,135,137.5,140,140,,,,,,140,75,M,Вадим Сахарнюк,B
Yes,Raw,4,Vyacheslav Vertev,Amateur Open,1984,72.7,,,,,125,-135,135,135,,,,,,135,75,M,Вячеслав Вертев,B
Yes,Raw,5,Aleksandr Ostrovskiy,Amateur Open,1982,72.8,,,,,125,-130,135,135,,,,,,135,75,M,Александр Островский,B
Yes,Raw,6,Aleksandr Kravchunov,Amateur Open,1973,74.4,,,,,125,135,-140,135,,,,,,135,75,M,Александр Кравчунов,B
Yes,Raw,7,Aleksey Yushin,Amateur Open,1982,71.3,,,,,127.5,-135,-135,127.5,,,,,,127.5,75,M,Алексей Юшин,B
Yes,Raw,8,Aleksey Falin,Amateur Open,1979,71.7,,,,,117.5,125,-135,125,,,,,,125,75,M,Алексей Фалин,B
Yes,Raw,9,Dmitriy Rubichev,Amateur Open,1973,73.2,,,,,-125,-125,125,125,,,,,,125,75,M,Дмитрий Рубичев,B
Yes,Raw,10,Roman Lisin,Amateur Open,1987,73.3,,,,,125,-140,-140,125,,,,,,125,75,M,Роман Лисин,B
Yes,Raw,11,Aleksandr Suyagin,Amateur Open,1989,74.8,,,,,117.5,125,-135,125,,,,,,125,75,M,Александр Суягин,B
Yes,Raw,12,Stanislav Bondar,Amateur Open,1987,72.4,,,,,117.5,120,-122.5,120,,,,,,120,75,M,Станислав Бондарь,B
Yes,Raw,13,Vladimir Zhaglin,Amateur Open,1986,74.2,,,,,100,120,-135,120,,,,,,120,75,M,Владимир Жаглин,B
Yes,Raw,14,Ruslan Kurilekh,Amateur Open,1983,74.4,,,,,117.5,120,-122.5,120,,,,,,120,75,M,Руслан Курилех,B
Yes,Raw,15,Aleksey Volodin,Amateur Open,1986,71.4,,,,,100,107.5,110,110,,,,,,110,75,M,Алексей Володин,B
Yes,Raw,16,Kirill Yushin,Amateur Open,1986,71.6,,,,,100,-105,107.5,107.5,,,,,,107.5,75,M,Кирилл Юшин,B
Yes,Raw,17,Pavel Zubkov,Amateur Open,1985,73,,,,,105,-117.5,-117.5,105,,,,,,105,75,M,Павел Зубков,B
Yes,Raw,18,Anton Chepkasov,Amateur Open,1983,72.5,,,,,100,-105,-105,100,,,,,,100,75,M,Антон Чепкасов,B
Yes,Raw,19,Igor Schepkin,Amateur Open,1988,69.3,,,,,82.5,95,-105,95,,,,,,95,75,M,Игорь Щепкин,B
Yes,Raw,20,Evgeniy Sokolskikh,Amateur Open,1993,73.5,,,,,-90,95,-105,95,,,,,,95,75,M,Евгений Сокольских,B
Yes,Raw,21,Vladislav Shaparenko,Amateur Open,1987,68.4,,,,,90,-100,-100,90,,,,,,90,75,M,Владислав Шапаренко,B
Yes,Raw,DQ,Sergey Gornev,Amateur Open,1984,70.7,,,,,-117.5,-117.5,-117.5,,,,,,,,75,M,Сергей Горнев,B
Yes,Raw,DQ,Sergey Kuznetsov,Amateur Open,1987,72.4,,,,,-100,-117.5,-117.5,,,,,,,,75,M,Сергей Кузнецов,B
Yes,Raw,DQ,Aleksey Borodin,Amateur Open,1988,72.4,,,,,-135,-135,-135,,,,,,,,75,M,Алексей Бородин,B
Yes,Raw,DQ,Semen Shalaev,Amateur Open,1989,73.1,,,,,-110,-110,-110,,,,,,,,75,M,Семен Шалаев,B
Yes,Raw,1,Vladimir Kornishin,Amateur Masters 60-64,1952,75,,,,,112.5,-117.5,-117.5,112.5,,,,,,112.5,75,M,Владимир Корнишин,B
Yes,Raw,DQ,Dmitriy Zhurukov,Amateur Teen 13-15,1998,82.1,,,,,-70,-70,-70,,,,,,,,82.5,M,Дмитрий Журуков,B
Yes,Raw,DQ,Artem Zaytsev #3,Amateur Teen 16-17,1995,78.65,,,,,-80,-80,-80,,,,,,,,82.5,M,Артем Зайцев,B
Yes,Raw,1,Valentin Nor,Amateur Teen 18-19,1993,80.8,,,,,-130,135,-140,135,,,,,,135,82.5,M,Валентин Нор,B
Yes,Raw,2,Denis Pryadko,Amateur Teen 18-19,1992,82.5,,,,,-122.5,122.5,127.5,127.5,,,,,,127.5,82.5,M,Денис Прядко,B
Yes,Raw,3,Kirill Sukharev,Amateur Teen 18-19,1993,79.3,,,,,115,122.5,-127.5,122.5,,,,,,122.5,82.5,M,Кирилл Сухарев,B
Yes,Raw,1,Dmitriy Pavlov,Amateur Juniors 20-23,1991,80.8,,,,,145,-150,-150,145,,,,,,145,82.5,M,Дмитрий Павлов,B
Yes,Raw,2,Ivan Grigoryev,Amateur Juniors 20-23,1990,80.1,,,,,120,127.5,135,135,,,,,,135,82.5,M,Иван Григорьев,B
Yes,Raw,3,Stanislav Mikhalchev,Amateur Juniors 20-23,1991,82.5,,,,,112.5,127.5,135,135,,,,,,135,82.5,M,Станислав Михальчев,B
Yes,Raw,4,Andrey Usov,Amateur Juniors 20-23,1991,79.1,,,,,130,-145,-145,130,,,,,,130,82.5,M,Андрей Усов,B
Yes,Raw,5,Roman Savitskiy #2,Amateur Juniors 20-23,1989,80,,,,,130,-135,-135,130,,,,,,130,82.5,M,Роман Савицький,B
Yes,Raw,6,Evgeniy Solovyev,Amateur Juniors 20-23,1988,81.3,,,,,-122.5,122.5,127.5,127.5,,,,,,127.5,82.5,M,Евгений Соловьев,B
Yes,Raw,7,Ilya Shumkin,Amateur Juniors 20-23,1990,79.4,,,,,-110,110,-120,110,,,,,,110,82.5,M,Илья Шумкин,B
Yes,Raw,DQ,Aleksandr Dormidontov,Amateur Juniors 20-23,1989,77.8,,,,,-102.5,-102.5,-102.5,,,,,,,,82.5,M,Александр Дормидонтов,B
Yes,Raw,DQ,Andrey Bolshov,Amateur Juniors 20-23,1991,79.8,,,,,-125,-127.5,-127.5,,,,,,,,82.5,M,Андрей Большов,B
Yes,Raw,DQ,Aleksey Frolov,Amateur Juniors 20-23,1991,82.1,,,,,-112.5,-112.5,-112.5,,,,,,,,82.5,M,Алексей Фролов,B
Yes,Raw,DD,Dimitri Karslyan,Amateur Juniors 20-23,1992,80.2,,,,,110,-120,-130,110,,,,,,,82.5,M,Димитри Карслян,B
Yes,Raw,1,Vladimir Schegolkov,Amateur Open,1973,81.8,,,,,165,167.5,-172.5,167.5,,,,,,167.5,82.5,M,Владимир Щегольков,B
Yes,Raw,2,Eduard Sotnikov,Amateur Open,1967,81.6,,,,,150,155,-157.5,155,,,,,,155,82.5,M,Эдуард Сотников,B
Yes,Raw,3,Vasiliy Maksimenkov,Amateur Open,1982,80.5,,,,,130,145,150,150,,,,,,150,82.5,M,Василий Максименков,B
Yes,Raw,4,Mikhail Kulikov,Amateur Open,1987,81.2,,,,,130,140,145,145,,,,,,145,82.5,M,Михаил Куликов,B
Yes,Raw,5,Sergey Birin,Amateur Open,1987,82.4,,,,,120,135,145,145,,,,,,145,82.5,M,Сергей Бирин,B
Yes,Raw,6,Konstantin Sapunkov,Amateur Open,1981,82.5,,,,,142.5,-152.5,-152.5,142.5,,,,,,142.5,82.5,M,Константин Сапунков,B
Yes,Raw,7,Evgeniy Dubonos,Amateur Open,1988,78.5,,,,,-135,135,-145,135,,,,,,135,82.5,M,Евгений Дубонос,B
Yes,Raw,8,Lev Pozdnyakov,Amateur Open,1989,80.3,,,,,127.5,135,-140,135,,,,,,135,82.5,M,Лев Поздняков,B
Yes,Raw,9,Maksim Beletskiy,Amateur Open,1976,81.2,,,,,120,127.5,132.5,132.5,,,,,,132.5,82.5,M,Максим Белецкий,B
Yes,Raw,10,Vladimir Belikov,Amateur Open,1984,78.5,,,,,-130,130,-137.5,130,,,,,,130,82.5,M,Владимир Беликов,B
Yes,Raw,11,Artem Samundzhyan,Amateur Open,1991,79.5,,,,,120,130,-140,130,,,,,,130,82.5,M,Артем Самунджян,B
Yes,Raw,12,Viktor Volodin,Amateur Open,1987,79.1,,,,,115,127.5,-130,127.5,,,,,,127.5,82.5,M,Виктор Володин,B
Yes,Raw,13,Sergey Komkov,Amateur Open,1987,82.5,,,,,127.5,-130,-130,127.5,,,,,,127.5,82.5,M,Сергей Комков,B
Yes,Raw,14,Denis Shubin,Amateur Open,1979,78.5,,,,,112.5,-117.5,,112.5,,,,,,112.5,82.5,M,Денис Шубин,B
Yes,Raw,15,Konstantin Alifanov,Amateur Open,1975,77.1,,,,,87.5,95,-102.5,95,,,,,,95,82.5,M,Константин Алифанов,B
Yes,Raw,DQ,Marat Alzhanov,Amateur Open,1986,78.5,,,,,-80,-90,-90,,,,,,,,82.5,M,,B
Yes,Raw,1,Roman Gorshkov,Amateur Masters 40-44,1970,82.4,,,,,95,100,107.5,107.5,,,,,,107.5,82.5,M,Роман Горшков,B
Yes,Raw,DQ,Sergey Ryazanov,Amateur Masters 40-44,1972,81.3,,,,,-127.5,-127.5,,,,,,,,,82.5,M,Сергей Рязанов,B
Yes,Raw,1,Vladimir Kulakov,Amateur Masters 55-59,1955,77.5,,,,,90,95,,95,,,,,,95,82.5,M,Владимир Кулаков,B
Yes,Raw,1,Evgeniy Zhurkin,Amateur Masters 65-69,1945,80.9,,,,,80,85,87.5,87.5,,,,,,87.5,82.5,M,Евгений Журкин,B
Yes,Raw,DQ,Ivan Voronov,Amateur Teen 16-17,1995,88.8,,,,,-110,-120,-120,,,,,,,,90,M,Иван Воронов,B
Yes,Raw,1,Murad Kyazymov,Amateur Teen 18-19,1993,89.9,,,,,130,137.5,140,140,,,,,,140,90,M,Мурад Кязымов,B
Yes,Raw,DQ,Yaroslav Khvatov,Amateur Teen 18-19,1994,88.7,,,,,-125,-125,-125,,,,,,,,90,M,Ярослав Хватов,B
Yes,Raw,1,Aleksandr Komarov,Amateur Juniors 20-23,1991,87.7,,,,,145,152.5,155,155,,,,,,155,90,M,Александр Комаров,B
Yes,Raw,2,Ivan Savelyev,Amateur Juniors 20-23,1988,89.8,,,,,-145,150,-155,150,,,,,,150,90,M,Иван Савельев,B
Yes,Raw,3,Vladimir Shevchuk,Amateur Juniors 20-23,1991,84,,,,,130,-132.5,132.5,132.5,,,,,,132.5,90,M,Владимир Шевчук,B
Yes,Raw,4,Vladislav Krestyaninov,Amateur Juniors 20-23,1991,84.1,,,,,-125,132.5,-140,132.5,,,,,,132.5,90,M,Владислав Крестьянинов,B
Yes,Raw,5,Konstantin Kozlov,Amateur Juniors 20-23,1990,90,,,,,115,122.5,-127.5,122.5,,,,,,122.5,90,M,Константин Козлов,B
Yes,Raw,DQ,Kirill Nikitin,Amateur Juniors 20-23,1992,87.4,,,,,-97.5,-97.5,,,,,,,,,90,M,Кирилл Никитин,B
Yes,Raw,DD,Daniil Gromov,Amateur Juniors 20-23,1990,87.6,,,,,122.5,-127.5,-127.5,122.5,,,,,,,90,M,Даниил Громов,B
Yes,Raw,1,Andrey Grigoryev,Amateur Open,1975,89.4,,,,,172.5,-177.5,177.5,177.5,,,,,,177.5,90,M,Андрей Григорьев,B
Yes,Raw,2,Dmitriy Leontyev,Amateur Open,1981,87.9,,,,,147.5,-152.5,152.5,152.5,,,,,,152.5,90,M,Дмитрий Леонтьев,B
Yes,Raw,3,Georgiy Gatitskiy,Amateur Open,1982,88.9,,,,,140,152.5,-155,152.5,,,,,,152.5,90,M,Георгий Гатицкий,B
Yes,Raw,4,Aleksey Pustovoytov,Amateur Open,1984,89.9,,,,,140,147.5,152.5,152.5,,,,,,152.5,90,M,Алексей Пустовойтов,B
Yes,Raw,5,Ivan Vikhorev,Amateur Open,1988,89.9,,,,,152.5,-162.5,-162.5,152.5,,,,,,152.5,90,M,Иван Вихорев,B
Yes,Raw,6,Dimitriy Alekhin,Amateur Open,1977,87.2,,,,,145,-152.5,,145,,,,,,145,90,M,Димитрий Алехин,B
Yes,Raw,7,Igor Murashevskiy,Amateur Open,1980,89.1,,,,,140,145,-150,145,,,,,,145,90,M,Игорь Мурашевский,B
Yes,Raw,8,Sayan Dambarov,Amateur Open,1980,88.8,,,,,132.5,142.5,-152.5,142.5,,,,,,142.5,90,M,Саян Дамбаров,B
Yes,Raw,9,Denis Davydov,Amateur Open,1982,88.95,,,,,-132.5,-142.5,142.5,142.5,,,,,,142.5,90,M,Денис Давыдов,B
Yes,Raw,10,Yan Zhurkin,Amateur Open,1985,89.9,,,,,135,140,-145,140,,,,,,140,90,M,Ян Журкин,B
Yes,Raw,11,Ivan Teplyy,Amateur Open,1988,89.9,,,,,132.5,137.5,-140,137.5,,,,,,137.5,90,M,Иван Теплый,B
Yes,Raw,12,Stanislav Gorshkov,Amateur Open,1984,89.7,,,,,-135,135,-140,135,,,,,,135,90,M,Станислав Горшков,B
Yes,Raw,13,Vitaliy Shmarov,Amateur Open,1982,83.9,,,,,-110,132.5,-140,132.5,,,,,,132.5,90,M,Виталий Шмаров,B
Yes,Raw,14,Valeriy Anufriev,Amateur Open,1986,84.4,,,,,120,132.5,,132.5,,,,,,132.5,90,M,Валерий Ануфриев,B
Yes,Raw,15,Andrey Pavlov #4,Amateur Open,1987,87.5,,,,,132.5,-152.5,-152.5,132.5,,,,,,132.5,90,M,Андрей Павлов,B
Yes,Raw,16,Evgeniy Smirnov,Amateur Open,1983,88.1,,,,,-125,-132.5,132.5,132.5,,,,,,132.5,90,M,Евгений Смирнов,B
Yes,Raw,17,Mikhail Chistyakov,Amateur Open,1984,88.8,,,,,-132.5,132.5,-137.5,132.5,,,,,,132.5,90,M,Михаил Чистяков,B
Yes,Raw,18,Dmitriy Zotkin,Amateur Open,1983,89.6,,,,,127.5,-132.5,-132.5,127.5,,,,,,127.5,90,M,Дмитрий Зоткин,B
Yes,Raw,19,Viktor Golubev,Amateur Open,1988,88.1,,,,,100,107.5,112.5,112.5,,,,,,112.5,90,M,Виктор Голубев,B
Yes,Raw,20,Ivan Trufanov,Amateur Open,1988,84,,,,,-107.5,107.5,-120,107.5,,,,,,107.5,90,M,Иван Труфанов,B
Yes,Raw,21,Viktor Bobro,Amateur Open,1987,89.9,,,,,100,-107.5,107.5,107.5,,,,,,107.5,90,M,Виктор Бобро,B
Yes,Raw,DQ,Kirill Emelyanov,Amateur Open,1986,84.9,,,,,-120,-120,-120,,,,,,,,90,M,Кирилл Емельянов,B
Yes,Raw,DQ,Denis Zolotov,Amateur Open,1987,88,,,,,-120,-120,-120,,,,,,,,90,M,Денис Золотов,B
Yes,Raw,DQ,Dmitriy Lisitsyn,Amateur Open,1980,88.7,,,,,-125,-132.5,-132.5,,,,,,,,90,M,Дмитрий Лисицын,B
Yes,Raw,DQ,Dmitriy Pokhilenko,Amateur Open,1980,89,,,,,-152.5,-152.5,-152.5,,,,,,,,90,M,Дмитрий Похиленко,B
Yes,Raw,1,Pavel Zhirnov,Amateur Masters 40-44,1971,87.9,,,,,145,150,155,155,,,,,,155,90,M,Павел Жирнов,B
Yes,Raw,1,Aleksandr Chepurnoy,Amateur Masters 45-49,1964,87,,,,,120,-125,-125,120,,,,,,120,90,M,Александр Чепурной,B
Yes,Raw,1,Igor Lebedev,Amateur Masters 50-54,1962,90,,,,,155,165,-167.5,165,,,,,,165,90,M,Игорь Лебедев,B
Yes,Raw,2,Andrey Salov,Amateur Masters 50-54,1959,89.4,,,,,145,152.5,155,155,,,,,,155,90,M,Андрей Салов,B
Yes,Raw,1,Vladimir Kalachev,Amateur Masters 55-59,1956,87.8,,,,,100,-110,-110,100,,,,,,100,90,M,Владимир Калачев,B
Yes,Raw,1,Sergey Goncharov,Amateur Masters 60-64,1952,85.5,,,,,120,140,-152.5,140,,,,,,140,90,M,Сергей Гончаров,B
Yes,Raw,1,Viktor Prokopyev,Amateur Teen 16-17,1995,95.2,,,,,-130,140,-145,140,,,,,,140,100,M,Виктор Прокопьев,B
Yes,Raw,1,Dmitriy Samsonov,Amateur Teen 18-19,1993,99.4,,,,,130,-135,-140,130,,,,,,130,100,M,Дмитрий Самсонов,B
Yes,Raw,2,Yuriy Sergeev,Amateur Teen 18-19,1993,93.4,,,,,110,117.5,122.5,122.5,,,,,,122.5,100,M,Юрий Сергеев,B
Yes,Raw,DQ,Andrey Ayvazyan,Amateur Teen 18-19,1994,91,,,,,-110,-120,-120,,,,,,,,100,M,Андрей Айвазян,B
Yes,Raw,1,Oleg Borodin,Amateur Juniors 20-23,1990,97.6,,,,,150,-160,160,160,,,,,,160,100,M,Олег Бородин,B
Yes,Raw,2,Vitaliy Chudaykin,Amateur Juniors 20-23,1991,94.2,,,,,140,-142.5,-145,140,,,,,,140,100,M,Виталий Чудайкин,B
Yes,Raw,1,Ilya Kirsanov,Amateur Open,1987,90.8,,,,,200,-205,210,210,,,,,,210,100,M,Илья Кирсанов,B
Yes,Raw,2,Andrey Kukhnevskiy,Amateur Open,1981,98.4,,,,,200,210,-220,210,,,,,,210,100,M,Андрей Кухневский,B
Yes,Raw,3,Pavel Milovanov,Amateur Open,1977,100,,,,,195,-202.5,-202.5,195,,,,,,195,100,M,Павел Милованов,B
Yes,Raw,4,Aleksandr Grechenko,Amateur Open,1980,96.4,,,,,150,162.5,170,170,,,,,,170,100,M,Александр Греченко,B
Yes,Raw,5,Andrey Tsukanov,Amateur Open,1980,96.8,,,,,162.5,-165,-165,162.5,,,,,,162.5,100,M,Андрей Цуканов,B
Yes,Raw,6,Semen Borkin,Amateur Open,1981,97.4,,,,,-152.5,155,162.5,162.5,,,,,,162.5,100,M,Семен Борькин,B
Yes,Raw,7,Dmitriy Makunin,Amateur Open,1978,97.5,,,,,150,162.5,-165,162.5,,,,,,162.5,100,M,Дмитрий Макунин,B
Yes,Raw,8,Vladimir Golovachev,Amateur Open,1979,98.4,,,,,155,-162.5,162.5,162.5,,,,,,162.5,100,M,Владимир Головачев,B
Yes,Raw,9,Ivan Yastrebov,Amateur Open,1983,98.6,,,,,150,160,162.5,162.5,,,,,,162.5,100,M,Иван Ястребов,B
Yes,Raw,10,Aleksandr Dorofeev,Amateur Open,1981,98.9,,,,,140,147.5,152.5,152.5,,,,,,152.5,100,M,Александр Дорофеев,B
Yes,Raw,11,Igor Kaminskiy,Amateur Open,1976,98.2,,,,,140,147.5,-150,147.5,,,,,,147.5,100,M,Игорь Каминский,B
Yes,Raw,12,Andrey Semenov,Amateur Open,1986,95.6,,,,,140,142.5,-145,142.5,,,,,,142.5,100,M,Андрей Семенов,B
Yes,Raw,13,Sergey Vlasov,Amateur Open,1985,97.4,,,,,-140,140,-150,140,,,,,,140,100,M,Сергей Власов,B
Yes,Raw,14,Sergey Gershtanskiy,Amateur Open,1974,98.3,,,,,137.5,-142.5,-142.5,137.5,,,,,,137.5,100,M,Сергей Герштанский,B
Yes,Raw,15,Vagarshak Bakhchoyan,Amateur Open,1990,94.6,,,,,115,125,-140,125,,,,,,125,100,M,Вагаршак Бахчоян,B
Yes,Raw,16,Sergey Puzanov,Amateur Open,1974,92.4,,,,,112.5,-115,,112.5,,,,,,112.5,100,M,Сергей Пузанов,B
Yes,Raw,17,Aleksandr Areschenkov,Amateur Open,1974,97.6,,,,,112.5,-117.5,-117.5,112.5,,,,,,112.5,100,M,Александр Арещенков,B
Yes,Raw,DD,Oleg Mironov,Amateur Open,1973,97.4,,,,,130,-140,-140,130,,,,,,,100,M,Олег Миронов,B
Yes,Raw,1,Mikhail Chepurnoy,Amateur Masters 40-44,1970,95.8,,,,,140,145,150,150,,,,,,150,100,M,Михаил Чепурной,B
Yes,Raw,1,Aleksandr Goryunov,Amateur Masters 45-49,1966,96.6,,,,,145,152.5,-160,152.5,,,,,,152.5,100,M,Александр Горюнов,B
Yes,Raw,1,Aleksey Stepyshev,Amateur Masters 45-49,1963,95.7,,,,,-125,125,-132.5,125,,,,,,125,100,M,Алексей Степышев,B
Yes,Raw,DQ,Vladimir Li,Amateur Masters 60-64,1951,97.2,,,,,-130,-130,-130,,,,,,,,100,M,Владимир Ли,B
Yes,Raw,1,Ruslan Kulebyakin,Amateur Juniors 20-23,1991,102.2,,,,,155,165,170,170,,,,,,170,110,M,Руслан Кулебякин,B
Yes,Raw,2,Sergey Miranyan,Amateur Juniors 20-23,1989,108.2,,,,,-167.5,-167.5,167.5,167.5,,,,,,167.5,110,M,Сергей Миранян,B
Yes,Raw,1,Aleksey Rudko,Amateur Open,1973,108.5,,,,,180,190,-192.5,190,,,,,,190,110,M,Алексей Рудько,B
Yes,Raw,2,Valeriy Sabelnikov,Amateur Open,1971,109.2,,,,,185,-190,190,190,,,,,,190,110,M,Валерий Сабельников,B
Yes,Raw,3,Aleksey Arkharov,Amateur Open,1984,107.8,,,,,167.5,175,-180,175,,,,,,175,110,M,Алексей Архаров,B
Yes,Raw,4,Dmitriy Mikhaylin,Amateur Open,1977,103.6,,,,,-167.5,167.5,170,170,,,,,,170,110,M,Дмитрий Михайлин,B
Yes,Raw,5,Maksim Uteshev,Amateur Open,1974,109,,,,,155,-160,167.5,167.5,,,,,,167.5,110,M,Максим Утешев,B
Yes,Raw,6,Evgeniy Yuschenko,Amateur Open,1985,110,,,,,160,167.5,-170,167.5,,,,,,167.5,110,M,Евгений Ющенко,B
Yes,Raw,7,Mikhail Shevyakov,Amateur Open,1974,104.6,,,,,150,160,-167.5,160,,,,,,160,110,M,Михаил Шевяков,B
Yes,Raw,8,Sergey Radchenko,Amateur Open,1980,107.6,,,,,160,-167.5,-167.5,160,,,,,,160,110,M,Сергей Радченко,B
Yes,Raw,9,Dmitriy Osokin,Amateur Open,1983,105.8,,,,,-147.5,147.5,155,155,,,,,,155,110,M,Дмитрий Осокин,B
Yes,Raw,10,Petr Vorobyev,Amateur Open,1975,104.3,,,,,147.5,-152.5,-152.5,147.5,,,,,,147.5,110,M,Петр Воробьев,B
Yes,Raw,11,Artem Artyukhov,Amateur Open,1987,106.1,,,,,132.5,140,-142.5,140,,,,,,140,110,M,Артем Артюхов,B
Yes,Raw,1,Yuriy Verchenko,Amateur Masters 40-44,1969,103.7,,,,,145,-152.5,-152.5,145,,,,,,145,110,M,Юрий Верченко,B
Yes,Raw,1,Pavel Sinchagov,Amateur Masters 45-49,1965,106.8,,,,,147.5,155,160,160,,,,,,160,110,M,Павел Синчагов,B
Yes,Raw,1,Igor Kurotchenko,Amateur Masters 50-54,1962,100.7,,,,,115,125,-132.5,125,,,,,,125,110,M,Игорь Куротченко,B
Yes,Raw,1,Magomed Gadzhiev,Amateur Juniors 20-23,1991,117.4,,,,,150,160,170,170,,,,,,170,125,M,Магомед Гаджиев,B
Yes,Raw,1,Aleksandr Andreev,Amateur Open,1977,120.8,,,,,210,220,,220,,,,,,220,125,M,Александр Андреев,B
Yes,Raw,2,Igor Golovanov,Amateur Open,1983,120.1,,,,,180,187.5,190,190,,,,,,190,125,M,Игорь Голованов,B
Yes,Raw,3,Roman Karpunin,Amateur Open,1982,114,,,,,170,-177.5,187.5,187.5,,,,,,187.5,125,M,Роман Карпунин,B
Yes,Raw,4,Aleksandr Malyshev,Amateur Open,1981,116.3,,,,,170,-180,-190,170,,,,,,170,125,M,Александр Малышев,B
Yes,Raw,DQ,Igor Gusev,Amateur Open,1981,116.4,,,,,-160,-170,-170,,,,,,,,125,M,Игорь Гусев,B
Yes,Raw,1,Denis Favorskiy,Amateur Masters 40-44,1971,110.2,,,,,150,160,165,165,,,,,,165,125,M,Денис Фаворский,B
Yes,Raw,1,Roman Mishurenkov,Amateur Open,1982,137.5,,,,,180,190,200,200,,,,,,200,140,M,Роман Мишуренков,B
Yes,Raw,1,Boris Trofimov,Amateur Masters 40-44,1972,138.8,,,,,200,205,210,210,,,,,,210,140,M,Борис Трофимов,B
Yes,Raw,1,Stanislav Karpov,Amateur Open,1971,150.3,,,,,180,185,-190,185,,,,,,185,140+,M,Станислав Карпов,B
Yes,Raw,DQ,Stanislav Karpov,Amateur Masters 40-44,1971,150.3,,,,,-190,-190,-190,,,,,,,,140+,M,Станислав Карпов,B
Yes,Raw,1,Elizaveta Golumbovskaya,Amateur Juniors 20-23,1989,55.5,,,,,,,,,,90,105,,105,105,56,F,Елизавета Голумбовская,D
Yes,Raw,1,Ekaterina Guryeva,Amateur Open,1985,64.3,,,,,,,,,,120,127.5,-130,127.5,127.5,67.5,F,Екатерина Гурьева,D
Yes,Raw,2,Marina Derbeneva,Amateur Open,1984,65.6,,,,,,,,,,87.5,-95,95,95,95,67.5,F,Марина Дербенева,D
Yes,Raw,1,Anna Nikolenko,Amateur Masters 40-44,1970,65.8,,,,,,,,,,110,117.5,-120,117.5,117.5,67.5,F,Анна Николенко,D
Yes,Raw,1,Alesya Semenina,Amateur Open,1988,73.6,,,,,,,,,,70,85,100,100,100,75,F,Алеся Семенина,D
Yes,Raw,1,Irina Borisova,Amateur Open,1987,80.2,,,,,,,,,,120,125,132.5,132.5,132.5,82.5,F,Ирина Борисова,D
Yes,Raw,1,Gleb Titov,Amateur Teen 13-15,1997,50.2,,,,,,,,,,122.5,-132.5,-132.5,122.5,122.5,52,M,Глеб Титов,D
Yes,Raw,1,Vyacheslav Meshkov,Amateur Teen 16-17,1995,55.5,,,,,,,,,,125,145,150,150,150,56,M,Вячеслав Мешков,D
Yes,Raw,1,Konstantin Umnov,Amateur Juniors 20-23,1990,59.4,,,,,,,,,,130,-150,150,150,150,60,M,Константин Умнов,D
Yes,Raw,1,Vladimir Bondarenko,Amateur Teen 13-15,1997,61.5,,,,,,,,,,122.5,-127.5,132.5,132.5,132.5,67.5,M,Владимир Бондаренко,D
Yes,Raw,1,Maksim Shiryaev,Amateur Juniors 20-23,1989,65.4,,,,,,,,,,145,165,,165,165,67.5,M,Максим Ширяев,D
Yes,Raw,2,Petr Zabolotniy,Amateur Juniors 20-23,1989,66.6,,,,,,,,,,-145,145,165,165,165,67.5,M,Петр Заболотний,D
Yes,Raw,1,Sergey Perevalov,Amateur Open,1981,65.4,,,,,,,,,,170,180,-190,180,180,67.5,M,Сергей Перевалов,D
Yes,Raw,1,Sergey Delianidi,Amateur Teen 13-15,1996,70.1,,,,,,,,,,-150,150,180,180,180,75,M,Сергей Делианиди,D
Yes,Raw,1,Andrey Muravyev,Amateur Teen 18-19,1994,73.1,,,,,,,,,,202.5,215,-232.5,215,215,75,M,Андрей Муравьев,D
Yes,Raw,2,Pavel Barkanov,Amateur Teen 18-19,1993,70.55,,,,,,,,,,160,177.5,185,185,185,75,M,Павел Барканов,D
Yes,Raw,1,Kirill Gorlov,Amateur Juniors 20-23,1989,73.7,,,,,,,,,,202.5,215,-225,215,215,75,M,Кирилл Горлов,D
Yes,Raw,2,Vladimir Gurenkov,Amateur Juniors 20-23,1992,71.8,,,,,,,,,,180,190,-200,190,190,75,M,Владимир Гуреньков,D
Yes,Raw,3,Nikolay Medved,Amateur Juniors 20-23,1989,70.15,,,,,,,,,,160,177.5,185,185,185,75,M,Николай Медведь,D
Yes,Raw,4,Aleksey Kostin,Amateur Juniors 20-23,1991,68.45,,,,,,,,,,-177.5,-177.5,177.5,177.5,177.5,75,M,Алексей Костин,D
Yes,Raw,1,Pavel Zubkov,Amateur Open,1985,73,,,,,,,,,,205,215,225,225,225,75,M,Павел Зубков,D
Yes,Raw,2,Vladimir Zhaglin,Amateur Open,1986,74.2,,,,,,,,,,180,190,202.5,202.5,202.5,75,M,Владимир Жаглин,D
Yes,Raw,3,Ruslan Kurilekh,Amateur Open,1983,74.4,,,,,,,,,,-180,180,-195,180,180,75,M,Руслан Курилех,D
Yes,Raw,1,Viktor Popov,Amateur Masters 60-64,1952,74.9,,,,,,,,,,160,177.5,-185,177.5,177.5,75,M,Виктор Попов,D
Yes,Raw,1,Maksim Makarov,Amateur Teen 18-19,1994,80,,,,,,,,,,170,185,-200,185,185,82.5,M,Максим Макаров,D
Yes,Raw,1,Vladimir Balyshev,Amateur Juniors 20-23,1990,76.9,,,,,,,,,,185,192.5,200,200,200,82.5,M,Владимир Балышев,D
Yes,Raw,2,Georgiy Sharangiya,Amateur Juniors 20-23,1992,80.1,,,,,,,,,,165,175,185,185,185,82.5,M,Георгий Шарангия,D
Yes,Raw,1,Timur Tkhamokov,Amateur Open,1982,81.7,,,,,,,,,,-250,260,265,265,265,82.5,M,Тимур Тхамоков,D
Yes,Raw,2,Pavel Kulkov,Amateur Open,1980,80.7,,,,,,,,,,215,230,245,245,245,82.5,M,Павел Кульков,D
Yes,Raw,3,Nikolay Balugin,Amateur Open,1987,79.1,,,,,,,,,,220,230,237.5,237.5,237.5,82.5,M,Николай Балугин,D
Yes,Raw,4,Valeriy Mashkov,Amateur Open,1984,79.45,,,,,,,,,,185,205,215,215,215,82.5,M,Валерий Машков,D
Yes,Raw,5,Aleksandr Cherdakov,Amateur Open,1987,81.5,,,,,,,,,,-215,215,-220,215,215,82.5,M,Александр Чердаков,D
Yes,Raw,6,Andrey Kolchenogov,Amateur Open,1985,80.6,,,,,,,,,,190,202.5,210,210,210,82.5,M,Андрей Колченогов,D
Yes,Raw,7,Vladislav Girko,Amateur Open,1987,79.5,,,,,,,,,,-185,185,200,200,200,82.5,M,Владислав Гирко,D
Yes,Raw,8,Rafael Loginov,Amateur Open,1984,81.9,,,,,,,,,,185,200,-215,200,200,82.5,M,Рафаэль Логинов,D
Yes,Raw,9,Aleksey Shilov,Amateur Open,1986,77.3,,,,,,,,,,110,120,130,130,130,82.5,M,Алексей Шилов,D
Yes,Raw,1,Vladimir Kulakov,Amateur Masters 55-59,1955,77.45,,,,,,,,,,120,127.5,,127.5,127.5,82.5,M,Владимир Кулаков,D
Yes,Raw,1,Evgeniy Zhurkin,Amateur Masters 65-69,1945,80.9,,,,,,,,,,120,130,140,140,140,82.5,M,Евгений Журкин,D
Yes,Raw,1,Anton Ilyasov,Amateur Juniors 20-23,1988,87.9,,,,,,,,,,260,270,280,280,280,90,M,Антон Илясов,D
Yes,Raw,2,Nikolay Savchenko,Amateur Juniors 20-23,1991,84.1,,,,,,,,,,220,230,-240,230,230,90,M,Николай Савченко,D
Yes,Raw,3,Andrey Kocherga,Amateur Juniors 20-23,1991,86.35,,,,,,,,,,215,222.5,227.5,227.5,227.5,90,M,Андрей Кочерга,D
Yes,Raw,4,Andrey Kamenov,Amateur Juniors 20-23,1988,87.5,,,,,,,,,,185,195,200,200,200,90,M,Андрей Каменов,D
Yes,Raw,5,Konstantin Kozlov,Amateur Juniors 20-23,1990,90,,,,,,,,,,170,180,-190,180,180,90,M,Константин Козлов,D
Yes,Raw,1,Nikolay Karakcheev,Amateur Open,1974,85.2,,,,,,,,,,230,240,250,250,250,90,M,Николай Каракчеев,D
Yes,Raw,2,Aleksandr Puchkov,Amateur Open,1975,89.8,,,,,,,,,,200,210,222.5,222.5,222.5,90,M,Александр Пучков,D
Yes,Raw,3,Aleksandr Lebedev,Amateur Open,1986,86.5,,,,,,,,,,170,185,-195,185,185,90,M,Александр Лебедев,D
Yes,Raw,1,Sergey Gramotkin,Amateur Masters 60-64,1952,83.5,,,,,,,,,,180,-190,,180,180,90,M,Сергей Грамоткин,D
Yes,Raw,1,Yuriy Sergeev,Amateur Teen 18-19,1993,93.4,,,,,,,,,,170,190,202.5,202.5,202.5,100,M,Юрий Сергеев,D
Yes,Raw,1,Aleksey Larionov,Amateur Open,1976,99.5,,,,,,,,,,232.5,237.5,242.5,242.5,242.5,100,M,Алексей Ларионов,D
Yes,Raw,2,Mikhail Evstigneev,Amateur Open,1976,99.2,,,,,,,,,,225,232.5,240,240,240,100,M,Михаил Евстигнеев,D
Yes,Raw,3,Sergey Puzanov,Amateur Open,1974,92.4,,,,,,,,,,190,202.5,210,210,210,100,M,Сергей Пузанов,D
Yes,Raw,4,Dmitriy Tururushkin,Amateur Open,1987,100,,,,,,,,,,202.5,-232.5,-232.5,202.5,202.5,100,M,Дмитрий Турурушкин,D
Yes,Raw,5,Aleksandr Smirnov,Amateur Open,1974,96.5,,,,,,,,,,-180,180,190,190,190,100,M,Александр Смирнов,D
Yes,Raw,1,Ruslan Okishor,Amateur Open,1989,102.6,,,,,,,,,,190,207.5,212.5,212.5,212.5,110,M,Руслан Окишор,D
Yes,Raw,2,Sergey Bulaev,Amateur Open,1972,104.2,,,,,,,,,,187.5,197.5,207.5,207.5,207.5,110,M,Сергей Булаев,D
Yes,Raw,3,Artem Artyukhov,Amateur Open,1987,106.1,,,,,,,,,,190,200,207.5,207.5,207.5,110,M,Артем Артюхов,D
Yes,Raw,DQ,Anton Chistyukhin,Amateur Open,1975,109.6,,,,,,,,,,-220,-220,,,,110,M,Антон Чистюхин,D
Yes,Raw,1,Andrey Shmorgun,Amateur Open,1984,120,,,,,,,,,,235,260,265,265,265,125,M,Андрей Шморгун,D
Yes,Raw,2,Vladimir Mangutov,Amateur Open,1983,112.2,,,,,,,,,,247.5,255,-267.5,255,255,125,M,Владимир Мангутов,D
Yes,Raw,3,Sergey Eliseev,Amateur Open,1979,114.1,,,,,,,,,,240,247.5,-260,247.5,247.5,125,M,Сергей Елисеев,D
Yes,Raw,4,Sergey Logachev,Amateur Open,1980,115.25,,,,,,,,,,205,210,215,215,215,125,M,Сергей Логачев,D
Yes,Raw,1,Sergey Nikishin,Amateur Masters 40-44,1971,118.4,,,,,,,,,,200,220,230,230,230,125,M,Сергей Никишин,D
Yes,Single-ply,1,Denis Shalchkov,Amateur Juniors 20-23,1990,65.6,,,,,105,-110,-110,105,,,,,,105,67.5,M,Денис Шалчков,B
Yes,Single-ply,1,Vyacheslav Romanov,Amateur Juniors 20-23,1990,73.5,,,,,147.5,152.5,157.5,157.5,,,,,,157.5,75,M,Вячеслав Романов,B
Yes,Single-ply,1,Valentin Aleksandrov,Amateur Open,1979,73.5,,,,,150,-157.5,-157.5,150,,,,,,150,75,M,Валентин Александров,B
Yes,Single-ply,DQ,Aleksey Borodin,Amateur Open,1988,72.4,,,,,-147.5,-147.5,-147.5,,,,,,,,75,M,Алексей Бородин,B
Yes,Single-ply,1,Andrey Badanin,Amateur Juniors 20-23,1991,81.2,,,,,165,175,-185,175,,,,,,175,82.5,M,Андрей Баданин,B
Yes,Single-ply,1,Yuriy Tarbonov,Amateur Open,1987,82.4,,,,,-190,190,197.5,197.5,,,,,,197.5,82.5,M,Юрий Тарбонов,B
Yes,Single-ply,2,Denis Dobryanskiy,Amateur Open,1977,82.2,,,,,187.5,-195,-195,187.5,,,,,,187.5,82.5,M,Денис Добрянский,B
Yes,Single-ply,DQ,Dmitriy Korneev,Amateur Open,1987,80.3,,,,,,,,,,,,,,,82.5,M,Дмитрий Корнеев,B
Yes,Single-ply,DQ,Aleksey Astakhov,Amateur Masters 40-44,1970,78.6,,,,,-140,-140,-140,,,,,,,,82.5,M,Алексей Астахов,B
Yes,Single-ply,1,Aleksandr Klochikhin,Amateur Open,1977,89.5,,,,,-180,-190,190,190,,,,,,190,90,M,Александр Клочихин,B
Yes,Single-ply,2,Anton Sosunov,Amateur Open,1980,88.3,,,,,150,160,-165,160,,,,,,160,90,M,Антон Сосунов,B
Yes,Single-ply,3,Dmitriy Panov,Amateur Open,1983,89.2,,,,,160,-170,-170,160,,,,,,160,90,M,Дмитрий Панов,B
Yes,Multi-ply,1,Roman Korshunov,Amateur Open,1980,74.3,,,,,105,112.5,-120,112.5,,,,,,112.5,75,M,Роман Коршунов,B
Yes,Multi-ply,2,Valeriy Kurochkin,Amateur Open,1978,105.4,,,,,255,-270,-270,255,,,,,,255,110,M,Валерий Курочкин,B
Yes,Multi-ply,1,Aleksey Ventsov,Amateur Open,1980,113.4,,,,,230,-240,-247.5,230,,,,,,230,125,M,Алексей Венцов,B
Yes,Multi-ply,DQ,Sergey Nikishin,Amateur Masters 40-44,1971,118.4,,,,,-200,-200,-200,,,,,,,,125,M,Сергей Никишин,B
Yes,Single-ply,1,Vladimir Kulakov,Amateur Open,1955,77.45,,,,,,,,,,120,,,120,120,82.5,M,Владимир Кулаков,D
Yes,Single-ply,1,Vladimir Kulakov,Amateur Masters 55-59,1955,77.45,,,,,,,,,,120,,,120,120,82.5,M,Владимир Кулаков,D
Yes,Single-ply,1,Petr Samko,Amateur Open,1987,86.4,,,,,,,,,,165,180,185,185,185,90,M,Петр Самко,D
Yes,Single-ply,1,Ilya Filippov,Amateur Teen 18-19,1993,98.2,,,,,,,,,,220,240,255,255,255,100,M,Илья Филиппов,D
