Place,Name,BodyweightKg,Squat1Kg,Squat2Kg,Squat3Kg,Best3SquatKg,Squat4Kg,Bench1Kg,Bench2Kg,Bench3Kg,Best3BenchKg,Deadlift1Kg,Deadlift2Kg,Deadlift3Kg,Best3DeadliftKg,TotalKg,WeightClassKg,Sex,CyrillicName,BirthYear,Event,Equipment,Division
1,Vyacheslav Gorbunov,51.15,-185,-185,185,185,,-105,105,-110,105,185,-205,,185,475,52,M,Вячеслав Горбунов,1975,SBD,Single-ply,Juniors
2,Dmitriy Silaev,51.75,-160,172.5,-180,172.5,,80,85,-97.5,85,170,180,-185,180,437.5,52,M,Дмитрий Силаев,1979,SBD,Single-ply,Juniors
3,Dmitriy Smirnov,50,-150,-150,150,150,,-97.5,-97.5,97.5,97.5,150,160,-170,160,407.5,52,M,Дмитрий Смирнов,1978,SBD,Single-ply,Juniors
4,Anatoliy Lebedev,51.1,130,140,150,150,,82.5,87.5,92.5,92.5,145,-152.5,152.5,152.5,395,52,M,Анатолий Лебедев,1973,SBD,Single-ply,Juniors
5,Aleksey Chirukhin,51.8,-140,140,-150,140,,72.5,-77.5,-77.5,72.5,150,-162.5,170,170,382.5,52,M,Алексей Чирухин,1978,SBD,Single-ply,Juniors
6,Eduard Bizyukov,51,110,120,125,125,,65,-70,-70,65,135,145,150,150,340,52,M,Эдуард Бизюков,1975,SBD,Single-ply,Juniors
7,Mikhail Sotskov,51.9,107.5,-115,117.5,117.5,,67.5,70,72.5,72.5,125,137.5,-142.5,137.5,327.5,52,M,Михаил Соцков,1980,SBD,Single-ply,Juniors
8,Vladimir Ivanov,51.7,-100,-100,100,100,,85,-90,-90,85,115,125,-130,125,310,52,M,Владимир Иванов,1978,SBD,Single-ply,Juniors
1,Denis Korolev,55,170,-185,185,185,,-82.5,85,90,90,190,200,210,210,485,56,M,Денис Королев,1979,SBD,Single-ply,Juniors
2,Eldar Gizyatulov,56,-165,165,180,180,,100,105,110,110,165,-185,-185,165,455,56,M,Эльдар Гизятулов,1978,SBD,Single-ply,Juniors
3,Evgeniy Biktagirov,55.95,117.5,130,145,145,,-90,-95,100,100,165,182.5,187.5,187.5,432.5,56,M,Евгений Биктагиров,1979,SBD,Single-ply,Juniors
4,Igor Nikolaev,55.6,150,-160,-170,150,,-100,100,105,105,-170,-170,170,170,425,56,M,Игорь Николаев,1978,SBD,Single-ply,Juniors
5,Aleksandr Gulyaev,55.1,145,150,155,155,,80,85,-90,85,155,165,170,170,410,56,M,Александр Гуляев,1980,SBD,Single-ply,Juniors
6,Mikhail Kuroedov,56,130,140,150,150,,80,90,-92.5,90,140,150,-160,150,390,56,M,Михаил Куроедов,1977,SBD,Single-ply,Juniors
7,Vladimir Semichev,52.7,115,125,130,130,,-72.5,75,-80,75,170,180,-185,180,385,56,M,Владимир Семичев,1974,SBD,Single-ply,Juniors
8,Andrey Salnikov,55,105,120,135,135,,85,90,-95,90,140,155,162.5,162.5,387.5,56,M,Андрей Сальников,1981,SBD,Single-ply,Juniors
9,Sergey Mikonov,54.7,120,130,-135,130,,85,-90,-90,85,-135,135,150,150,365,56,M,Сергей Миконов,1976,SBD,Single-ply,Juniors
DQ,Aleksandr Timoshin,56,-175,-175,,,,,,,,,,,,,56,M,Александр Тимошин,1979,SBD,Single-ply,Juniors
1,Mikhail Buyanov,59.6,-210,215,-220,215,,105,110,-115,110,200,215,222.5,222.5,547.5,60,M,Михаил Буянов,1974,SBD,Single-ply,Juniors
2,Andrey Sedov,59.65,170,185,192.5,192.5,,120,127.5,132.5,132.5,190,205,217.5,217.5,542.5,60,M,Андрей Седов,1977,SBD,Single-ply,Juniors
3,Vladimir Malyagin,59.65,190,205,215,215,,110,115,120,120,175,190,-195,190,525,60,M,Владимир Малягин,1976,SBD,Single-ply,Juniors
4,Ilya Kokorev,59.15,170,175,182.5,182.5,,107.5,115,-117.5,115,222.5,-230,-232.5,222.5,520,60,M,Илья Кокорев,1973,SBD,Single-ply,Juniors
5,Aleksandr Marenok,58.5,180,190,195,195,,120,-125,125,125,190,-200,-200,190,510,60,M,Александр Маренок,1976,SBD,Single-ply,Juniors
6,Aleksandr Kiselev,59.9,-190,200,-207.5,200,,100,110,-115,110,195,-210,-210,195,505,60,M,Александр Киселев,1974,SBD,Single-ply,Juniors
7,Stanislav Skobelkin,58.6,180,-185,-190,180,,-105,105,110,110,210,-230,-230,210,500,60,M,Станислав Скобелкин,1977,SBD,Single-ply,Juniors
8,Aleksey Khrabrov,60,170,177.5,-182.5,177.5,,-115,122.5,-127.5,122.5,200,-220,-220,200,500,60,M,Алексей Храбров,1975,SBD,Single-ply,Juniors
9,Oleg Smirnov,59.4,180,190,-195,190,,115,120,-122.5,120,180,-190,-190,180,490,60,M,Олег Смирнов,1974,SBD,Single-ply,Juniors
10,Sergey Ofitserov,59.35,140,,150,150,,92.5,100,-110,100,160,170,175,175,425,60,M,Сергей Офицеров,1977,SBD,Single-ply,Juniors
11,Aleksandr Semakin,60,125,135,-140,135,,-105,110,-115,110,-160,175,-185,175,420,60,M,Александр Семакин,1978,SBD,Single-ply,Juniors
12,Andrey Zharkov,59.75,140,150,-160,150,,90,95,102.5,102.5,150,-165,,150,402.5,60,M,Андрей Жарков,1980,SBD,Single-ply,Juniors
DQ,Konstantin Zudin,59.15,172.5,177.5,-182.5,177.5,,132.5,137.5,140,140,-195,-195,-195,,,60,M,Константин Зудин,1973,SBD,Single-ply,Juniors
DQ,Nurmagomed Gasanov,58.95,-180,-180,-190,,,,,,,,,,,,60,M,Нурмагомед Гасанов,1974,SBD,Single-ply,Juniors
DQ,Dmitriy Dudnik,58.2,160,-170,170,170,,-102.5,-102.5,,,,,,,,60,M,Дмитрий Дудник,1979,SBD,Single-ply,Juniors
1,Sergey Gauf,67,-260,260,270,270,,160,167.5,170,170,230,242.5,250,250,690,67.5,M,Сергей Гауф,1974,SBD,Single-ply,Juniors
2,Evgeniy Dolgov,65.5,240,260,270,270,,140,145,-147.5,145,235,-255,-275,235,650,67.5,M,Евгений Долгов,1976,SBD,Single-ply,Juniors
3,Vladislav Novokreschenov,67.25,240,245,-250,245,,150,-155,-157.5,150,220,-230,-230,220,615,67.5,M,Владислав Новокрещенов,1974,SBD,Single-ply,Juniors
4,Albert Gareginyan,65.45,207.5,-215,215,215,,142.5,147.5,-150,147.5,237.5,-247.5,-252.5,237.5,600,67.5,M,Альберт Гарегинян,1973,SBD,Single-ply,Juniors
5,Yuriy Chernyshov,66.8,200,210,-215,210,,125,-132.5,132.5,132.5,-245,252.5,-257.5,252.5,595,67.5,M,Юрий Чернышов,1973,SBD,Single-ply,Juniors
6,Andrey Vedrov,67.2,-200,-205,205,205,,145,152.5,155,155,210,220,225,225,585,67.5,M,Андрей Ведров,1974,SBD,Single-ply,Juniors
7,Aleksey Dmitriev,66.6,220,232.5,237.5,237.5,,115,125,127.5,127.5,205,215,-217.5,215,580,67.5,M,Алексей Дмитриев,1973,SBD,Single-ply,Juniors
8,Dmitriy Belov,67,205,-215,220,220,,130,137.5,-145,137.5,210,-225,-225,210,567.5,67.5,M,Дмитрий Белов,1977,SBD,Single-ply,Juniors
9,Roman Shabanov,67,-205,210,-215,210,,145,-155,-157.5,145,205,215,225,225,580,67.5,M,Роман Шабанов,1976,SBD,Single-ply,Juniors
10,Sergey Lyubimov,66,200,210,-215,210,,-140,140,145,145,210,-225,-225,210,565,67.5,M,Сергей Любимов,1982,SBD,Single-ply,Juniors
11,Igor Shorokhov,67.25,190,200,205,205,,110,120,125,125,210,225,-227.5,225,555,67.5,M,Игорь Шорохов,1978,SBD,Single-ply,Juniors
12,Rustam Mesha,66.6,185,-190,190,190,,-135,135,-140,135,215,225,-230,225,550,67.5,M,Рустам Меша,1974,SBD,Single-ply,Juniors
13,Evgeniy Shishkin,67.15,200,-220,-220,200,,120,-140,140,140,200,-220,-220,200,540,67.5,M,Евгений Шишкин,1976,SBD,Single-ply,Juniors
14,Aleksey Syomkin,67.5,155,165,-172.5,165,,-110,110,-120,110,185,200,,200,475,67.5,M,Алексей Сёмкин,1975,SBD,Single-ply,Juniors
15,Ruslan Vostrikov,64.2,150,160,-175,160,,-110,115,-117.5,115,-170,170,-180,170,445,67.5,M,Руслан Востриков,1979,SBD,Single-ply,Juniors
DQ,Sergey Ushakov,67.2,-270,-270,-270,,,,,,,,,,,,67.5,M,Сергей Ушаков,1974,SBD,Single-ply,Juniors
G,Vasim Akhmadulin,66.8,-250,250,-257.5,250,,-140,140,145,145,-245,245,,245,640,67.5,M,Васим Ахмадулин,1961,SBD,Single-ply,Open
G,Gennadiy Volkov,67.2,200,210,-217.5,210,,115,-122.5,122.5,122.5,215,230,-247.5,230,562.5,67.5,M,Геннадий Волков,1960,SBD,Single-ply,Open
G,Andrey Turovtsev,67,215,-225,-225,215,,135,142.5,-147.5,142.5,185,200,-212.5,200,557.5,67.5,M,Андрей Туровцев,1972,SBD,Single-ply,Open
1,Dmitriy Zuev,74.9,255,265,272.5,272.5,,175,185,190,190,260,272.5,280,280,742.5,75,M,Дмитрий Зуев,1975,SBD,Single-ply,Juniors
2,Alexey Nemtsev,73.45,280,290,-295,290,,170,177.5,180,180,255,-272.5,272.5,272.5,742.5,75,M,Алексей Немцев,1975,SBD,Single-ply,Juniors
3,Sergey Gordeev,74.6,260,270,275,275,,157.5,162.5,-165,162.5,-252.5,252.5,-262.5,252.5,690,75,M,Сергей Гордеев,1976,SBD,Single-ply,Juniors
4,Dmitriy Evstratenko,72.5,255,-260,,255,,165,-170,-170,165,250,-260,-260,250,670,75,M,Дмитрий Евстратенко,1974,SBD,Single-ply,Juniors
5,Dmitriy Galtsev,73.75,255,262.5,-270,262.5,,152.5,-157.5,-157.5,152.5,230,240,-250,240,655,75,M,Дмитрий Гальцев,1976,SBD,Single-ply,Juniors
6,Aleksandr Aldoshkin,74,225,235,245,245,,-140,145,150,150,220,235,245,245,640,75,M,Александр Алдошкин,,SBD,Single-ply,Juniors
7,Mikhail Zhevlakov,74.9,230,240,242.5,242.5,,165,172.5,175,175,200,212.5,220,220,637.5,75,M,Михаил Жевлаков,1975,SBD,Single-ply,Juniors
8,Andrey Gryanyaev,74.9,220,232.5,-237.5,232.5,,145,150,155,155,230,242.5,245,245,632.5,75,M,Андрей Гряняев,1974,SBD,Single-ply,Juniors
9,Andrey Bugayskiy,74.6,207.5,215,-220,215,,155,-160,160,160,245,-255,255,255,630,75,M,Андрей Бугайский,1974,SBD,Single-ply,Juniors
10,Ruslan Olesov,74.3,230,240,245,245,,130,135,-140,135,240,-250,-250,240,620,75,M,Руслан Олесов,1978,SBD,Single-ply,Juniors
11,Sergey Melnik,72.6,-215,225,232.5,232.5,,100,-110,110,110,225,235,242.5,242.5,585,75,M,Сергей Мельник,1976,SBD,Single-ply,Juniors
12,Aleksandr Oslin,73.3,215,225,-230,225,,115,-122.5,122.5,122.5,205,212.5,217.5,217.5,565,75,M,Александр Ослин,1974,SBD,Single-ply,Juniors
13,Aleksey Prokhorov,73.6,180,192.5,-197.5,192.5,,115,125,130,130,210,225,-232.5,225,547.5,75,M,Алексей Прохоров,1977,SBD,Single-ply,Juniors
14,Andrey Sukhov,74.6,170,180,185,185,,145,152.5,-157.5,152.5,190,205,210,210,547.5,75,M,Андрей Сухов,1974,SBD,Single-ply,Juniors
15,Dmitriy Ponomarev,71,185,195,-200,195,,135,145,150,150,190,200,,200,545,75,M,Дмитрий Пономарев,1980,SBD,Single-ply,Juniors
16,Konstantin Filippov,73.2,180,195,205,205,,110,117.5,-122.5,117.5,205,220,-230,220,542.5,75,M,Константин Филиппов,1978,SBD,Single-ply,Juniors
17,Sergey Kudryashov,74,185,195,202.5,202.5,,115,122.5,-127.5,122.5,195,210,217.5,217.5,542.5,75,M,Сергей Кудряшов,1974,SBD,Single-ply,Juniors
18,Maksim Grigoryev,72.1,180,200,212.5,212.5,,115,-125,125,125,180,-200,,180,517.5,75,M,Максим Григорьев,1975,SBD,Single-ply,Juniors
19,Eduard Dunaev,74,190,-200,-200,190,,110,115,-120,115,180,190,200,200,505,75,M,Эдуард Дунаев,1976,SBD,Single-ply,Juniors
DQ,Sergey Velin,74.4,265,-272.5,-272.5,265,,-162.5,-165,-165,,,,,,,75,M,Сергей Велин,1973,SBD,Single-ply,Juniors
DQ,Aleksey Yutkin,75,-230,-230,,,,,,,,,,,,,75,M,Алексей Юткин,1974,SBD,Single-ply,Juniors
DQ,Vladimir Kostulin,74,220,-230,-230,220,,-135,-135,-135,,,,,,,75,M,Владимир Костулин,1974,SBD,Single-ply,Juniors
1,Alexey Kharauzov,81.4,292.5,302.5,307.5,307.5,,182.5,187.5,190,190,280,290,-302.5,290,787.5,82.5,M,Алексей Хараузов,1973,SBD,Single-ply,Juniors
2,Andrey Nazarov,81.6,290,297.5,305,305,,175,180,-185,180,270,285,-290,285,770,82.5,M,Андрей Назаров,1973,SBD,Single-ply,Juniors
3,Dmitriy Fedenko,81.85,280,292.5,300,300,,177.5,185,190,190,270,280,-290,280,770,82.5,M,Дмитрий Феденко,1975,SBD,Single-ply,Juniors
4,Artem Kuznetsov,82.35,275,-282.5,282.5,282.5,,175,185,192.5,192.5,270,-280,-280,270,745,82.5,M,Артем Кузнецов,1978,SBD,Single-ply,Juniors
5,Andrey Tarasenko,81.7,265,285,-295,285,,170,180,185,185,250,270,285,285,755,82.5,M,Андрей Тарасенко,1975,SBD,Single-ply,Juniors
6,Vladimir Gavrin,81.4,280,295,-305,295,310.5,165,170,-172.5,170,230,245,255,255,720,82.5,M,Владимир Гаврин,1974,SBD,Single-ply,Juniors
7,Andrey Abramov,81.9,-250,255,262.5,262.5,,150,160,165,165,250,260,270,270,697.5,82.5,M,Андрей Абрамов,1976,SBD,Single-ply,Juniors
8,Konstantin Shabalin,80.4,260,275,-282.5,275,,160,170,175,175,230,235,245,245,695,82.5,M,Константин Шабалин,1976,SBD,Single-ply,Juniors
9,Sergey Shadrin,80.25,280,-300,-300,280,,160,-170,-170,160,230,240,250,250,690,82.5,M,Сергей Шадрин,1976,SBD,Single-ply,Juniors
10,Alexey Baluev,80.8,230,250,255,255,,130,140,150,150,230,265,275,275,680,82.5,M,Алексей Балуев,1978,SBD,Single-ply,Juniors
11,Aleksey Onofrienko,81,235,245,255,255,,140,-145,,140,275,285,-290,285,680,82.5,M,Алексей Онофриенко,1974,SBD,Single-ply,Juniors
12,Vladimir Fedorov,80,260,270,-280,270,,-170,170,-180,170,230,240,242.5,242.5,682.5,82.5,M,Владимир Федоров,1974,SBD,Single-ply,Juniors
13,Sergey Kozlov,79.8,250,260,-265,260,,165,,167.5,167.5,250,,,250,677.5,82.5,M,Сергей Козлов,1975,SBD,Single-ply,Juniors
14,Georgiy Funtikov,80.9,230,-245,245,245,,160,167.5,170,170,255,,,255,670,82.5,M,Георгий Фунтиков,1976,SBD,Single-ply,Juniors
15,Igor Finogin,81.2,235,245,-255,245,,170,180,185,185,235,240,-252.5,240,670,82.5,M,Игорь Финогин,1977,SBD,Single-ply,Juniors
16,Ruslan Krasnikov,81.8,230,240,250,250,,130,135,-137.5,135,265,275,285,285,670,82.5,M,Руслан Красников,1977,SBD,Single-ply,Juniors
17,Aleksey Anisimov,82.5,240,-255,-255,240,,137.5,145,150,150,250,280,-285,280,670,82.5,M,Алексей Анисимов,1974,SBD,Single-ply,Juniors
18,Vadim Usanov,81,-230,230,240,240,,140,-147.5,-150,140,260,275,-280,275,655,82.5,M,Вадим Усанов,1977,SBD,Single-ply,Juniors
19,Renat Khazyrov,81.45,240,-255,255,255,,-135,-140,140,140,250,-275,-275,250,645,82.5,M,Ренат Хазыров,1974,SBD,Single-ply,Juniors
20,Aleksandr Kamenev,81.55,-220,-220,220,220,,-155,155,-167.5,155,250,265,-275,265,640,82.5,M,Александр Каменев,1978,SBD,Single-ply,Juniors
21,Aleksandr Gaponov,82.4,235,-245,-245,235,,160,-170,-170,160,230,-240,242.5,242.5,637.5,82.5,M,Александр Гапонов,1974,SBD,Single-ply,Juniors
22,Pavel Malygin,80.95,200,220,230,230,,120,,130,130,-220,230,,230,590,82.5,M,Павел Малыгин,1978,SBD,Single-ply,Juniors
23,Andrey Nedoseka,81.5,210,225,230,230,,125,132.5,142.5,142.5,180,200,210,210,582.5,82.5,M,Андрей Недосека,1979,SBD,Single-ply,Juniors
DQ,Aleksandr Grushinskiy,81.25,255,265,-275,265,,175,180,182.5,182.5,-290,-300,-300,,,82.5,M,Александр Грушинский,1975,SBD,Single-ply,Juniors
DQ,Evgeniy Mamunov,82.3,-265,265,-270,265,,-170,175,180,180,-280,-280,-280,,,82.5,M,Евгений Мамунов,1975,SBD,Single-ply,Juniors
DQ,Andrey Zhernitsin,81,-250,-250,-250,,,,,,,,,,,,82.5,M,Андрей Жерницин,1976,SBD,Single-ply,Juniors
DQ,Aleksey Voevodin,81.65,-260,-260,-260,,,,,,,,,,,,82.5,M,Алексей Воеводин,1977,SBD,Single-ply,Juniors
DQ,Vladimir Sedov,82,230,240,-245,240,,-170,-170,-170,,,,,,,82.5,M,Владимир Седов,1978,SBD,Single-ply,Juniors
G,Vladimir Romanov,82.4,270,277.5,282.5,282.5,,175,180,-182.5,180,292.5,-300,,292.5,755,82.5,M,Владимир Романов,1964,SBD,Single-ply,Open
G,Eduard Bolshakov,82.5,285,-292.5,292.5,292.5,,175,-180,180,180,282.5,-292.5,,282.5,755,82.5,M,Эдуард Большаков,1969,SBD,Single-ply,Open
G,Artur Kazakevichus,82.15,-250,257.5,,257.5,,145,155,160,160,252.5,-260,,252.5,670,82.5,M,Артур Казакевичус,1960,SBD,Single-ply,Open
1,Aleksey Bessonov,89.8,290,-300,-300,290,,170,-177.5,-177.5,170,330,337.5,340.5,340.5,800.5,90,M,Алексей Бессонов,1973,SBD,Single-ply,Juniors
2,Vitaliy Glubokiy,89,270,285,292.5,292.5,,200,-207.5,207.5,207.5,270,285,-290,285,785,90,M,Виталий Глубокий,1974,SBD,Single-ply,Juniors
3,Aleksandr Frantskevich,89.1,270,290,302.5,302.5,,-170,-180,180,180,302.5,-307.5,-307.5,302.5,785,90,M,Александр Францкевич,1975,SBD,Single-ply,Juniors
4,Aleksandr Khen,89.8,285,300,310,310,,185,192.5,197.5,197.5,260,270,-277.5,270,777.5,90,M,Александр Хен,1973,SBD,Single-ply,Juniors
5,Aleksandr Abramov,89.4,290,-300,-305,290,,185,195,200,200,275,285,-295,285,775,90,M,Александр Абрамов,1973,SBD,Single-ply,Juniors
6,Yuriy Ustinov,89.5,300,307.5,310,310,,175,-180,180,180,280,-295,-295,280,770,90,M,Юрий Устинов,1975,SBD,Single-ply,Juniors
7,Aleksey Moiseev,89.3,270,285,-300,285,,190,-200,200,200,250,265,-270,265,750,90,M,Алексей Моисеев,1974,SBD,Single-ply,Juniors
8,Vyacheslav Veretennikov,88.7,290,-300,-300,290,,-200,-200,200,200,250,-260,,250,740,90,M,Вячеслав Веретенников,1975,SBD,Single-ply,Juniors
9,Dmitriy Krasilnikov,89.5,280,290,-300,290,,165,172.5,185,185,245,255,265,265,740,90,M,Дмитрий Красильников,1975,SBD,Single-ply,Juniors
10,Mikhail Pivovarov,88.1,250,260,267.5,267.5,,185,195,205,205,222.5,250,262.5,262.5,735,90,M,Михаил Пивоваров,1975,SBD,Single-ply,Juniors
11,Gennadiy Shiryaev,89.8,280,290,295,295,,175,-182.5,-182.5,175,260,-267.5,,260,730,90,M,Геннадий Ширяев,1974,SBD,Single-ply,Juniors
12,Vyacheslav Kazantsev,88.7,245,260,270,270,,180,190,-200,190,-245,245,260,260,720,90,M,Вячеслав Казанцев,1977,SBD,Single-ply,Juniors
13,Vladimir Kuznetsov,89,270,280,285,285,,170,175,180,180,240,255,-265,255,720,90,M,Владимир Кузнецов,1974,SBD,Single-ply,Juniors
14,Oleg Kosenkov,88.9,232.5,240,245,245,,170,175,-180,175,-275,275,295,295,715,90,M,Олег Косенков,1974,SBD,Single-ply,Juniors
15,Stas Safonov,89.3,260,-270,270,270,,160,-165,165,165,260,270,280,280,715,90,M,Стас Сафонов,1973,SBD,Single-ply,Juniors
16,Aleksey Kozlov #1,89.5,240,-255,255,255,,170,180,190,190,260,270,-280,270,715,90,M,Алексей Козлов,,SBD,Single-ply,Juniors
17,Yuriy Fedorenko,88.7,240,255,260,260,,165,170,-175,170,265,280,,280,710,90,M,Юрий Федоренко,1974,SBD,Single-ply,Juniors
18,Andrey Semenov,89.2,235,250,260,260,,175,180,187.5,187.5,-235,247.5,255,255,702.5,90,M,Андрей Семенов,1974,SBD,Single-ply,Juniors
19,Nikolay Suslov,89,250,270,-285,270,,170,180,-182.5,180,230,245,250,250,700,90,M,Николай Суслов,1979,SBD,Single-ply,Juniors
20,Roman Garbuzov,84.2,235,-245,-245,235,,155,162.5,170,170,260,-280,-280,260,665,90,M,Роман Гарбузов,1976,SBD,Single-ply,Juniors
21,Dmitriy Greznev,89.7,-260,260,-270,260,,160,-165,-170,160,-240,240,-250,240,660,90,M,Дмитрий Грезнев,1974,SBD,Single-ply,Juniors
22,Grigoriy Shevchenko,88.8,225,235,-245,235,,130,140,-145,140,235,245,252.5,252.5,627.5,90,M,Григорий Шевченко,1977,SBD,Single-ply,Juniors
23,Vyacheslav Solod,88,210,230,-250,230,,130,140,150,150,200,215,225,225,605,90,M,Вячеслав Солод,1974,SBD,Single-ply,Juniors
24,Pavel Chuchkalov,89.6,200,-205,205,205,,155,-160,-160,155,210,-225,230,230,590,90,M,Павел Чучкалов,1976,SBD,Single-ply,Juniors
25,Igor Gureev,86.3,205,-215,215,215,,155,160,-165,160,200,-210,,200,575,90,M,Игорь Гуреев,1977,SBD,Single-ply,Juniors
26,Gennadiy Derimov,87.7,205,210,220,220,,120,125,-130,125,205,210,-215,210,555,90,M,Геннадий Деримов,1974,SBD,Single-ply,Juniors
27,Dmitriy Rudakov,87.7,-175,175,185,185,,140,145,-150,145,220,,,220,550,90,M,Дмитрий Рудаков,1975,SBD,Single-ply,Juniors
DQ,Andrey Kashlinov,89.2,210,240,-250,240,,-140,-150,-150,,,,,,,90,M,Андрей Кашлинов,1974,SBD,Single-ply,Juniors
G,Vyacheslav Lebedev,108,260,-270,270,270,,165,177.5,182.5,182.5,260,275,282.5,282.5,735,110,M,Вячеслав Лебедев,1972,SBD,Single-ply,Open
G,Aleksandr Mokin,88.9,235,250,-255,250,,185,195,200,200,235,245,-255,245,695,90,M,Александр Мокин,1968,SBD,Single-ply,Open
G,Aleksey Kozlov #1,89.5,225,235,-245,235,,130,140,-145,140,235,245,252.5,252.5,627.5,90,M,Алексей Козлов,1970,SBD,Single-ply,Open
1,Roman Shepelev,98.4,290,305,315,315,,190,197.5,202.5,202.5,320,330,340,340,857.5,100,M,Роман Шепелев,1975,SBD,Single-ply,Juniors
2,Oleg Demyakhin,98.75,315,322.5,,322.5,,195,200,202.5,202.5,312.5,-322.5,322.5,322.5,847.5,100,M,Олег Демяхин,1974,SBD,Single-ply,Juniors
3,Yuriy Maslov,99.55,275,285,295,295,,165,175,182.5,182.5,290,307.5,312.5,312.5,790,100,M,Юрий Маслов,1976,SBD,Single-ply,Juniors
4,Sergey Feoktistov,96.9,280,-295,300,300,,-170,-175,175,175,290,300,-310,300,775,100,M,Сергей Феоктистов,1974,SBD,Single-ply,Juniors
5,Denis Matveev,97.3,265,275,-280,275,,185,195,202.5,202.5,260,280,-285,280,757.5,100,M,Денис Матвеев,1975,SBD,Single-ply,Juniors
6,Vasiliy Babkin,98,270,-280,280,280,,150,157.5,162.5,162.5,287.5,-295,-295,287.5,730,100,M,Василий Бабкин,1974,SBD,Single-ply,Juniors
7,Evgeniy Borisov,96.65,250,-260,270,270,,160,170,180,180,-275,275,-290,275,725,100,M,Евгений Борисов,1973,SBD,Single-ply,Juniors
8,Mukharbek Khosroev,96.65,250,265,275,275,,190,-200,200,200,250,-262.5,-262.5,250,725,100,M,Мухарбек Хосроев,1973,SBD,Single-ply,Juniors
9,Konstantin Saplin,96.85,-240,250,-265,250,,150,155,160,160,260,270,-275,270,680,100,M,Константин Саплин,1977,SBD,Single-ply,Juniors
10,Evgeniy Grinvald,99.6,-240,-240,240,240,,170,180,-185,180,250,-260,,250,670,100,M,Евгений Гринвальд,1973,SBD,Single-ply,Juniors
DQ,Dmitriy Tsilev,100,290,300,305,305,,210,-215,215,215,-290,-290,-295,,,100,M,Дмитрий Цилёв,1974,SBD,Single-ply,Juniors
DQ,Eduard Eremkin,95.3,-300,-300,-300,,,,,,,,,,,,100,M,Эдуард Еремкин,1975,SBD,Single-ply,Juniors
1,Yevgeny Birun,105.6,305,320,-335,320,,182.5,190,192.5,192.5,322.5,340,342.5,342.5,855,110,M,Евгений Бирун,1973,SBD,Single-ply,Juniors
2,Alexey Samsonov,107.05,310,320,327.5,327.5,,235,242.5,247.5,247.5,280,-290,-290,280,855,110,M,Алексей Самсонов,1974,SBD,Single-ply,Juniors
3,Sergey Pavlovich,109.15,-330,330,-340,330,,180,-190,-190,180,300,310,-315,310,820,110,M,Сергей Павлович,1974,SBD,Single-ply,Juniors
4,Dmitriy Kudryavtsev,109,285,295,302.5,302.5,,197.5,202.5,-207.5,202.5,270,285,292.5,292.5,797.5,110,M,Дмитрий Кудрявцев,1976,SBD,Single-ply,Juniors
5,Mikhail Glushkov,108.35,300,310,315,315,,175,182.5,-187.5,182.5,270,282.5,292.5,292.5,790,110,M,Михаил Глушков,1973,SBD,Single-ply,Juniors
6,Dmitriy Sapatov,109.55,-280,290,300,300,,-190,200,-210,200,270,290,-300,290,790,110,M,Дмитрий Сапатов,1974,SBD,Single-ply,Juniors
7,Vladimir Ivanov,108,270,290,300,300,,180,190,-200,190,265,280,290,290,780,110,M,Владимир Иванов,1975,SBD,Single-ply,Juniors
8,Dmitriy Lashin,109.5,260,280,290,290,,180,190,-200,190,280,300,-320,300,780,110,M,Дмитрий Лашин,1977,SBD,Single-ply,Juniors
9,Maxim Mikhaylov,106.3,275,285,-290,285,,200,-207.5,207.5,207.5,270,285,,285,777.5,110,M,Максим Михайлов,1975,SBD,Single-ply,Juniors
10,Vyacheslav Petrunin,109.5,280,-300,300,300,,180,200,-205,200,270,-285,-285,270,770,110,M,Вячеслав Петрунин,1975,SBD,Single-ply,Juniors
11,Aleksey Skurikhin,102.2,280,-290,-290,280,,160,170,-180,170,290,300,-310,300,750,110,M,Алексей Скурихин,1976,SBD,Single-ply,Juniors
12,Grigoriy Alekyan,109.15,260,270,,270,,-185,-185,185,185,250,-260,,250,705,110,M,Григорий Алекян,1974,SBD,Single-ply,Juniors
13,Aleksandr Chaschukhin,101.6,220,235,240,240,,167.5,175,180,180,225,245,250,250,670,110,M,Александр Чащухин,1973,SBD,Single-ply,Juniors
G,Andrey Zhernitsin,82.05,-240,250,260,260,,150,155,-160,155,245,255,-265,255,670,82.5,M,Андрей Жерницин,1976,SBD,Single-ply,Open
1,Maxim Gurianov,122.1,315,327.5,335,335,,185,195,202.5,202.5,315,325,332.5,332.5,870,125,M,Максим Гурьянов,1975,SBD,Single-ply,Juniors
2,Alexey Nemkov,120.2,280,-290,290,290,,230,240,250,250,285,-297.5,297.5,297.5,837.5,125,M,Алексей Немков,1974,SBD,Single-ply,Juniors
3,Oleg Gagin,123.6,330,-342.5,-342.5,330,,195,202.5,207.5,207.5,-300,300,-310,300,837.5,125,M,Олег Гагин,1975,SBD,Single-ply,Juniors
4,Maksim Novikov,110.5,260,280,290,290,,170,175,180,180,270,305,-310,305,775,125,M,Максим Новиков,1976,SBD,Single-ply,Juniors
5,Elbrus Nigmatullin,114.4,-270,270,280,280,,170,180,-185,180,300,315,-320,315,775,125,M,Эльбрус Нигматуллин,1974,SBD,Single-ply,Juniors
6,Sergey Shved,114.8,-280,280,-300,280,,192.5,-202.5,-202.5,192.5,300,-320,,300,772.5,125,M,Сергей Швед,1974,SBD,Single-ply,Juniors
7,Grigoriy Frich,121.8,275,290,-300,290,,170,180,190,190,265,280,290,290,770,125,M,Григорий Фрич,1975,SBD,Single-ply,Juniors
8,Dmitriy Gribov,110.2,215,235,245,245,,140,150,-160,150,250,265,-275,265,660,125,M,Дмитрий Грибов,1974,SBD,Single-ply,Juniors
G,Aleksandr Kiselev,59.95,-202.5,202.5,-205,202.5,,107.5,112.5,115,115,202.5,,,202.5,520,60,M,Александр Киселев,1974,SBD,Single-ply,Open
1,Roman Ukraintsev,138,-330,-330,330,330,,220,,,220,330,,,330,880,125+,M,Роман Украинцев,1977,SBD,Single-ply,Juniors
2,Vyacheslav Kalinin,135,280,300,-320,300,,180,190,-200,190,250,-275,-275,250,740,125+,M,Вячеслав Калинин,1973,SBD,Single-ply,Juniors
1,Rimma Vafina,44,105,112.5,-117.5,112.5,,55,60,-62.5,60,105,-112.5,112.5,112.5,285,44,F,Римма Вафина,1980,SBD,Single-ply,Juniors
2,Larisa Eynenkel,43.75,100,-105,-105,100,,-55,55,60,60,110,115,120,120,280,44,F,Лариса Эйненкель,1974,SBD,Single-ply,Juniors
3,Tatyana Kocheulova,44,100,107.5,112.5,112.5,,37.5,42.5,-45,42.5,100,115,-120,115,270,44,F,Татьяна Кочеулова,1981,SBD,Single-ply,Juniors
4,Irina Neustroeva,44,-90,95,100,100,,37.5,42.5,-45,42.5,102.5,110,-112.5,110,252.5,44,F,Ирина Неустроева,1973,SBD,Single-ply,Juniors
5,Mariya Scherbinkina,43.5,85,90,95,95,,37.5,40,-42.5,40,107.5,-115,-115,107.5,242.5,44,F,Мария Щербинкина,1973,SBD,Single-ply,Juniors
6,Svetlana Ulyanova,43.9,85,90,95,95,,40,45,-47.5,45,90,95,100,100,240,44,F,Светлана Ульянова,1979,SBD,Single-ply,Juniors
DQ,Natalya Scherbakova,43.4,-100,-107.5,-107.5,,,,,,,,,,,,44,F,Наталья Щербакова,1976,SBD,Single-ply,Juniors
DQ,Alevtina Batueva,44,-100,-105,-115,,,,,,,,,,,,44,F,Алевтина Батуева,1971,SBD,Single-ply,Open
1,Irina Tatarova,47.6,-142.5,142.5,153,153,,70,72.5,75,75,130,135,140,140,368,48,F,Ирина Татарова,1975,SBD,Single-ply,Juniors
2,Svetlana Nikolaenko,47.15,-140,-140,140,140,,70,77.5,-80,77.5,115,122.5,-130,122.5,340,48,F,Светлана Николаенко,1979,SBD,Single-ply,Juniors
3,Natalia I,47.4,110,-115,-120,110,,52.5,57.5,-60,57.5,130,140,142.5,142.5,310,48,F,Наталья И,1978,SBD,Single-ply,Juniors
4,Natalya Solomonyuk,47.6,-100,-105,107.5,107.5,,52.5,57.5,-60,57.5,115,120,125,125,290,48,F,Наталья Соломонюк,1982,SBD,Single-ply,Juniors
5,Viktoriya Makarova,48,-115,-115,115,115,,-50,55,-60,55,110,-120,-120,110,280,48,F,Виктория Макарова,1979,SBD,Single-ply,Juniors
6,Larysa Ivanova,48,100,110,-115,110,,60,65,-67.5,65,100,-110,-115,100,275,48,F,Лариса Іванова,1978,SBD,Single-ply,Juniors
7,Evgeniya Filippova,47.4,-105,-105,105,105,,55,60,-62.5,60,90,100,-107.5,100,265,48,F,Евгения Филиппова,1978,SBD,Single-ply,Juniors
8,Natalya Zherebtsova,47.9,-80,80,-85,80,,42.5,-47.5,47.5,47.5,85,92.5,97.5,97.5,225,48,F,Наталья Жеребцова,1977,SBD,Single-ply,Juniors
9,Viktoriya Primenko,48,90,-97.5,-100,90,,-35,-35,35,35,80,95,100,100,225,48,F,Виктория Применко,1981,SBD,Single-ply,Juniors
DQ,Olga Yakovleva,48,-80,-85,-85,,,,,,,,,,,,48,F,Ольга Яковлева,1980,SBD,Single-ply,Juniors
DQ,Viktoriya Serikova,46.25,95,-97.5,97.5,97.5,,-45,-45,-45,,,,,,,48,F,Виктория Серикова,1981,SBD,Single-ply,Juniors
DQ,Yuliya Yablonskaya,47.75,85,92.5,97.5,97.5,,-67.5,-67.5,-67.5,,,,,,,48,F,Юлия Яблонская,1975,SBD,Single-ply,Juniors
DQ,Natalya Popova,45.4,95,-100,-100,95,,-42.5,-42.5,-42.5,,,,,,,48,F,Наталья Попова,1981,SBD,Single-ply,Juniors
1,Elena Petrunina,51.6,130,140,150,150,,65,70,75,75,130,140,145,145,370,52,F,Елена Петрунина,1976,SBD,Single-ply,Juniors
2,Tatyana Eltsova,49.5,132.5,140,-147.5,140,,67.5,70,-75,70,135,140,145,145,355,52,F,Татьяна Ельцова,1978,SBD,Single-ply,Juniors
3,Elena Smolina,51.3,115,120,-125,120,,65,-70,70,70,120,-125,-125,120,310,52,F,Елена Смолина,1973,SBD,Single-ply,Juniors
4,Gulnara Yumasheva,51.5,-90,100,110,110,,-50,50,60,60,100,112.5,125,125,295,52,F,Гульнара Юмашева,1977,SBD,Single-ply,Juniors
5,Tatyana Alekhina,51.5,-90,100,110,110,,-50,50,60,60,100,112.5,125,125,295,52,F,Татьяна Алехина,1979,SBD,Single-ply,Juniors
6,Albina Enshteyn,50.95,80,-90,95,95,,45,-50,52.5,52.5,95,110,-117.5,110,257.5,52,F,Альбина Энштейн,1972,SBD,Single-ply,Juniors
1,Diana Sidorova,55.5,152.5,162.5,167.5,167.5,,70,72.5,75,75,145,152.5,157.5,157.5,400,56,F,Диана Сидорова,1975,SBD,Single-ply,Juniors
2,Irina Abramova,55.65,132.5,145,150,150,,67.5,72.5,-75,72.5,147.5,155,157.5,157.5,380,56,F,Ирина Абрамова,1974,SBD,Single-ply,Juniors
3,Yelena Grigoryeva,56,150,160,162.5,162.5,,70,-75,-75,70,140,145,-147.5,145,377.5,56,F,Елена Григорьева,1976,SBD,Single-ply,Juniors
4,Irina Semakhina,55.3,120,130,140,140,,-80,80,85,85,140,147.5,-155,147.5,372.5,56,F,Ирина Семахина,1975,SBD,Single-ply,Juniors
5,Tatyana Korobkova,56,130,-135,135,135,,60,65,-67.5,65,130,140,-145,140,340,56,F,Татьяна Коробкова,1975,SBD,Single-ply,Juniors
6,Elena Bolsheborodova,55.3,122.5,137.5,-142.5,137.5,,-57.5,57.5,-60,57.5,135,140,-145,140,335,56,F,Елена Большебородова,1974,SBD,Single-ply,Juniors
7,Tatyana Popova,56,110,-120,120,120,,60,67.5,-70,67.5,115,125,-130,125,312.5,56,F,Татьяна Попова,1975,SBD,Single-ply,Juniors
8,Svetlana Belousova,54.1,95,-105,105,105,,60,62.5,-65,62.5,135,142.5,-147.5,142.5,310,56,F,Светлана Белоусова,1974,SBD,Single-ply,Juniors
9,Valeriya Bunova,55.1,112.5,115,117.5,117.5,,62.5,65,-67.5,65,102.5,107.5,112.5,112.5,295,56,F,Валерия Бунова,1976,SBD,Single-ply,Juniors
10,Anna Kirova,55.8,85,90,-92.5,90,,65,67.5,,67.5,127.5,135,-140,135,292.5,56,F,Анна Кирова,1974,SBD,Single-ply,Juniors
11,Yuliya Bessonova,54.8,75,82.5,87.5,87.5,,62.5,-67.5,-67.5,62.5,100,110,-112.5,110,260,56,F,Юлия Бессонова,1973,SBD,Single-ply,Juniors
12,Nadezhda Zaytseva,56,85,92.5,100,100,,42.5,-47.5,47.5,47.5,90,97.5,-102.5,97.5,245,56,F,Надежда Зайцева,1981,SBD,Single-ply,Juniors
13,Svetlana Makashova,53.8,65,70,75,75,,35,-40,-40,35,85,92.5,-100,92.5,202.5,56,F,Светлана Макашова,1981,SBD,Single-ply,Juniors
DQ,Vera Serikova,54.8,-75,-75,-75,,,,,,,,,,,,56,F,Вера Серикова,1979,SBD,Single-ply,Juniors
G,Elena Bushueva,55,127.5,132.5,135,135,,67.5,70,72.5,72.5,120,132.5,,132.5,340,56,F,Елена Бушуева,1972,SBD,Single-ply,Open
1,Marina Kudinova,59.4,175,182.5,,182.5,,90,100,,100,170,-180,,170,452.5,60,F,Марина Кудинова,1977,SBD,Single-ply,Juniors
2,Yelena Inshakova,59.75,140,150,160,160,,85,90,95,95,172.5,177.5,-182.5,177.5,432.5,60,F,Елена Иншакова,1975,SBD,Single-ply,Juniors
3,Olga Kotelnikova,60,155,-165,-165,155,,85,90,95,95,145,155,-160,155,405,60,F,Ольга Котельникова,1977,SBD,Single-ply,Juniors
4,Svetlana Samokhina,59.2,125,-132.5,-132.5,125,,75,80,-85,80,130,142.5,-147.5,142.5,347.5,60,F,Светлана Самохина,1975,SBD,Single-ply,Juniors
5,Tatyana Makhova,58.75,120,125,-130,125,,55,60,-62.5,60,140,150,-155,150,335,60,F,Татьяна Махова,1976,SBD,Single-ply,Juniors
6,Elena Kokorina,59.8,90,-105,-105,90,,45,50,52.5,52.5,100,-107.5,,100,242.5,60,F,Елена Кокорина,1980,SBD,Single-ply,Juniors
DQ,Olga Baryshnikova,60,140,-145,-155,140,,-92.5,-92.5,,,,,,,,60,F,Ольга Барышникова,1975,SBD,Single-ply,Juniors
G,Yuliya Yablonskaya,47.5,85,92.5,-95,92.5,,60,65,-67.5,65,-115,125,127.5,127.5,285,48,F,Юлия Яблонская,1975,SBD,Single-ply,Open
1,Tatyana Mescheryakova,67.1,180,190,-200,190,,100,110,-115,110,180,192.5,-200,192.5,492.5,67.5,F,Татьяна Мещерякова,1974,SBD,Single-ply,Juniors
2,Olga Mikhaylova,66.5,150,-160,165,165,,80,87.5,92.5,92.5,140,160,-170,160,417.5,67.5,F,Ольга Михайлова,1976,SBD,Single-ply,Juniors
3,Evgeniya Monogarova,65.8,90,-100,100,100,,40,-45,45,45,100,110,115,115,260,67.5,F,Евгения Моногарова,1981,SBD,Single-ply,Juniors
DQ,Elena Melikhova,65,-90,-95,-95,,,,,,,,,,,,67.5,F,Елена Мелихова,1972,SBD,Single-ply,Juniors
DQ,Olga Litvintseva,67.5,-130,-130,-135,,,,,,,,,,,,67.5,F,Ольга Литвинцева,1977,SBD,Single-ply,Juniors
DQ,Marina Borisova,63.5,-160,-160,-160,,,,,,,,,,,,67.5,F,Марина Борисова,1976,SBD,Single-ply,Juniors
DQ,Yuliya Feruleva,64,-150,-155,-155,,,,,,,,,,,,67.5,F,Юлия Ферулева,1979,SBD,Single-ply,Juniors
G,Galina Karpova,66.3,155,160,165,165,,82.5,-87.5,-87.5,82.5,152.5,160,-167.5,160,407.5,67.5,F,Галина Карпова,1968,SBD,Single-ply,Open
1,Natalya Zotova-Payusova,74.5,185,195,202.5,202.5,,-125,125,130,130,185,192.5,197.5,197.5,530,75,F,Наталья Зотова-Паюсова,1975,SBD,Single-ply,Juniors
2,Elena Yurik,73.7,185,195,-200,195,,115,120,-122.5,120,195,210,-215,210,525,75,F,Елена Юрик,1977,SBD,Single-ply,Juniors
3,Ekaterina Krapivina,74.3,132.5,140,147.5,147.5,,67.5,-70,-70,67.5,-135,135,145,145,360,75,F,Екатерина Крапивина,1975,SBD,Single-ply,Juniors
4,Yuliya Matveeva,67.7,82.5,87.5,92.5,92.5,,50,-55,-55,50,95,102.5,107.5,107.5,250,75,F,Юлия Матвеева,1981,SBD,Single-ply,Juniors
5,Svetlana Tsapko,73.2,65,-70,70,70,,35,-40,40,40,100,-110,-110,100,210,75,F,Светлана Цапко,1978,SBD,Single-ply,Juniors
1,Olesya Rychkova,76.2,-170,180,185,185,,100,-107.5,107.5,107.5,165,180,190,190,482.5,82.5,F,Олеся Рычкова,1974,SBD,Single-ply,Juniors
2,Yuliya Gravit,75.05,150,160,-165,160,,75,-80,-80,75,160,167.5,-175,167.5,402.5,82.5,F,Юлия Гравит,1974,SBD,Single-ply,Juniors
3,Elena Moiseeva,75.2,85,105,-107.5,105,,45,55,57.5,57.5,90,105,-115,105,267.5,82.5,F,Елена Моисеева,1979,SBD,Single-ply,Juniors
1,Elena Kurbakova,90.9,135,150,-160,150,,95,100,106,106,150,-155,,150,406,90+,F,Елена Курбакова,1976,SBD,Single-ply,Juniors
2,Natalya Rodina,100.2,110,125,-137.5,125,,45,50,-52.5,50,115,125,135,135,310,90+,F,Наталья Родина,1976,SBD,Single-ply,Juniors
