WeightClassKg,Name,CyrillicName,BirthDate,BirthYear,Tested,Sex,Event,Equipment,BodyweightKg,Division,Squat1Kg,Squat2Kg,Squat3Kg,Best3SquatKg,Squat4Kg,Bench1Kg,Bench2Kg,Bench3Kg,Best3BenchKg,Bench4Kg,Deadlift1Kg,Deadlift2Kg,Deadlift3Kg,Best3DeadliftKg,TotalKg,Place
48,Natalya Mazilova,Наталья Мазилова,1986-07-08,,Yes,F,B,Raw,46.8,Amateur Juniors 20-23,,,,,,50,55,60,60,,,,,,60,1
67.5,Aleksey Nazarenko,Алексей Назаренко,1989-03-15,,Yes,M,B,Raw,63.5,Amateur Teen 16-17,,,,,,140,145,-150,145,,,,,,145,1
67.5,Nikita Khusainov,Никита Хусаинов,1989-05-18,,Yes,M,B,Raw,64.85,Amateur Teen 16-17,,,,,,110,115,,115,,,,,,115,1
52,Nikolay Lazaridi,Николай Лазариди,1988-11-02,,Yes,M,B,Raw,47.3,Amateur Teen 18-19,,,,,,60,65,,65,,,,,,65,1
75,Dmitriy Anori,Дмитрий Анори,1988-04-24,,Yes,M,B,Raw,70.25,Amateur Teen 18-19,,,,,,110,-120,-120,110,,,,,,110,2
60,Soslan Dzagoev,Сослан Дзагоев,1986-12-25,,Yes,M,B,Raw,59.65,Amateur Juniors 20-23,,,,,,85,87.5,,87.5,,,,,,87.5,1
67.5,Soslan Togoev,Сослан Тогоев,1986-07-16,,Yes,M,B,Raw,65.7,Amateur Juniors 20-23,,,,,,100,105,107.5,107.5,,,,,,107.5,1
75,Ivan Shiryaev,Иван Ширяев,1985-12-27,,Yes,M,B,Raw,70.95,Amateur Juniors 20-23,,,,,,115,125,130,130,,,,,,130,1
82.5,Alan Khinchagov,Алан Хинчагов,1985-06-03,,Yes,M,B,Raw,81.9,Amateur Juniors 20-23,,,,,,-140,140,-150,140,,,,,,140,1
75,Rustem Khusainov,Рустем Хусаинов,1974-02-01,,Yes,M,B,Raw,73.1,Amateur Open,,,,,,-120,120,125,125,,,,,,125,1
75,Viktor Kosenko,Виктор Косенко,1972-03-30,,Yes,M,B,Raw,73.25,Amateur Open,,,,,,105,-110,-112.5,105,,,,,,105,2
82.5,Pavel Kokorin,Павел Кокорин,1980-09-14,,Yes,M,B,Raw,81.6,Amateur Open,,,,,,145,-150,150,150,,,,,,150,1
90,Mikhail Veber,Михаил Вебер,1971-07-29,,Yes,M,B,Raw,87.55,Amateur Open,,,,,,180,-190,,180,,,,,,180,1
100,Andrey Budanov,Андрей Буданов,1971-08-20,,Yes,M,B,Raw,98.75,Amateur Open,,,,,,200,-210,-210,200,,,,,,200,1
125,Sergey Lukyanov,Сергей Лукьянов,1973-05-27,,Yes,M,B,Raw,114.2,Amateur Open,,,,,,190,200,207.5,207.5,,,,,,207.5,1
75,Yuriy Emelyanov,Юрий Емельянов,1958-03-06,,Yes,M,B,Raw,73.65,Amateur Masters 45-49,,,,,,145,150,-152.5,150,,,,,,150,1
110,Vladimir Korniets,Владимир Корниец,1954-01-21,,Yes,M,B,Raw,109.2,Amateur Masters 50-54,,,,,,120,-135,135,135,,,,,,135,1
90,Valeriy Nagibin,Валерий Нагибин,1948-05-02,,Yes,M,B,Raw,88.45,Amateur Masters 55-59,,,,,,105,-110,-110,105,,,,,,105,1
75,Evgeniy Petukhov,Евгений Петухов,1938-10-16,,Yes,M,B,Raw,72.65,Amateur Masters 65-69,,,,,,120,125,127.5,127.5,,,,,,127.5,1
90,Vladimir Malyshev,Владимир Малышев,1936-09-07,,Yes,M,B,Raw,83.45,Amateur Masters 70-74,,,,,,110,115,120,120,,,,,,120,1
56,Marina Shityakova,Марина Шитякова,1987-03-31,,Yes,M,B,Raw,52.8,Amateur Teen 18-19,,,,,,50,55,-57.5,55,,,,,,55,1
52,Dmitriy Didenko,Дмитрий Диденко,1993-08-26,,Yes,M,B,Raw,51.9,Amateur Teen 13-15,,,,,,65,70,-72.5,70,,,,,,70,1
67.5,Sergey Lyashenko,Сергей Ляшенко,1991-08-12,,Yes,M,B,Raw,67.3,Amateur Teen 13-15,,,,,,87.5,95,100,100,,,,,,100,1
67.5,Kirill Mozharovskiy,Кирилл Можаровский,1991-06-20,,Yes,M,B,Raw,64.5,Amateur Teen 13-15,,,,,,82.5,-95,-95,82.5,,,,,,82.5,2
90,Evgeniy Panferov,Евгений Панферов,1991-03-31,,Yes,M,B,Raw,87.4,Amateur Teen 13-15,,,,,,130,-135,-135,130,,,,,,130,1
67.5,Ivan Korolev,Иван Королев,1987-06-07,,Yes,M,B,Multi-ply,66.05,Amateur Teen 18-19,,,,,,130,137.5,-145,137.5,,,,,,137.5,1
67.5,Oleg Vremya,Олег Время,1987-03-03,,Yes,M,B,Multi-ply,67,Amateur Teen 18-19,,,,,,120,130,-140,130,,,,,,130,2
67.5,Evgeniy Smetanin,Евгений Сметанин,1987-08-06,,Yes,M,B,Multi-ply,65.9,Amateur Teen 18-19,,,,,,110,-120,-120,110,,,,,,110,3
52,Ramil Muftakhov,Рамиль Муфтахов,1986-12-18,,Yes,M,B,Multi-ply,49.2,Amateur Juniors 20-23,,,,,,-75,75,80,80,,,,,,80,1
60,Andrey Yanushkevich,Андрей Янушкевич,1984-02-17,,Yes,M,B,Multi-ply,59.7,Amateur Juniors 20-23,,,,,,120,130,132.5,132.5,,,,,,132.5,1
67.5,Ravil Masalimov,Равиль Масалимов,1985-02-27,,Yes,M,B,Multi-ply,63.2,Amateur Juniors 20-23,,,,,,125,130,-140,130,,,,,,130,1
67.5,Dmitriy Tilipan,Дмитрий Тилипан,1985-07-17,,Yes,M,B,Multi-ply,63.95,Amateur Juniors 20-23,,,,,,-105,-105,-105,,,,,,,,DQ
82.5,Marat Abdullin,Марат Абдуллин,1985-07-21,,Yes,M,B,Multi-ply,78.95,Amateur Juniors 20-23,,,,,,-185,190,205,205,,,,,,205,1
56,Igor Artemyev,Игорь Артемьев,1971-12-22,,Yes,M,B,Multi-ply,55.6,Amateur Open,,,,,,-135,135,140,140,,,,,,140,1
60,Oleg Artemyev,Олег Артемьев,1971-12-22,,Yes,M,B,Multi-ply,58.3,Amateur Open,,,,,,130,137.5,,137.5,,,,,,137.5,1
67.5,Dmitriy Matosyan,Дмитрий Матосян,1976-04-02,,Yes,M,B,Multi-ply,65.2,Amateur Open,,,,,,-130,135,-145,135,,,,,,135,7
75,Dmitriy Avdyukhin,Дмитрий Авдюхин,1981-08-08,,Yes,M,B,Multi-ply,71.55,Amateur Open,,,,,,-135,135,-165,135,,,,,,135,6
90,Mikhail Veber,Михаил Вебер,1971-07-29,,Yes,M,B,Multi-ply,87.55,Amateur Open,,,,,,210,-220,-225,210,,,,,,210,2
90,Sergey Fedotov,Сергей Федотов,1981-05-03,,Yes,M,B,Multi-ply,87.55,Amateur Open,,,,,,-180,180,-192.5,180,,,,,,180,3
100,Vladimir Fil,Владимир Филь,1976-12-21,,Yes,M,B,Multi-ply,99.25,Amateur Open,,,,,,-215,-215,-215,,,,,,,,DQ
110,Andrey Likhman,Андрей Лихман,1977-05-01,,Yes,M,B,Multi-ply,108.6,Amateur Open,,,,,,-210,210,-220,210,,,,,,210,2
140,Vladimir Sushchak,Владимир Сущак,1972-09-25,,Yes,M,B,Multi-ply,129.6,Amateur Open,,,,,,-242.5,252.5,-257.5,252.5,,,,,,252.5,1
100,Oleg Kholodov,Олег Холодов,1961-11-27,,Yes,M,B,Multi-ply,92.9,Amateur Masters 45-49,,,,,,145,160,-170,160,,,,,,160,1
75,Evgeniy Petukhov,Евгений Петухов,1938-10-16,,Yes,M,B,Multi-ply,72.65,Amateur Masters 65-69,,,,,,135,145,-150,145,,,,,,145,1
56,Anna Adrianova,Анна Адрианова,,,Yes,F,SBD,Wraps,55.1,Amateur Open,55,60,65,65,,-45,45,47.5,47.5,,90,105,112.5,112.5,225,1
90,Ekaterina Yavorskaya,Екатерина Яворская,1980-07-13,,Yes,F,SBD,Wraps,87.5,Amateur Open,50,60,67.5,67.5,,45,47.5,-50,47.5,,100,110,120,120,235,1
67.5,Nikita Khusainov,Никита Хусаинов,1989-05-18,,Yes,M,SBD,Wraps,65.3,Amateur Teen 16-17,130,140,150,150,,110,115,-120,115,,150,160,-170,160,425,1
60,Soslan Dzagoev,Сослан Дзагоев,1986-12-25,,Yes,M,SBD,Wraps,60,Amateur Juniors 20-23,130,135,140,140,,80,85,-90,85,,140,150,,150,375,1
60,Oleg Artemyev,Олег Артемьев,1971-12-22,,Yes,M,SBD,Wraps,58.2,Amateur Open,132.5,142.5,150,150,,112.5,120,125,125,,145,160,165,165,440,1
82.5,Andrey Mochalov,Андрей Мочалов,1974-06-26,,Yes,M,SBD,Wraps,79.1,Amateur Open,210,220,230,230,,110,120,,120,,250,270,280,280,630,1
82.5,Dmitriy Lukyanov,Дмитрий Лукьянов,1982-09-28,,Yes,M,SBD,Wraps,81.6,Amateur Open,175,185,200,200,,130,140,-150,140,,190,210,230,230,570,2
90,Dmitriy Paltser,Дмитрий Пальцер,1976-11-28,,Yes,M,SBD,Wraps,88.4,Amateur Open,150,160,170,170,,125,135,-142.5,135,,170,190,215,215,520,1
100,Nikolay Mokeev,Николай Мокеев,1980-10-18,,Yes,M,SBD,Wraps,99.1,Amateur Open,220,235,240,240,,160,170,175,175,,215,225,-230,225,640,1
125,Sergey Lukyanov,Сергей Лукьянов,1973-05-27,,Yes,M,SBD,Wraps,114.5,Amateur Open,235,245,250,250,,195,200,205,205,,235,245,255,255,710,1
52,Kseniya Bulygina,Ксения Булыгина,1988-03-20,,Yes,F,SBD,Multi-ply,51.8,Amateur Teen 18-19,80,87.5,95,95,,50,55,60,60,,80,95,102.5,102.5,257.5,2
48,Mariya Novikova,Мария Новикова,1981-06-04,,Yes,F,SBD,Multi-ply,46.2,Amateur Open,80,90,95,95,,47.5,50,55,55,,80,95,102.5,102.5,252.5,2
52,Mariya Shtin,Мария Штин,1980-01-28,,Yes,F,SBD,Multi-ply,50.9,Amateur Open,85,95,105,105,,-65,65,-70,65,,95,110,125,125,295,3
52,Dmitriy Didenko,Дмитрий Диденко,1993-08-21,,Yes,M,SBD,Multi-ply,51.8,Amateur Teen 13-15,90,100,110,110,,65,-70,70,70,,90,100,110,110,290,1
67.5,Kirill Mozharovskiy,Кирилл Можаровский,1991-06-20,,Yes,M,SBD,Multi-ply,64,Amateur Teen 13-15,140,160,165,165,,82.5,95,-97.5,95,,140,155,,155,415,1
67.5,Sergey Lyashenko,Сергей Ляшенко,1991-08-12,,Yes,M,SBD,Multi-ply,67.3,Amateur Teen 13-15,130,150,-157.5,150,,82.5,95,-100,95,,140,155,165,165,410,2
90,Evgeniy Panferov,Евгений Панферов,1991-03-31,,Yes,M,SBD,Multi-ply,89.1,Amateur Teen 13-15,200,220,230,230,,125,130,135,135,,190,200,-210,200,565,1
60,Oleg Kichuk,Олег Кичук,1989-11-15,,Yes,M,SBD,Multi-ply,59.4,Amateur Teen 16-17,-140,145,150,150,,-82.5,82.5,87.5,87.5,,140,-160,160,160,397.5,1
67.5,Dmitriy Trunov,Дмитрий Трунов,1989-04-06,,Yes,M,SBD,Multi-ply,64.6,Amateur Teen 16-17,-170,170,-175,170,,100,105,-107.5,105,,180,-190,190,190,465,1
67.5,Evgeniy Chereponko,Евгений Черепонько,1989-03-06,,Yes,M,SBD,Multi-ply,64.7,Amateur Teen 16-17,140,145,,145,,80,87.5,-90,87.5,,160,180,,180,412.5,2
67.5,Ivan Korolev,Иван Королев,1987-06-07,,Yes,M,SBD,Multi-ply,66.8,Amateur Teen 18-19,180,192.5,205,205,,130,137.5,-142.5,137.5,,180,190,-207.5,190,532.5,1
82.5,Denis Lyalin,Денис Лялин,1987-10-07,,Yes,M,SBD,Multi-ply,82.2,Amateur Teen 18-19,210,220,-225,220,,130,-135,-135,130,,-190,190,202.5,202.5,552.5,1
60,Andrey Yanushkevich,Андрей Янушкевич,1984-02-17,,Yes,M,SBD,Multi-ply,59.9,Amateur Juniors 20-23,170,190,205,205,,120,130,-135,130,,190,-200,,190,525,1
60,Soslan Dzagoev,Сослан Дзагоев,1986-12-25,,Yes,M,SBD,Multi-ply,60,Amateur Juniors 20-23,170,180,185,185,,85,90,,90,,155,165,-180,165,440,2
56,Igor Artemyev,Игорь Артемьев,1971-12-22,,Yes,M,SBD,Multi-ply,55.4,Amateur Open,165,172.5,180,180,,132.5,-140,-140,132.5,,165,172.5,177.5,177.5,490,2
100,Aleksey Samburov,Алексей Самбуров,1975-09-23,,Yes,M,SBD,Multi-ply,96.1,Amateur Open,220,240,255,255,,135,145,152.5,152.5,,210,225,-232.5,225,632.5,6
140,Vladimir Sushchak,Владимир Сущак,1972-09-25,,Yes,M,SBD,Multi-ply,127.8,Amateur Open,260,,,260,,230,240,250,250,,260,,,260,770,2
52,Lyudmila Grishechkina,Людмила Гришечкина,1989-06-13,,No,F,B,Multi-ply,50.6,Pro Teen 16-17,,,,,,55,62.5,-65,62.5,,,,,,62.5,1
56,Alena Podelko,Алёна Поделко,1990-09-12,,No,F,B,Multi-ply,53.2,Pro Teen 16-17,,,,,,42.5,-55,-55,42.5,,,,,,42.5,1
60,Anna Kaveshnikova,Анна Кавешникова,1989-05-03,,No,F,B,Multi-ply,58.2,Pro Teen 16-17,,,,,,50,-65,-67.5,50,,,,,,50,1
52,Darya Isaeva,Дарья Исаева,1987-10-09,,No,F,B,Multi-ply,50.8,Pro Teen 18-19,,,,,,45,-55,-55,45,,,,,,45,1
56,Margarita Gass,Маргарита Гасс,1988-02-11,,No,F,B,Multi-ply,54.35,Pro Teen 18-19,,,,,,65,72.5,-77.5,72.5,,,,,,72.5,1
75,Elena Tokareva,Елена Токарева,1988-06-04,,No,F,B,Multi-ply,69.25,Pro Teen 18-19,,,,,,72.5,-80.5,-80.5,72.5,,,,,,72.5,1
48,Marina Zotova,Марина Зотова,1983-09-23,,No,F,B,Multi-ply,47.65,Pro Juniors 20-23,,,,,,80,-85,85,85,,,,,,85,1
48,Oksana Epifanova,Оксана Епифанова,1985-05-22,,No,F,B,Multi-ply,47.5,Pro Juniors 20-23,,,,,,42.5,-60,60,60,,,,,,60,2
56,Mariya Stepanova,Мария Степанова,1983-11-13,,No,F,B,Multi-ply,55.75,Pro Juniors 20-23,,,,,,70,77.5,-80,77.5,,,,,,77.5,1
56,Anna Ogorodnikova,Анна Огородникова,1984-08-22,,No,F,B,Multi-ply,53.35,Pro Juniors 20-23,,,,,,45,50,52.5,52.5,,,,,,52.5,2
56,Inna Shmakova,Инна Шмакова,1986-07-04,,No,F,B,Multi-ply,53.7,Pro Juniors 20-23,,,,,,50,-57.5,-57.5,50,,,,,,50,3
60,Nadezhda Kondratova,Надежда Кондратова,1986-06-15,,No,F,B,Multi-ply,59.8,Pro Juniors 20-23,,,,,,75,-82.5,82.5,82.5,,,,,,82.5,1
67.5,Yuliya Dubrovina,Юлия Дубровина,1983-07-14,,No,F,B,Multi-ply,63.75,Pro Juniors 20-23,,,,,,70,77.5,-80.5,77.5,,,,,,77.5,1
67.5,Olga Ponomareva,Ольга Пономарева,1983-07-18,,No,F,B,Multi-ply,66.75,Pro Juniors 20-23,,,,,,-62.5,62.5,-80,62.5,,,,,,62.5,2
48,Margarita Dzina,Маргарита Дзина,1969-04-09,,No,F,B,Multi-ply,48,Pro Open,,,,,,67.5,-72.5,72.5,72.5,,,,,,72.5,1
52,Nadezhda Zabolotskaya,Надежда Заболоцкая,1981-09-03,,No,F,B,Multi-ply,51.6,Pro Open,,,,,,77.5,82.5,87.5,87.5,90,,,,,87.5,1
52,Veronika Timina,Вероника Тимина,1972-04-23,,No,F,B,Multi-ply,51.9,Pro Open,,,,,,65,-72.5,-72.5,65,,,,,,65,2
56,Marina Gileva,Марина Гилева,1973-07-02,,No,F,B,Multi-ply,53.8,Pro Open,,,,,,65,-70,70,70,,,,,,70,1
56,Galina Stepanovich,Галина Степанович,1976-02-23,,No,F,B,Multi-ply,55.4,Pro Open,,,,,,-80,-85,-92.5,,,,,,,,DQ
67.5,Olga Gorovenko,Ольга Горовенко,1979-10-24,,No,F,B,Multi-ply,65.65,Pro Open,,,,,,90,102.5,107.5,107.5,,,,,,107.5,1
67.5,Larisa Rasskazova,Лариса Рассказова,1966-02-20,,No,F,B,Multi-ply,63.5,Pro Open,,,,,,90,95,102.5,102.5,,,,,,102.5,2
75,Svetlana Sinacheva,Светлана Синачева,1966-12-15,,No,F,B,Multi-ply,73.7,Pro Open,,,,,,75,-80,-80,75,,,,,,75,1
75,Svetlana Sinacheva,Светлана Синачева,1966-12-15,,No,F,B,Multi-ply,73.7,Pro Masters 40-44,,,,,,75,-80,-80,75,,,,,,75,1
52,Yuliya Epifanova,Юлия Епифанова,1961-05-11,,No,F,B,Multi-ply,52,Pro Masters 45-49,,,,,,-45,45,-67.5,45,,,,,,45,1
67.5,Levon Sargsyan,Левон Саргсян,1991-12-03,,No,M,B,Multi-ply,66.9,Pro Teen 13-15,,,,,,132.5,145,150,150,,,,,,150,1
67.5,Petr Chukhaev,Петр Чухаев,1991-03-20,,No,M,B,Multi-ply,66.4,Pro Teen 13-15,,,,,,65,70,77.5,77.5,,,,,,77.5,2
52,Sergey Aleksandrov,Сергей Александров,1989-09-27,,No,M,B,Multi-ply,50.25,Pro Teen 16-17,,,,,,65,,,65,,,,,,65,1
60,Narek Ispiryan,Нарек Испирян,1989-07-09,,No,M,B,Multi-ply,56.75,Pro Teen 16-17,,,,,,115,120,-122.5,120,,,,,,120,1
67.5,Aleksandr Mirzayanov,Александр Мирзаянов,1990-01-26,,No,M,B,Multi-ply,60.9,Pro Teen 16-17,,,,,,60,70,72.5,72.5,,,,,,72.5,1
75,Konstantin Khrushchev,Константин Хрущев,1989-12-10,,No,M,B,Multi-ply,71.1,Pro Teen 16-17,,,,,,110,117.5,122.5,122.5,,,,,,122.5,1
75,Ilya Chudin,Илья Чудин,1990-06-26,,No,M,B,Multi-ply,70.5,Pro Teen 16-17,,,,,,105,110,-120,110,,,,,,110,2
82.5,Rovshan Abdullaev,Ровшан Абдуллаев,1990-10-30,,No,M,B,Multi-ply,80.7,Pro Teen 16-17,,,,,,110,120,-122.5,120,,,,,,120,1
82.5,Aleksandr Ovodov,Александр Оводов,1989-06-14,,No,M,B,Multi-ply,80.2,Pro Teen 16-17,,,,,,100,115,-120,115,,,,,,115,2
125,Ilya Voronin,Илья Воронин,1990-03-03,,No,M,B,Multi-ply,123.8,Pro Teen 16-17,,,,,,145,150,-155,150,,,,,,150,1
140,Efim Guselnikov,Ефим Гусельников,1990-07-09,,No,M,B,Multi-ply,126.1,Pro Teen 16-17,,,,,,100,-110,,100,,,,,,100,1
67.5,Vladimir Karavaev,Владимир Караваев,1987-09-03,,No,M,B,Multi-ply,65.6,Pro Teen 18-19,,,,,,145,150,-155,150,,,,,,150,1
67.5,Dmitriy Stoyanov,Дмитрий Стоянов,1987-05-12,,No,M,B,Multi-ply,67.35,Pro Teen 18-19,,,,,,-150,150,-165,150,,,,,,150,2
75,Nikolay Ivanenko,Николай Иваненко,1988-05-22,,No,M,B,Multi-ply,73.8,Pro Teen 18-19,,,,,,165,-180,-180,165,,,,,,165,1
75,Nikita Dubrovin,Никита Дубровин,1988-09-27,,No,M,B,Multi-ply,74.15,Pro Teen 18-19,,,,,,120,130,-135,130,,,,,,130,2
82.5,Sergey Blinov,Сергей Блинов,1987-06-26,,No,M,B,Multi-ply,75.8,Pro Teen 18-19,,,,,,160,-170,-170,160,,,,,,160,1
82.5,Dmitriy Osipov,Дмитрий Осипов,1987-05-31,,No,M,B,Multi-ply,81,Pro Teen 18-19,,,,,,140,-150,155,155,,,,,,155,2
90,Mikhail Tsatsulin,Михаил Цацулин,1988-01-13,,No,M,B,Multi-ply,85.5,Pro Teen 18-19,,,,,,-165,165,-192.5,165,,,,,,165,1
110,Eduard Shpringer,Эдуард Шпрингер,1988-03-20,,No,M,B,Multi-ply,108.2,Pro Teen 18-19,,,,,,-180,-180,180,180,,,,,,180,1
110,Andrey Zverev,Андрей Зверев,1987-12-10,,No,M,B,Multi-ply,104.9,Pro Teen 18-19,,,,,,-160,-160,160,160,,,,,,160,2
140+,Kirill Sarychev,Кирилл Сарычев,1989-01-01,,No,M,B,Single-ply,150.2,Pro Teen 18-19,,,,,,230,252.5,-262.5,252.5,,,,,,252.5,1
52,Imam Abdiev,Имам Абдиев,1986-03-19,,No,M,B,Multi-ply,52,Pro Juniors 20-23,,,,,,110,-120,-120,110,,,,,,110,1
56,Aleksandr Gamov,Александр Гамов,1985-10-29,,No,M,B,Multi-ply,55.1,Pro Juniors 20-23,,,,,,110,115,-120,115,,,,,,115,1
60,Narek Ispiryan,Нарек Испирян,1989-09-09,,No,M,B,Multi-ply,56.7,Pro Teen 16-17,,,,,,120,,,120,,,,,,120,1
67.5,Vladislav Lisunov,Владислав Лисунов,1983-12-24,,No,M,B,Multi-ply,66.6,Pro Juniors 20-23,,,,,,-145,145,-155,145,,,,,,145,1
67.5,Ravil Masalimov,Равиль Масалимов,,,No,M,B,Multi-ply,63.2,Pro Juniors 20-23,,,,,,125,,,125,,,,,,125,2
75,Aleksandr Novinskiy,Александр Новинский,1983-08-08,,No,M,B,Multi-ply,74,Pro Juniors 20-23,,,,,,170,180,187.5,187.5,,,,,,187.5,1
75,Vladimir Upolovnikov,Владимир Уполовников,1985-05-24,,No,M,B,Multi-ply,73.9,Pro Juniors 20-23,,,,,,165,170,175,175,,,,,,175,2
75,Aleksey Semikolennykh,Алексей Семиколенных,1985-03-27,,No,M,B,Multi-ply,72.6,Pro Juniors 20-23,,,,,,160,-170,170,170,,,,,,170,3
75,Rinat Abubekirov,Ринат Абубекиров,1986-10-01,,No,M,B,Multi-ply,72.9,Pro Juniors 20-23,,,,,,160,165,-170,165,,,,,,165,4
75,Vyacheslav Kargapolov,Вячеслав Каргаполов,1986-12-25,,No,M,B,Multi-ply,74.9,Pro Juniors 20-23,,,,,,165,-175,-175,165,,,,,,165,5
75,Evgeniy Zlobin,Евгений Злобин,1986-08-19,,No,M,B,Multi-ply,71.3,Pro Juniors 20-23,,,,,,-150,-150,150,150,,,,,,150,6
82.5,Igor Dyachenko,Игорь Дьяченко,1984-08-09,,No,M,B,Multi-ply,77.85,Pro Juniors 20-23,,,,,,195,-202.5,-202.5,195,,,,,,195,1
82.5,Evgeniy Medeltsov,Евгений Медельцов,1986-05-27,,No,M,B,Multi-ply,82.5,Pro Juniors 20-23,,,,,,180,195,-202.5,195,,,,,,195,2
82.5,Nikita Shustikov,Никита Шустиков,1985-07-27,,No,M,B,Multi-ply,79.1,Pro Juniors 20-23,,,,,,180,-202.5,,180,,,,,,180,3
82.5,Artur Kasyanov,Артур Касьянов,1984-04-20,,No,M,B,Multi-ply,80.1,Pro Juniors 20-23,,,,,,130,180,-197.5,180,,,,,,180,4
82.5,Vyacheslav Shisterov,Вячеслав Шистеров,1987-01-05,,No,M,B,Multi-ply,80.9,Pro Juniors 20-23,,,,,,170,-175,-180,170,,,,,,170,5
82.5,Denis Grishin,Денис Гришин,1986-03-05,,No,M,B,Multi-ply,80.15,Pro Juniors 20-23,,,,,,150,157.5,-180,157.5,,,,,,157.5,6
82.5,Andrey Grebenyuk,Андрей Гребенюк,1985-06-03,,No,M,B,Multi-ply,80.1,Pro Juniors 20-23,,,,,,-170,-170,-180,,,,,,,,DQ
82.5,Aleksey Popov,Алексей Попов,1983-02-27,,No,M,B,Multi-ply,81.7,Pro Juniors 20-23,,,,,,-235,-235,-240,,,,,,,,DQ
90,Vitaliy Chernev,Виталий Чернев,1985-10-01,,No,M,B,Multi-ply,88.3,Pro Juniors 20-23,,,,,,215,225,235,235,,,,,,235,1
90,Stanislav Alikin,Станислав Аликин,1985-03-09,,No,M,B,Multi-ply,89.2,Pro Juniors 20-23,,,,,,-195,202.5,210,210,,,,,,210,2
90,Andrey Chernov,Андрей Чернов,1984-02-11,,No,M,B,Multi-ply,88.5,Pro Juniors 20-23,,,,,,150,160,-170,160,,,,,,160,3
90,Aleksandr Glovatskiy,Александр Гловацкий,1984-10-30,,No,M,B,Multi-ply,87.65,Pro Juniors 20-23,,,,,,-200,-200,-210,,,,,,,,DQ
100,Sergey Kurbatov,Сергей Курбатов,1984-04-25,,No,M,B,Multi-ply,96.35,Pro Juniors 20-23,,,,,,220,230,-235,230,,,,,,230,1
100,Nikolay Bezuglov,Николай Безуглов,1985-01-10,,No,M,B,Multi-ply,93.05,Pro Juniors 20-23,,,,,,210,,,210,,,,,,210,2
100,Mikhail Brylin,Михаил Брылин,1984-04-19,,No,M,B,Multi-ply,99.4,Pro Juniors 20-23,,,,,,202.5,-230,-230,202.5,,,,,,202.5,3
100,Leonid Shatalin,Леонид Шаталин,1985-08-21,,No,M,B,Multi-ply,96.85,Pro Juniors 20-23,,,,,,-180,180,195,195,,,,,,195,4
100,Aleksandr Sosnin,Александр Соснин,1985-05-27,,No,M,B,Multi-ply,96.3,Pro Juniors 20-23,,,,,,190,-202.5,-202.5,190,,,,,,190,5
100,Aleksandr Kargapolov,Александр Каргаполов,1983-07-02,,No,M,B,Multi-ply,98.4,Pro Juniors 20-23,,,,,,-250,-250,-250,,,,,,,,DQ
110,Aleksandr Kubata,Александр Кубата,1986-06-27,,No,M,B,Multi-ply,106.75,Pro Juniors 20-23,,,,,,-270,-270,-270,,,,,,,,DQ
110,Vasiliy Matsur,Василий Мацур,1984-02-02,,No,M,B,Multi-ply,108.65,Pro Juniors 20-23,,,,,,-275,-275,-275,,,,,,,,DQ
125,Aleksandr Korshkov,Александр Коршков,1986-01-06,,No,M,B,Multi-ply,125,Pro Juniors 20-23,,,,,,-250,-250,250,250,,,,,,250,1
140,Aleksandr Laptev,Александр Лаптев,1983-11-28,,No,M,B,Multi-ply,133.4,Pro Juniors 20-23,,,,,,250,260,270,270,,,,,,270,1
56,Aleksandr Onuchin,Александр Онучин,1978-04-08,,No,M,B,Multi-ply,55.8,Pro Open,,,,,,120,-130,-130,120,,,,,,120,2
67.5,Mikhail Speranskiy,Михаил Сперанский,1976-03-14,,No,M,B,Multi-ply,67.1,Pro Open,,,,,,200,211,-215,211,,,,,,211,1
67.5,Aleksey Shalonkin,Алексей Шалонкин,1979-11-01,,No,M,B,Multi-ply,66.2,Pro Open,,,,,,150,160,165,165,,,,,,165,2
67.5,Aleksandr Nikitin,Александр Никитин,1981-02-27,,No,M,B,Multi-ply,67.1,Pro Open,,,,,,-145,145,165,165,,,,,,165,3
67.5,Vitaliy Burmatov,Виталий Бурматов,1976-04-21,,No,M,B,Multi-ply,67.3,Pro Open,,,,,,150,157.5,-165,157.5,,,,,,157.5,4
67.5,Aleksey Denisov,Алексей Денисов,1982-10-30,,No,M,B,Multi-ply,66.35,Pro Open,,,,,,-155,-155,155,155,,,,,,155,5
67.5,Levon Sargsyan,Левон Саргсян,1991-12-03,,No,M,B,Multi-ply,66.9,Pro Open,,,,,,140,,,140,,,,,,140,6
67.5,Sergey Perevalov,Сергей Перевалов,1981-03-12,,No,M,B,Multi-ply,65.7,Pro Open,,,,,,130,-145,-145,130,,,,,,130,8
75,Denis Perminov,Денис Перминов,1978-11-23,,No,M,B,Multi-ply,70.9,Pro Open,,,,,,-187.5,187.5,202.5,202.5,,,,,,202.5,1
75,Rifat Nigmatullin,Рифат Нигматуллин,1982-07-30,,No,M,B,Multi-ply,74.9,Pro Open,,,,,,-187.5,187.5,202.5,202.5,,,,,,202.5,2
75,Pavel Petukhov,Павел Петухов,1978-10-22,,No,M,B,Multi-ply,73.8,Pro Open,,,,,,190,200,-205,200,,,,,,200,3
75,Georgiy Avdonin,Георгий Авдонин,1969-09-10,,No,M,B,Multi-ply,74.95,Pro Open,,,,,,165,170,175,175,,,,,,175,4
75,Oleg Paderin,Олег Падерин,1978-11-26,,No,M,B,Multi-ply,73.85,Pro Open,,,,,,150,-165,165,165,,,,,,165,5
75,Dmitriy Kukhorenko,Дмитрий Кухоренко,1969-01-22,,No,M,B,Multi-ply,74.3,Pro Open,,,,,,-145,-145,-165,,,,,,,,DQ
75,Aleksandr Rode,Александр Роде,1981-04-14,,No,M,B,Multi-ply,69.25,Pro Open,,,,,,-215,-215,-215,,,,,,,,DQ
82.5,Vladimir Chadkov,Владимир Чадков,1972-01-29,,No,M,B,Multi-ply,82.5,Pro Open,,,,,,260,-275,-275,260,,,,,,260,1
82.5,Vitaliy Dubrovin,Виталий Дубровин,1982-08-06,,No,M,B,Multi-ply,79.95,Pro Open,,,,,,202.5,-220,-220,202.5,,,,,,202.5,2
82.5,Aleksandr Illarionov,Александр Илларионов,1982-06-10,,No,M,B,Multi-ply,78.85,Pro Open,,,,,,160,170,180,180,,,,,,180,3
82.5,Andrey Bogatkov,Андрей Богатков,1975-05-12,,No,M,B,Multi-ply,81.1,Pro Open,,,,,,170,-180,180,180,,,,,,180,4
82.5,Sergey Puzanskiy,Сергей Пузанский,1975-02-03,,No,M,B,Multi-ply,82.1,Pro Open,,,,,,-180,180,-202.5,180,,,,,,180,5
82.5,Evgeniy Babushkin,Евгений Бабушкин,1972-05-24,,No,M,B,Multi-ply,82.45,Pro Open,,,,,,140,157.5,-160,157.5,,,,,,157.5,6
82.5,Rinat Garipov,Ринат Гарипов,1976-02-12,,No,M,B,Multi-ply,81.1,Pro Open,,,,,,-210,-220,-220,,,,,,,,DQ
90,Emin Galib Ogly Mamedov,Емин Галиб Оглы Мамедов,1974-08-31,,No,M,B,Multi-ply,90,Pro Open,,,,,,240,252.5,265,265,,,,,,265,1
90,Aleksey Kharauzov,Алексей Хараузов,1973-10-25,,No,M,B,Multi-ply,89.75,Pro Open,,,,,,240,252.5,262.5,262.5,,,,,,262.5,1
90,Evgeniy Nechaev,Евгений Нечаев,1978-02-10,,No,M,B,Multi-ply,85.45,Pro Open,,,,,,235,240,250,250,,,,,,250,1
90,Dmitriy Shishkin,Дмитрий Шишкин,1975-07-04,,No,M,B,Multi-ply,89.8,Pro Open,,,,,,225,240,250,250,,,,,,250,1
90,Ilya Lebedev,Илья Лебедев,1972-02-12,,No,M,B,Multi-ply,89,Pro Open,,,,,,200,217.5,225,225,,,,,,225,1
90,Sergey Nayman,Сергей Найман,1974-12-27,,No,M,B,Multi-ply,88.15,Pro Open,,,,,,-217.5,217.5,-240,217.5,,,,,,217.5,1
90,Vitaliy Goryunov,Виталий Горюнов,1982-02-16,,No,M,B,Multi-ply,88.4,Pro Open,,,,,,190,205,217.5,217.5,,,,,,217.5,1
90,Igor Kukushkin,Игорь Кукушкин,1970-05-28,,No,M,B,Multi-ply,89.25,Pro Open,,,,,,200,207.5,212.5,212.5,,,,,,212.5,1
90,Aleksandr Kuznetsov #3,Александр Кузнецов,1981-05-20,,No,M,B,Multi-ply,86.6,Pro Open,,,,,,192.5,200,205,205,,,,,,205,1
90,Vladimir Stepanenko,Владимир Степаненко,1977-12-07,,No,M,B,Multi-ply,88.65,Pro Open,,,,,,200,-217.5,-217.5,200,,,,,,200,1
90,Aleksey Korshunov,Алексей Коршунов,1972-03-01,,No,M,B,Multi-ply,90,Pro Open,,,,,,-200,-200,200,200,,,,,,200,12
90,Mikhail Dirun,Михаил Дирун,1986-07-03,,No,M,B,Multi-ply,86,Pro Open,,,,,,-180,192.5,-200,192.5,,,,,,192.5,1
90,Vyacheslav Shepelev,Вячеслав Шепелев,1976-02-17,,No,M,B,Multi-ply,88.2,Pro Open,,,,,,180,-192.5,192.5,192.5,,,,,,192.5,1
90,Sergey Nechaev,Сергей Нечаев,1971-07-20,,No,M,B,Multi-ply,88.9,Pro Open,,,,,,185,192.5,-200,192.5,,,,,,192.5,1
90,Nikolay Zhuykov,Николай Жуйков,1981-09-29,,No,M,B,Multi-ply,90,Pro Open,,,,,,-192.5,192.5,-217.5,192.5,,,,,,192.5,1
90,Aleksandr Zyryanov,Александр Зырянов,1978-03-14,,No,M,B,Multi-ply,87.75,Pro Open,,,,,,-180,180,-192.5,180,,,,,,180,1
90,Ivan Tapanaynen,Иван Тапанайнен,1982-10-08,,No,M,B,Multi-ply,85.55,Pro Open,,,,,,-170,-170,,,,,,,,,DQ
90,Konstantin Rudykh,Константин Рудых,1968-03-11,,No,M,B,Multi-ply,87.55,Pro Open,,,,,,-170,-180,-180,,,,,,,,DQ
90,Aleksey Shatunov,Алексей Шатунов,1976-05-06,,No,M,B,Multi-ply,88.25,Pro Open,,,,,,-192.5,-192.5,-192.5,,,,,,,,DQ
90,Sergey Chazov,Сергей Чазов,1970-10-26,,No,M,B,Multi-ply,89.2,Pro Open,,,,,,-160,,,,,,,,,,DQ
100,Konstantin Otavin,Константин Отавин,1973-11-25,,No,M,B,Multi-ply,100,Pro Open,,,,,,275,285,-300,285,,,,,,285,1
100,Dmitriy Gaak,Дмитрий Гаак,1981-12-06,,No,M,B,Multi-ply,96.2,Pro Open,,,,,,260,280,-290,280,,,,,,280,2
100,Dmitriy Tambovtsev,Дмитрий Тамбовцев,1969-10-24,,No,M,B,Multi-ply,98.9,Pro Open,,,,,,230,250,260,260,,,,,,260,3
100,Konstantin Palshin,Константин Пальшин,1980-07-03,,No,M,B,Multi-ply,95.2,Pro Open,,,,,,210,220,230,230,,,,,,230,4
100,Aleksandr Kolesnikov,Александр Колесников,1975-07-28,,No,M,B,Multi-ply,96.7,Pro Open,,,,,,230,-240,-250,230,,,,,,230,5
100,Andrey Fadeev,Андрей Фадеев,1970-06-08,,No,M,B,Multi-ply,95.1,Pro Open,,,,,,202.5,210,215,215,,,,,,215,6
100,Valeriy Simagin,Валерий Симагин,1971-06-17,,No,M,B,Multi-ply,98.5,Pro Open,,,,,,195,202.5,215,215,,,,,,215,7
100,Aleksandr Belyaev,Александр Беляев,1972-09-29,,No,M,B,Multi-ply,99.55,Pro Open,,,,,,202.5,207.5,212.5,212.5,,,,,,212.5,8
100,Sergey Tachanov,Сергей Тачанов,1972-01-09,,No,M,B,Multi-ply,96.8,Pro Open,,,,,,210,-230,-230,210,,,,,,210,10
100,Aleksey Bakharev,Алексей Бахарев,1973-08-16,,No,M,B,Multi-ply,94.9,Pro Open,,,,,,190,210,-220,210,,,,,,210,9
100,Evgeniy Lekomtsev,Евгений Лекомцев,1969-05-14,,No,M,B,Multi-ply,94.4,Pro Open,,,,,,190,-202.5,202.5,202.5,,,,,,202.5,11
100,Vladimir Karasov,Владимир Карасов,1973-04-19,,No,M,B,Multi-ply,96.75,Pro Open,,,,,,-240,-240,-255,,,,,,,,DQ
100,Mikhail Royanov,Михаил Роянов,1977-03-04,,No,M,B,Multi-ply,97.95,Pro Open,,,,,,-210,-222.5,-230,,,,,,,,DQ
100,Mikhail Fedulov,Михаил Федулов,1969-11-27,,No,M,B,Multi-ply,98.3,Pro Open,,,,,,-185,-192.5,-202.5,,,,,,,,DQ
100,Vladimir Omelkov,Владимир Омельков,1970-05-10,,No,M,B,Multi-ply,99.1,Pro Open,,,,,,-202.5,-202.5,-202.5,,,,,,,,DQ
110,Alexey Neklyudov,Алексей Неклюдов,1964-07-27,,No,M,B,Multi-ply,105.9,Pro Open,,,,,,300,-315,315,315,,,,,,315,1
110,Aleksandr Tretyakov,Александр Третьяков,1967-06-14,,No,M,B,Multi-ply,108.65,Pro Open,,,,,,295,302.5,312.5,312.5,315.5,,,,,312.5,1
110,Oleg Kushnarev,Олег Кушнарев,1973-03-14,,No,M,B,Multi-ply,109.1,Pro Open,,,,,,307.5,-317.5,-317.5,307.5,,,,,,307.5,1
110,Dmitriy Gorbachev,Дмитрий Горбачев,1970-03-06,,No,M,B,Multi-ply,108.5,Pro Open,,,,,,295,-310,-310,295,,,,,,295,1
110,Vladimir Blinkov,Владимир Блинков,1978-11-03,,No,M,B,Multi-ply,108.85,Pro Open,,,,,,240,250,-255,250,,,,,,250,1
110,Aleksey Istomin,Алексей Истомин,1980-11-16,,No,M,B,Multi-ply,110,Pro Open,,,,,,-250,-250,250,250,,,,,,250,1
110,Sergey Rozhitsin,Сергей Рожицин,1971-02-23,,No,M,B,Multi-ply,107.65,Pro Open,,,,,,225,235,240,240,,,,,,240,1
110,Dmitriy Bubnov,Дмитрий Бубнов,1973-10-14,,No,M,B,Multi-ply,110,Pro Open,,,,,,210,240,-260,240,,,,,,240,1
110,Dmitriy Korbulakov,Дмитрий Корбулаков,1971-02-11,,No,M,B,Multi-ply,109.35,Pro Open,,,,,,225,-240,-240,225,,,,,,225,1
110,Vitaliy Petukhov,Виталий Петухов,1980-10-30,,No,M,B,Multi-ply,104.45,Pro Open,,,,,,220,-230,-230,220,,,,,,220,1
110,Vladimir Maksimov,Владимир Максимов,1972-09-26,,No,M,B,Multi-ply,107.55,Pro Open,,,,,,220,-240,-240,220,,,,,,220,1
110,Konstantin Bayandin,Константин Баяндин,1976-06-17,,No,M,B,Multi-ply,108.6,Pro Open,,,,,,220,-240,-240,220,,,,,,220,1
110,Aleksandr Ivanov,Александр Иванов,1972-08-03,,No,M,B,Multi-ply,105,Pro Open,,,,,,210,-215,215,215,,,,,,215,1
110,Aleksandr Saytgalin,Александр Сайтгалин,1974-10-27,,No,M,B,Multi-ply,105.5,Pro Open,,,,,,200,210,215,215,,,,,,215,1
110,Nikolay Pyshmintsev,Николай Пышминцев,1981-01-04,,No,M,B,Multi-ply,105.85,Pro Open,,,,,,210,-220,-220,210,,,,,,210,1
110,Vladimir Belousov,Владимир Белоусов,1971-09-04,,No,M,B,Multi-ply,106.9,Pro Open,,,,,,210,,,210,,,,,,210,2
110,Vyacheslav Yuzhakov,Вячеслав Южаков,1975-08-18,,No,M,B,Multi-ply,110,Pro Open,,,,,,210,-220,-220,210,,,,,,210,2
110,Aleksey Tereshchenko,Алексей Терещенко,1968-02-12,,No,M,B,Multi-ply,102.65,Pro Open,,,,,,200,-210,-210,200,,,,,,200,2
110,Yakov Berman,Яков Берман,1972-06-22,,No,M,B,Multi-ply,104,Pro Open,,,,,,200,-210,-210,200,,,,,,200,2
110,Aleksey Chernysh,Алексей Черныш,1967-05-10,,No,M,B,Multi-ply,108.75,Pro Open,,,,,,190,-205,-210,190,,,,,,190,2
110,Aleksey Belousov,Алексей Белоусов,1972-10-05,,No,M,B,Multi-ply,108.2,Pro Open,,,,,,-202.5,-202.5,-210,,,,,,,,DQ
125,Sergey Kapusta,Сергей Капуста,1972-05-13,,No,M,B,Multi-ply,114.5,Pro Open,,,,,,290,300,-305,300,,,,,,300,1
125,Ivan Kurpishev,Иван Курпишев,1969-03-02,,No,M,B,Multi-ply,120.45,Pro Open,,,,,,-285,-285,285,285,,,,,,285,1
125,Ivan Kulchitskiy,Иван Кульчицкий,1981-11-28,,No,M,B,Multi-ply,119.95,Pro Open,,,,,,-250,260,-302.5,260,,,,,,260,1
125,Dmitriy Ryzhov,Дмитрий Рыжов,1972-06-19,,No,M,B,Multi-ply,119.5,Pro Open,,,,,,230,250,255,255,,,,,,255,1
125,Sergey Dolgov,Сергей Долгов,1973-01-25,,No,M,B,Multi-ply,115.6,Pro Open,,,,,,230,250,,250,,,,,,250,1
125,Denis Detkov,Денис Детков,1977-01-09,,No,M,B,Multi-ply,118.4,Pro Open,,,,,,250,-252.5,-252.5,250,,,,,,250,1
125,Ivan Rish,Иван Риш,1981-04-29,,No,M,B,Multi-ply,124.1,Pro Open,,,,,,220,240,-250,240,,,,,,240,1
125,Fedor Korolev,Федор Королев,1980-07-03,,No,M,B,Multi-ply,115.65,Pro Open,,,,,,-210,220,-230,220,,,,,,220,1
125,Vadim Malyov,Вадим Малёв,1972-01-04,,No,M,B,Multi-ply,112.9,Pro Open,,,,,,210,-220,-220,210,,,,,,210,1
125,Irakliy Kondzhariya,Ираклий Конджария,1977-09-12,,No,M,B,Multi-ply,123.1,Pro Open,,,,,,-240,-240,-250,,,,,,,,DQ
125,Evgeniy Gulyaev,Евгений Гуляев,1976-05-11,,No,M,B,Multi-ply,123.7,Pro Open,,,,,,-300,-300,,,,,,,,,DQ
140,Vladimir Kravtsov,Владимир Кравцов,1972-03-04,,No,M,B,Multi-ply,128.7,Pro Open,,,,,,340,-370,,340,,,,,,340,1
140,Maksim Bulgakov,Максим Булгаков,1976-01-27,,No,M,B,Multi-ply,131.6,Pro Open,,,,,,290,-300,,290,,,,,,290,2
140,Aleksey Yakimov,Алексей Якимов,1975-12-07,,No,M,B,Multi-ply,133.3,Pro Open,,,,,,260,275,-290,275,,,,,,275,3
140,Alexey Brazhkin,Алексей Бражкин,1971-02-18,,No,M,B,Multi-ply,133.85,Pro Open,,,,,,250,265,-277.5,265,,,,,,265,4
140,Evgeniy Terlovoy,Евгений Терловой,1970-05-14,,No,M,B,Multi-ply,131.8,Pro Open,,,,,,-220,220,-232.5,220,,,,,,220,5
140+,Vladimir Grad,Владимир Град,,1976,No,M,B,Multi-ply,143.45,Pro Open,,,,,,300,310,-317.5,310,,,,,,310,1
140+,Oleg Budey,Олег Будей,1971-07-06,,No,M,B,Multi-ply,141.4,Pro Open,,,,,,250,285,,285,,,,,,285,2
140+,Igor Nastynov,Игорь Настынов,1961-03-14,,No,M,B,Multi-ply,150.2,Pro Open,,,,,,235,-257.5,-257.5,235,,,,,,235,3
60,Yuriy Mukhamedyarov,Юрий Мухамедьяров,1965-07-01,,No,M,B,Multi-ply,59.7,Pro Masters 40-44,,,,,,85,-90,100,100,,,,,,100,1
82.5,Valeriy Melnikov,Валерий Мельников,1963-01-26,,No,M,B,Multi-ply,82.5,Pro Masters 40-44,,,,,,170,180,-190,180,,,,,,180,1
82.5,Vadim Mirzayanov,Вадим Мирзаянов,1962-06-30,,No,M,B,Multi-ply,81,Pro Masters 40-44,,,,,,130,140,150,150,,,,,,150,2
90,Konstantin Averin,Константин Аверин,1962-08-21,,No,M,B,Multi-ply,87.7,Pro Masters 40-44,,,,,,180,192.5,-200,192.5,,,,,,192.5,1
100,Aleksandr Zaytsev,Александр Зайцев,1962-08-29,,No,M,B,Multi-ply,97.1,Pro Masters 40-44,,,,,,190,202.5,210,210,,,,,,210,1
100,Igor Podelko,Игорь Поделко,1964-05-26,,No,M,B,Multi-ply,98.05,Pro Masters 40-44,,,,,,-240,-240,-240,,,,,,,,DQ
110,Alexey Neklyudov,Алексей Неклюдов,1964-07-27,,No,M,B,Multi-ply,105.9,Pro Masters 40-44,,,,,,300,-315,315,315,,,,,,315,1
110,Valeriy Novolokov,Валерий Новолоков,1964-03-13,,No,M,B,Multi-ply,108.6,Pro Masters 40-44,,,,,,212.5,217.5,-220,217.5,,,,,,217.5,2
110,Andrey Tachanov,Андрей Тачанов,1964-08-06,,No,M,B,Multi-ply,106.35,Pro Masters 40-44,,,,,,210,212.5,-217.5,212.5,,,,,,212.5,3
110,Vadim Pavlyuk,Вадим Павлюк,1966-01-02,,No,M,B,Multi-ply,108.95,Pro Masters 40-44,,,,,,200,-210,-210,200,,,,,,200,5
110,Yuriy Kazanev,Юрий Казанев,1962-10-19,,No,M,B,Multi-ply,101.5,Pro Masters 40-44,,,,,,190,200,-210,200,,,,,,200,4
125,Ravil Duseev,Равиль Дусеев,1963-12-29,,No,M,B,Multi-ply,116.95,Pro Masters 40-44,,,,,,260,265,-280,265,,,,,,265,1
125,Lev Chernykh,Лев Черных,1966-08-01,,No,M,B,Multi-ply,117.2,Pro Masters 40-44,,,,,,-220,220,-230,220,,,,,,220,2
125,Maksim Vanin,Максим Ванин,1963-06-26,,No,M,B,Multi-ply,115.05,Pro Masters 40-44,,,,,,180,187.5,190,190,,,,,,190,3
125,Georgiy Lopatskiy,Георгий Лопацкий,1962-05-16,,No,M,B,Multi-ply,124.15,Pro Masters 40-44,,,,,,-257.5,-262.5,-265,,,,,,,,DQ
125,Egor Kosov,Егор Косов,1966-08-10,,No,M,B,Multi-ply,116.95,Pro Masters 40-44,,,,,,-240,-240,,,,,,,,,DQ
125,Vadim Kirillov,Вадим Кириллов,1965-06-07,,No,M,B,Multi-ply,122.8,Pro Masters 40-44,,,,,,-235,-240,,,,,,,,,DQ
140,Aleksandr Pomeshchenko,Александр Помещенко,1965-12-11,,No,M,B,Multi-ply,133.65,Pro Masters 40-44,,,,,,230,-240,,230,,,,,,230,1
140,Andrey Barnikov,Андрей Барников,1964-02-10,,No,M,B,Multi-ply,130.25,Pro Masters 40-44,,,,,,200,-210,-210,200,,,,,,200,2
60,Oleg Dvoynikov,Олег Двойников,1960-10-08,,No,M,B,Multi-ply,59.95,Pro Masters 45-49,,,,,,100,102.5,105,105,,,,,,105,1
82.5,Vitaliy Baykin,Виталий Байкин,1961-07-19,,No,M,B,Multi-ply,80.55,Pro Masters 45-49,,,,,,135,145,155,155,,,,,,155,1
90,Valeriy Nochvin,Валерий Ночвин,1960-11-06,,No,M,B,Multi-ply,87.95,Pro Masters 45-49,,,,,,205,210,,210,,,,,,210,1
90,Valeriy Akentyev,Валерий Акентьев,1958-03-13,,No,M,B,Multi-ply,88,Pro Masters 45-49,,,,,,195,-205,-217.5,195,,,,,,195,2
90,Anatoliy Zabegaev,Анатолий Забегаев,1961-12-06,,No,M,B,Multi-ply,89.9,Pro Masters 45-49,,,,,,165,170,172.5,172.5,,,,,,172.5,3
90,Vladimir Soloboev,Владимир Солобоев,1958-05-19,,No,M,B,Multi-ply,84.6,Pro Masters 45-49,,,,,,140,-150,-155,140,,,,,,140,4
100,Andrey Paley,Андрей Палей,1961-10-11,,No,M,B,Multi-ply,95.45,Pro Masters 45-49,,,,,,220,230,235,235,,,,,,235,1
100,Vladimir Shibaev,Владимир Шибаев,1960-02-05,,No,M,B,Multi-ply,97.75,Pro Masters 45-49,,,,,,210,220,-230,220,,,,,,220,2
100,Viktor Pozdnyakov,Виктор Поздняков,1958-12-12,,No,M,B,Multi-ply,99,Pro Masters 45-49,,,,,,190,-202.5,202.5,202.5,,,,,,202.5,3
110,Konstantin Bobrov,Константин Бобров,1957-05-10,,No,M,B,Multi-ply,104.2,Pro Masters 45-49,,,,,,215,220,230,230,,,,,,230,1
110,Pavel Yagovkin,Павел Яговкин,1959-07-27,,No,M,B,Multi-ply,106.7,Pro Masters 45-49,,,,,,-210,-210,-210,,,,,,,,DQ
125,Aleksandr Sychev,Александр Сычев,1960-07-14,,No,M,B,Multi-ply,110.1,Pro Masters 45-49,,,,,,175,-185,-185,175,,,,,,175,1
140+,Igor Nastynov,Игорь Настынов,1961-03-14,,No,M,B,Multi-ply,150.2,Pro Masters 45-49,,,,,,235,-257.5,-257.5,235,,,,,,235,1
90,Aleksandr Zavyalov,Александр Завьялов,1957-05-15,,No,M,B,Multi-ply,89,Pro Masters 45-49,,,,,,150,-160,-170,150,,,,,,150,1
90,Vladimir Larin,Владимир Ларин,1954-03-13,,No,M,B,Multi-ply,83.35,Pro Masters 50-54,,,,,,105,-110,110,110,,,,,,110,2
100,Valeriy Fadeev,Валерий Фадеев,1955-09-11,,No,M,B,Multi-ply,99.3,Pro Masters 50-54,,,,,,175,-190,190,190,,,,,,190,1
100,Sergey Bogoderov,Сергей Богодеров,1957-02-06,,No,M,B,Multi-ply,91.15,Pro Masters 50-54,,,,,,100,105,110,110,,,,,,110,2
110,Yuriy Pokhvashchev,Юрий Похващев,1954-01-28,,No,M,B,Multi-ply,107.15,Pro Masters 50-54,,,,,,-230,-230,230,230,,,,,,230,1
110,Aleksandr Zemerov,Александр Земеров,1955-03-19,,No,M,B,Multi-ply,105.15,Pro Masters 50-54,,,,,,170,-180,,170,,,,,,170,2
82.5,Vladimir Korolchenko,Владимир Корольченко,1950-11-02,,No,M,B,Multi-ply,78.05,Pro Masters 55-59,,,,,,110,120,125,125,,,,,,125,1
100,Vladimir Bolshov,Владимир Большов,1947-09-30,,No,M,B,Multi-ply,97.45,Pro Masters 55-59,,,,,,140,145,150,150,,,,,,150,1
110,Anatoliy Dergilev,Анатолий Дергилев,1950-05-22,,No,M,B,Multi-ply,103.25,Pro Masters 55-59,,,,,,150,160,-165,160,,,,,,160,1
125,Alexander Maksimushkin,Александр Максимушкин,1950-11-03,,No,M,B,Multi-ply,116.05,Pro Masters 55-59,,,,,,200,220,,220,,,,,,220,1
75,Aleksandr Biserov,Александр Бисеров,1943-08-18,,No,M,B,Multi-ply,74.9,Pro Masters 60-64,,,,,,100,-110,-110,100,,,,,,100,1
82.5,Eldar Tsoriev,Эльдар Цориев,1946-02-17,,No,M,B,Multi-ply,82,Pro Masters 60-64,,,,,,125,130,-135,130,,,,,,130,1
90,Viktor Vokarev,Виктор Вокарев,1946-08-15,,No,M,B,Multi-ply,87.95,Pro Masters 60-64,,,,,,120,130,137.5,137.5,,,,,,137.5,1
100,Evgeniy Khudoleev,Евгений Худолеев,1946-09-10,,No,M,B,Multi-ply,95.1,Pro Masters 60-64,,,,,,145,155,165,165,,,,,,165,1
67.5,Anatoliy Chistyakov,Анатолий Чистяков,1940-01-29,,No,M,B,Multi-ply,61.55,Pro Masters 65-69,,,,,,-65,65,-67.5,65,,,,,,65,1
52,Lyudmila Grishechkina,Людмила Гришечкина,1989-06-13,,No,F,SBD,Multi-ply,50.8,Pro Teen 16-17,-85,85,95,95,,57.5,-62.5,62.5,62.5,,100,102.5,110,110,267.5,1
52,Albina Garipova,Альбина Гарипова,,,No,F,SBD,Multi-ply,48.3,Pro Teen 16-17,45,50,55,55,,30,35,,35,,50,-60,,50,140,2
56,Alena Podelko,Алёна Поделко,1990-09-12,,No,F,SBD,Multi-ply,53.3,Pro Teen 16-17,80,95,105,105,,42.5,-55,-57.5,42.5,,70,90,100,100,247.5,1
52,Darya Isaeva,Дарья Исаева,1987-10-09,,No,F,SBD,Multi-ply,50.8,Pro Teen 18-19,80,-90,90,90,,45,-52.5,-52.5,45,,85,-100,-100,85,220,1
56,Margarita Gass,Маргарита Гасс,1988-02-11,,No,F,SBD,Multi-ply,54.2,Pro Teen 18-19,110,122.5,-130,122.5,,-70,70,-72.5,70,,-100,100,-110,100,292.5,1
75,Elena Tokareva,Елена Токарева,1988-06-04,,No,F,SBD,Multi-ply,69.4,Pro Teen 18-19,-100,100,132.5,132.5,,70,-75,75,75,,100,-110,,100,307.5,1
48,Marina Zotova,Марина Зотова,1983-09-23,,No,F,SBD,Multi-ply,47.2,Pro Juniors 20-23,-120,-125,-125,,,,,,,,,,,,,DQ
56,Olga Grineva,Ольга Гринева,,,No,F,SBD,Multi-ply,54.6,Pro Juniors 20-23,110,120,127.5,127.5,,-75,80,,80,,110,120,,120,327.5,1
60,Nadezhda Kondratova,Надежда Кондратова,1986-06-15,,No,F,SBD,Multi-ply,58.8,Pro Juniors 20-23,140,160,170,170,,70,80,-85,80,,130,-165,-165,130,380,1
67.5,Yuliya Dubrovina,Юлия Дубровина,1983-07-14,,No,F,SBD,Multi-ply,63.3,Pro Juniors 20-23,130,150,160,160,,65,-70,70,70,,120,-137.5,137.5,137.5,367.5,1
67.5,Olga Ponomareva,Ольга Пономарева,1983-07-18,,No,F,SBD,Multi-ply,65.7,Pro Juniors 20-23,100,110,120,120,,65,70,-72.5,70,,115,130,-140,130,320,2
48,Margarita Dzina,Маргарита Дзина,1969-04-09,,No,F,SBD,Multi-ply,48,Pro Open,100,110,120,120,,-70,70,,70,,110,120,130,130,320,1
52,Nadezhda Zabolotskaya,Надежда Заболоцкая,1981-09-03,,No,F,SBD,Multi-ply,51.8,Pro Open,115,125,132.5,132.5,,75,80,85,85,,115,120,-122.5,120,337.5,1
52,Veronika Timina,Вероника Тимина,1972-04-23,,No,F,SBD,Multi-ply,51.4,Pro Open,-125,125,,125,,65,-70,70,70,,-130,135,-145,135,330,2
52,Marina Gileva,Марина Гилева,1973-07-02,,No,F,SBD,Multi-ply,51.7,Pro Open,-115,120,-125,120,,65,-70,-70,65,,105,110,,110,295,4
56,Marina Medvedeva,Марина Медведева,1974-09-05,,No,F,SBD,Multi-ply,56,Pro Open,180,-200,200,200,,95,100,102.5,102.5,,170,185,187.5,187.5,490,1
75,Elena Sheverdina,Елена Шевердина,1968-02-14,,No,F,SBD,Multi-ply,74.4,Pro Open,210,220,-227.5,220,,155,162.5,-167.5,162.5,,190,197.5,200,200,582.5,1
75,Elena Povolotskaya,Елена Поволоцкая,1978-02-16,,No,F,SBD,Multi-ply,73.2,Pro Open,230,247.5,-257.5,247.5,,112.5,-120,-120,112.5,,212.5,220,-222.5,220,580,2
60,Denis Neverov,Денис Неверов,1991-05-14,,No,M,SBD,Multi-ply,59.4,Pro Teen 13-15,100,110,120,120,,60,-67.5,-67.5,60,,110,120,130,130,310,1
67.5,Levon Sargsyan,Левон Саргсян,1991-12-03,,No,M,SBD,Multi-ply,65.9,Pro Teen 13-15,220,-230,-230,220,,-140,-140,140,140,,155,170,-180,170,530,1
52,Viktor Grigorev,Виктор Григорьев,1990-05-22,,No,M,SBD,Multi-ply,47.4,Pro Teen 16-17,90,100,107.5,107.5,,50,60,-62.5,60,,105,112.5,-115,112.5,280,1
60,Oleg Tibilov,Олег Тибилов,1990-02-15,,No,M,SBD,Multi-ply,60,Pro Teen 16-17,270,-285,-285,270,,110,117.5,-122.5,117.5,,230,-242.5,-242.5,230,617.5,1
60,Ivan Belopukhov,Иван Белопухов,1990-01-28,,No,M,SBD,Multi-ply,59,Pro Teen 16-17,140,150,155,155,,75,85,-90,85,,-140,145,155,155,395,2
67.5,Roman Kazakov,Роман Казаков,1990-11-30,,No,M,SBD,Multi-ply,66.3,Pro Teen 16-17,200,-210,210,210,,-120,,120,120,,170,-180,-180,170,500,1
75,Sergey Titov,Сергей Титов,1990-05-30,,No,M,SBD,Multi-ply,72.9,Pro Teen 16-17,190,205,-220,205,,120,-125,-125,120,,170,182.5,-195,182.5,507.5,1
75,Ilya Chudin,Илья Чудин,1990-06-26,,No,M,SBD,Multi-ply,71.4,Pro Teen 16-17,120,130,140,140,,80,90,-95,90,,120,130,135,135,365,2
82.5,Rovshan Abdulaev,Ровшан Абдулаев,1990-10-30,,No,M,SBD,Multi-ply,79,Pro Teen 16-17,160,172.5,182.5,182.5,,110,120,-130,120,,180,190,,190,492.5,1
82.5,Ilya Selivanov,Илья Селиванов,1989-03-02,,No,M,SBD,Multi-ply,78.9,Pro Teen 16-17,165,-175,180,180,,115,122.5,125,125,,150,-162.5,-162.5,150,455,2
52,Nikolay Lazaridi,Николай Лазариди,1988-11-02,,No,M,SBD,Multi-ply,47,Pro Teen 18-19,100,110,-120,110,,60,-65,-65,60,,105,115,120,120,290,1
75,Sergey Blinov,Сергей Блинов,1987-06-26,,No,M,SBD,Multi-ply,75,Pro Teen 18-19,-270,-270,-270,,,,,,,,,,,,,DQ
82.5,Dmitriy Osipov,Дмитрий Осипов,1987-05-31,,No,M,SBD,Multi-ply,80.3,Pro Teen 18-19,235,255,265,265,,140,-150,-150,140,,190,205,217.5,217.5,622.5,1
82.5,Vitaliy Balashov,Виталий Балашов,1988-10-18,,No,M,SBD,Multi-ply,81.4,Pro Teen 18-19,190,205,215,215,,110,122.5,130,130,,220,-235,-245,220,565,2
82.5,Nikita Dubrovin,Никита Дубровин,1988-09-27,,No,M,SBD,Multi-ply,77.1,Pro Teen 18-19,180,205,-220,205,,-120,120,130,130,,170,200,-217.5,200,535,3
82.5,Aleksandr Romanov,Александр Романов,1988-05-11,,No,M,SBD,Multi-ply,82.5,Pro Teen 18-19,-350,-350,-350,,,,,,,,,,,,,DQ
90,Pavel Andreev,Павел Андреев,1987-05-02,,No,M,SBD,Multi-ply,88.2,Pro Teen 18-19,300,320,330,330,,200,212.5,217.5,217.5,,260,270,277.5,277.5,825,1
90,Mikhail Tsatsulin,Михаил Цацулин,1988-01-13,,No,M,SBD,Multi-ply,88.1,Pro Teen 18-19,-280,280,300,300,,180,190,-197.5,190,,290,305,327.5,327.5,817.5,2
110,Eduard Shpringer,Эдуард Шпрингер,1988-03-20,,No,M,SBD,Multi-ply,108.1,Pro Teen 18-19,-260,280,290,290,,180,190,-200,190,,200,210,,210,690,1
110,Yuriy Pestichev,Юрий Пестичев,1988-04-26,,No,M,SBD,Multi-ply,109.9,Pro Teen 18-19,250,-260,-270,250,,-165,165,170,170,,190,210,-220,210,630,2
110,Andrey Zverev,Андрей Зверев,1987-12-10,,No,M,SBD,Multi-ply,105.9,Pro Teen 18-19,190,210,220,220,,-160,160,170,170,,180,-200,200,200,590,3
140+,Kirill Sarychev,Кирилл Сарычев,1989-01-01,,No,M,SBD,Single-ply,150.2,Pro Teen 18-19,260,280,300,300,,-240,240,-250,240,,240,260,-280,260,800,1
52,Mairbek Tsarakhov,Маирбек Царахов,1984-05-03,,No,M,SBD,Multi-ply,49.5,Pro Juniors 20-23,170,-190,-190,170,,80,87.5,92.5,92.5,,150,167.5,,167.5,430,1
67.5,Denis Stoyanov,Денис Стоянов,1983-08-09,,No,M,SBD,Multi-ply,66.7,Pro Juniors 20-23,200,217.5,-230,217.5,,-100,100,,100,,200,222.5,,222.5,540,1
67.5,Maksim Tikhanov,Максим Тиханов,1986-08-28,,No,M,SBD,Multi-ply,64.9,Pro Juniors 20-23,185,200,-202.5,200,,100,107.5,-115,107.5,,170,182.5,,182.5,490,2
75,Konstantin Lopatovskiy,Константин Лопатовский,1986-09-14,,No,M,SBD,Multi-ply,72.9,Pro Juniors 20-23,90,100,120,120,,80,90,100,100,,120,145,155,155,375,1
75,Mikhail Ushakov,Михаил Ушаков,1986-11-06,,No,M,SBD,Multi-ply,74.1,Pro Juniors 20-23,-205,205,-215,205,,-105,-105,-105,,,,,,,,DQ
82.5,Denis Druzhinin,Денис Дружинин,1986-10-07,,No,M,SBD,Multi-ply,80.7,Pro Juniors 20-23,280,300,-315,300,,-160,160,-170,160,,230,-250,250,250,710,1
82.5,Denis Grishin,Денис Гришин,1986-03-05,,No,M,SBD,Multi-ply,80.1,Pro Juniors 20-23,-265,-265,265,265,,150,-160,-160,150,,220,230,-250,230,645,2
82.5,Andrey Stepanov,Андрей Степанов,1984-02-13,,No,M,SBD,Multi-ply,81.3,Pro Juniors 20-23,240,255,-270,255,,150,160,167.5,167.5,,-190,190,,190,612.5,3
82.5,Andrey Grebenyuk,Андрей Гребенюк,1985-06-03,,No,M,SBD,Multi-ply,80.4,Pro Juniors 20-23,-260,-280,-280,,,,,,,,,,,,,DQ
90,Nikolay Bezuglov,Николай Безуглов,1985-01-10,,No,M,SBD,Multi-ply,89.8,Pro Juniors 20-23,280,310,-340,310,,190,210,220,220,,240,270,290,290,820,1
90,Konstantin Pribytkov,Константин Прибытков,1985-08-25,,No,M,SBD,Multi-ply,86.2,Pro Juniors 20-23,220,230,-250,230,,-160,-160,160,160,,200,,,200,590,2
100,Mikhail Brylin,Михаил Брылин,1984-04-19,,No,M,SBD,Multi-ply,99.2,Pro Juniors 20-23,-330,330,-350,330,,190,200,-210,200,,290,315,-340,315,845,1
100,Ivan Ostrovskiy,Иван Островский,1986-04-20,,No,M,SBD,Multi-ply,100,Pro Juniors 20-23,280,-290,290,290,,190,200,-205,200,,280,290,300,300,790,2
100,Aleksandr Ryabets,Александр Рябец,1983-09-08,,No,M,SBD,Multi-ply,98.6,Pro Juniors 20-23,-280,290,300,300,,180,-190,-190,180,,270,280,-290,280,760,3
100,Evgeniy Gorelov,Евгений Горелов,1984-09-20,,No,M,SBD,Multi-ply,97.7,Pro Juniors 20-23,-260,-270,270,270,,145,155,-160,155,,280,-295,,280,705,4
100,Dmitriy Kopyl,Дмитрий Копыл,1986-03-01,,No,M,SBD,Multi-ply,99.1,Pro Juniors 20-23,-320,-320,-320,,,,,,,,,,,,,DQ
110,Rostislav Brylev,Ростислав Брылев,1985-06-28,,No,M,SBD,Multi-ply,109.7,Pro Juniors 20-23,-330,-340,340,340,,205,-215,215,215,,315,,-335,315,870,1
110,Evgeniy Gavrilov,Евгений Гаврилов,1984-05-01,,No,M,SBD,Multi-ply,104,Pro Juniors 20-23,-290,290,315,315,,180,-195,195,195,,290,-310,,290,800,2
110,Ilya Sidelnikov,Илья Сидельников,1984-03-17,,No,M,SBD,Multi-ply,107,Pro Juniors 20-23,-310,-310,-310,,,,,,,,,,,,,DQ
56,Aleksandr Onuchin,Александр Онучин,1978-04-08,,No,M,SBD,Multi-ply,55.6,Pro Open,170,185,-195,185,,120,125,-130,125,,190,210,,210,520,1
67.5,Mikhail Speranskiy,Михаил Сперанский,1976-03-14,,No,M,SBD,Multi-ply,65.8,Pro Open,270,285,300.5,300.5,,200,210,215,215,,230,242.5,250,250,765.5,1
67.5,Sergey Perevalov,Сергей Перевалов,1981-03-12,,No,M,SBD,Multi-ply,66,Pro Open,160,170,180,180,,120,130,-140,130,,170,-180,180,180,490,2
75,Sergey Ayvazov,Сергей Айвазов,1977-07-19,,No,M,SBD,Multi-ply,73.8,Pro Open,270,300,310,310,,150,160,165,165,,230,255,275,275,750,1
75,Dmitriy Ivanov,Дмитрий Иванов,1978-12-08,,No,M,SBD,Multi-ply,74.6,Pro Open,252.5,270,-280,270,,150,157.5,-162.5,157.5,,252.5,257.5,-262.5,257.5,685,2
75,Anatoliy Glazunov,Анатолий Глазунов,1972-02-09,,No,M,SBD,Multi-ply,71.1,Pro Open,250,-270,-270,250,,160,170,175,175,,220,230,-235,230,655,3
75,Sergey Blinov,Сергей Блинов,1987-06-26,,No,M,SBD,Multi-ply,74.5,Pro Open,245,-260,-260,245,,-160,160,-170,160,,230,242.5,-252.5,242.5,647.5,4
75,Oleg Paderin,Олег Падерин,1978-11-26,,No,M,SBD,Multi-ply,72.4,Pro Open,220,-240,240,240,,150,165,170,170,,215,-230,,215,625,5
75,Mikhail Ushakov,Михаил Ушаков,1986-11-06,,No,M,SBD,Multi-ply,73,Pro Open,180,,,180,,85,92.5,97.5,97.5,,185,-200,-200,185,462.5,6
82.5,Maksim Tomchin,Максим Томчин,1980-11-13,,No,M,SBD,Multi-ply,82.5,Pro Open,315,340,350,350,,180,192.5,-197.5,192.5,,260,280,295,295,837.5,1
82.5,Aleksandr Romanov,Александр Романов,1988-05-11,,No,M,SBD,Multi-ply,81.85,Pro Open,290,310,340,340,360,180,190,-200,190,,250,270,290,290,820,2
82.5,Gennadiy Bogdanov,Геннадий Богданов,1968-01-12,,No,M,SBD,Multi-ply,79.8,Pro Open,270,285,300,300,,185,190,205,205,,270,290,-300,290,795,3
82.5,Denis Mosya,Денис Мося,1975-11-11,,No,M,SBD,Multi-ply,82.4,Pro Open,240,255,270,270,,160,170,-175,170,,240,-250,,240,680,4
82.5,Andrey Kerov,Андрей Керов,1981-12-21,,No,M,SBD,Multi-ply,81.5,Pro Open,-210,210,-220,210,,-140,-150,-150,,,,,,,,DQ
90,Sergey Proskurnin,Сергей Проскурнин,1981-05-30,,No,M,SBD,Multi-ply,89.7,Pro Open,320,340,-350,340,,-190,200,215,215,,280,312.5,330,330,885,1
90,Andrey Sharapov,Андрей Шарапов,1978-11-25,,No,M,SBD,Multi-ply,88.9,Pro Open,350,-370,,350,,-215,215,230,230,,285,-300,-300,285,865,2
90,Sergey Zaytsev,Сергей Зайцев,1977-10-13,,No,M,SBD,Multi-ply,88.4,Pro Open,270,-280,-285,270,,200,210,-215,210,,270,280,285,285,765,3
90,Petr Korolchenko,Петр Корольченко,1978-09-14,,No,M,SBD,Multi-ply,88,Pro Open,280,300,310,310,,180,190,-200,190,,230,250,260,260,760,4
90,Artem Prigarin,Артем Пригарин,1968-06-03,,No,M,SBD,Multi-ply,87.4,Pro Open,245,255,-265,255,,180,190,,190,,240,-250,250,250,695,5
100,Emin Galib Ogly Mamedov,Емин Галиб Оглы Мамедов,1974-08-31,,No,M,SBD,Multi-ply,93.5,Pro Open,370,390,-400,390,,250,260,-265,260,,280,300,-310,300,950,1
100,Andrey Ayvazov,Андрей Айвазов,1982-11-07,,No,M,SBD,Multi-ply,98.3,Pro Open,360,385,-400,385,,-210,-217.5,217.5,217.5,,300,330,-350,330,932.5,2
100,Dmitriy Kopyl,Дмитрий Копыл,1986-03-01,,No,M,SBD,Multi-ply,99.8,Pro Open,280,300,-320,300,,210,-225,-225,210,,-280,-280,280,280,790,3
100,Dmitriy Sorokin,Дмитрий Сорокин,1971-03-22,,No,M,SBD,Multi-ply,99.9,Pro Open,280,295,305,305,,210,220,-230,220,,255,265,-270,265,790,4
100,Mikhail Sibagatov,Михаил Сибагатов,1984-01-28,,No,M,SBD,Multi-ply,99.7,Pro Open,280,290,305,305,,180,-190,190,190,,270,275,,275,770,5
110,Aleksey Kozlov #1,Алексей Козлов,1970-05-19,,No,M,SBD,Multi-ply,107.2,Pro Open,340,-352.5,-352.5,340,,230,235,,235,,305,317.5,-327.5,317.5,892.5,1
110,Aleksandr Zaytsev,Александр Зайцев,1980-04-06,,No,M,SBD,Multi-ply,102.4,Pro Open,300,325,340,340,,190,200,-207.5,200,,280,300,315,315,855,2
110,Denis Semenov,Денис Семенов,1974-04-27,,No,M,SBD,Multi-ply,107.5,Pro Open,320,-340,,320,,-240,240,250,250,,260,280,285,285,855,3
110,Dmitriy Merkulov,Дмитрий Меркулов,1974-08-21,,No,M,SBD,Multi-ply,104.7,Pro Open,320,340,350,350,,185,192.5,197.5,197.5,,290,300,-307.5,300,847.5,4
110,Konstantin Maltsev,Константин Мальцев,1974-10-13,,No,M,SBD,Multi-ply,108,Pro Open,290,305,312.5,312.5,,-220,220,-230,220,,300,-310,-310,300,832.5,5
110,Yuriy Tarasov,Юрий Тарасов,1972-01-18,,No,M,SBD,Multi-ply,108.9,Pro Open,-270,270,280,280,,185,195,202.5,202.5,,287.5,307.5,,307.5,790,6
125,Mikhail Glazunov,Михаил Глазунов,1974-02-09,,No,M,SBD,Multi-ply,120.7,Pro Open,340,365,375,375,,230,250,-260,250,,330,355,,355,980,1
125,Aleksey Brednev,Алексей Бреднев,1969-05-01,,No,M,SBD,Multi-ply,119,Pro Open,300,307.5,,307.5,,-210,-210,210,210,,-270,-270,-270,,,DQ
125,Ivan Kurpishev,Иван Курпишев,1969-03-02,,No,M,SBD,Multi-ply,120.8,Pro Open,335,-360,360,360,,-277.5,-277.5,-285,,,,,,,,DQ
125,Oleg Kuzmenko,Олег Кузьменко,1971-06-27,,No,M,SBD,Multi-ply,122.8,Pro Open,-290,290,-305,290,,,,,,,,,,,,DQ
140,Aleksey Yakimov,Алексей Якимов,1975-12-07,,No,M,SBD,Multi-ply,134.2,Pro Open,320,330,340,340,,-250,250,260,260,,310,320,,320,920,1
140+,Igor Nastynov,Игорь Настынов,1961-03-14,,No,M,SBD,Multi-ply,150.2,Pro Open,420,-470,-500,420,,-235,235,-260,235,,290,320,-345,320,975,1
67.5,Sergey Bychkov,Сергей Бычков,1964-11-29,,No,M,SBD,Multi-ply,62.5,Pro Masters 40-44,130,150,-160,150,,70,80,85,85,,160,175,-180,175,410,1
90,Sergey Menshchikov,Сергей Меньщиков,1964-03-21,,No,M,SBD,Multi-ply,89.2,Pro Masters 40-44,140,150,170,170,,-130,-130,145,145,,-130,140,-170,140,455,1
100,Viktor Zhidkin,Виктор Жидкин,1965-09-25,,No,M,SBD,Multi-ply,97.5,Pro Masters 40-44,310,-320,320,320,,-150,150,-160,150,,250,-270,,250,720,1
110,Vadim Pavlyuk,Вадим Павлюк,1966-01-02,,No,M,SBD,Multi-ply,110,Pro Masters 40-44,285,-300,300,300,,200,210,-220,210,,270,-285,-290,270,780,1
110,Vladimir Karpov,Владимир Карпов,1964-10-23,,No,M,SBD,Multi-ply,103.3,Pro Masters 40-44,-230,230,-250,230,,170,180,-190,180,,220,,,220,630,2
60,Oleg Dvoynikov,Олег Двойников,1960-10-08,,No,M,SBD,Multi-ply,59.6,Pro Masters 45-49,155,-160,162.5,162.5,,100,-102.5,-102.5,100,,175,185,192.5,192.5,455,1
90,Valeriy Nochvin,Валерий Ночвин,1960-11-06,,No,M,SBD,Multi-ply,87.5,Pro Masters 45-49,-270,-270,270,270,,205,212.5,,212.5,,240,260,270,270,752.5,1
100,Adit Shamsutdinov,Адит Шамсутдинов,1958-07-27,,No,M,SBD,Multi-ply,91.5,Pro Masters 45-49,250,-270,280,280,,120,130,140,140,,230,240,250,250,670,1
140+,Igor Nastynov,Игорь Настынов,1961-03-14,,No,M,SBD,Multi-ply,150.2,Pro Masters 45-49,420,-470,-500,420,,-235,235,-260,235,,290,320,-345,320,975,1
75,Aleksey Sedelkin,Алексей Седелкин,1951-05-08,,No,M,SBD,Multi-ply,74.8,Pro Masters 55-59,195,205,212.5,212.5,,105,-112.5,112.5,112.5,,195,205,-210,205,530,1
100,Evgeniy Khudoleev,Евгений Худолеев,1946-09-10,,No,M,SBD,Multi-ply,95.9,Pro Masters 60-64,-200,200,-225,200,,140,-155,155,155,,180,200,-210,200,555,1
67.5,Vasiliy Ankushin,Василий Анкушин,1939-02-18,,No,M,SBD,Multi-ply,66.8,Pro Masters 65-69,110,-125,130,130,,80,85,87.5,87.5,,145,155,160,160,377.5,1
