Division,WeightClassKg,Place,Name,Team,BodyweightKg,Best3SquatKg,Best3BenchKg,Best3DeadliftKg,TotalKg,Equipment,Event,Sex,BirthDate
Girls,51.94,1,Vanessa Marquez,Altair Rice,50.35,95.25,38.56,99.79,233.6,Single-ply,SBD,F,
Girls,51.94,2,Morgan King,La Grange,48.99,83.91,40.82,81.65,206.38,Single-ply,SBD,F,
Girls,51.94,3,Alondra Salinas,Bloomington,49.31,68.04,27.22,97.52,192.78,Single-ply,SBD,F,
Girls,56.02,1,Jenesis Flores,Altair Rice,55.79,92.99,36.29,102.06,231.33,Single-ply,SBD,F,
Girls,56.02,2,Reagan Nelson,Altair Rice,54.43,88.45,34.02,102.06,224.53,Single-ply,SBD,F,
Girls,60.1,1,Ja'Keia Williams,La Grange,59.87,113.4,56.7,117.93,288.03,Single-ply,SBD,F,
Girls,60.1,2,Maddy Diaz,Bloomington,59.47,104.33,34.02,113.4,251.74,Single-ply,SBD,F,
Girls,60.1,3,Shayla Tisdale,La Grange,59.87,74.84,34.02,83.91,192.78,Single-ply,SBD,F,
Girls,60.1,4,Heather Wookard,Hallettsville,59.87,54.43,36.29,70.31,161.03,Single-ply,SBD,F,
Girls,60.1,DQ,MaKayla Hernandez,Bloomington,59.78,,34.02,102.06,,Single-ply,SBD,F,
Girls,67.36,1,Kaylee Jones,La Grange,67.13,115.67,49.9,117.93,283.5,Single-ply,SBD,F,
Girls,67.36,2,Bradi Freeman,Altair Rice,62.6,136.08,43.09,102.06,281.23,Single-ply,SBD,F,
Girls,67.36,3,Lexi Vallone,Columbus,67.13,113.4,54.43,104.33,272.16,Single-ply,SBD,F,
Girls,67.36,4,Diamond Flores,Altair Rice,63.96,92.99,43.09,102.06,238.14,Single-ply,SBD,F,
Girls,67.36,5,Karlie Marek,Wallis Brazos,65.32,102.06,34.02,97.52,233.6,Single-ply,SBD,F,
Girls,67.36,6,Jessica Buford,Wallis Brazos,65.77,95.25,31.75,102.06,229.06,Single-ply,SBD,F,
Girls,67.36,7,Ja'Rie Logan,La Grange,65.32,86.18,34.02,86.18,206.38,Single-ply,SBD,F,
Girls,67.36,8,Isabel Henson,Wallis Brazos,64.86,70.31,31.75,90.72,192.78,Single-ply,SBD,F,
Girls,75.07,1,Summer Castro,Altair Rice,74.39,124.74,47.63,111.13,283.5,Single-ply,SBD,F,
Girls,75.07,2,Amree Williams,Hallettsville,74.03,108.86,54.43,102.06,265.35,Single-ply,SBD,F,
Girls,75.07,3,Zerainah Hoffman,La Grange,74.84,106.59,47.63,106.59,260.82,Single-ply,SBD,F,
Girls,75.07,4,Patricia Ellis,Altair Rice,68.95,104.33,38.56,106.59,249.48,Single-ply,SBD,F,
Girls,75.07,5,Saira Barrera,Hallettsville,70.31,83.91,36.29,92.99,213.19,Single-ply,SBD,F,
Girls,75.07,6,Samantha Delarosa,Hallettsville,68.49,79.38,36.29,86.18,201.85,Single-ply,SBD,F,
Girls,75.07,7,Danielle Johnson #2,Bloomington,74.98,68.04,31.75,99.79,199.58,Single-ply,SBD,F,
Girls,82.33,1,Diamon Perez,La Grange,77.11,111.13,58.97,111.13,281.23,Single-ply,SBD,F,
Girls,82.33,2,Arianna Resendiz,Hallettsville,82.15,95.25,43.09,122.47,260.82,Single-ply,SBD,F,
Girls,82.33,3,Kaitlin Rother,Hallettsville,82.19,113.4,52.16,95.25,260.82,Single-ply,SBD,F,
Girls,82.33,4,Morgan Daniel,Bloomington,79.47,90.72,34.02,108.86,233.6,Single-ply,SBD,F,
Girls,82.33,5,Elizabeth Hamilton,Wallis Brazos,79.38,92.99,36.29,95.25,224.53,Single-ply,SBD,F,
Girls,82.33,6,Janette Porch,Altair Rice,80.29,86.18,34.02,90.72,210.92,Single-ply,SBD,F,
Girls,90.04,1,Rayel Aiken,Altair Rice,89.36,127.01,47.63,136.08,310.71,Single-ply,SBD,F,
Girls,100.02,1,Maddie Stevens,La Grange,96.16,158.76,74.84,154.22,387.82,Single-ply,SBD,F,
Girls,100.02,2,Samantha Ferguson,Altair Rice,99.34,129.27,49.9,113.4,292.57,Single-ply,SBD,F,
Girls,100.02,3,Siriah Rodriguez,Altair Rice,98.88,129.27,47.63,108.86,285.76,Single-ply,SBD,F,
Girls,117.71,1,Jazmine Williams,Altair Rice,105.23,90.72,38.56,102.06,231.33,Single-ply,SBD,F,
Girls,,NS,Briley Rother,Hallettsville,,,,,,Single-ply,SBD,F,
Girls,,NS,Halie Gonzalez,Wallis Brazos,,,,,,Single-ply,SBD,F,
