Place,Name,BodyweightKg,Squat1Kg,Squat2Kg,Squat3Kg,Best3SquatKg,Bench1Kg,Bench2Kg,Bench3Kg,Best3BenchKg,Deadlift1Kg,Deadlift2Kg,Deadlift3Kg,Best3DeadliftKg,TotalKg,WeightClassKg,Sex,CyrillicName,BirthYear,Event,Equipment,Division
1,Aleksandr Starosta,44,77.5,80,-82.5,80,40,42.5,,42.5,85,90,-92.5,90,212.5,44,M,Олександр Староста,1981,SBD,Single-ply,Sub-Juniors
2,Ivan Gayfer,44,60,65,67.5,67.5,40,45,-47.5,45,90,97.5,100,100,212.5,44,M,Іван Гайфер,1978,SBD,Single-ply,Sub-Juniors
3,Grigoriy Sirenko,39.2,70,-75,75,75,37.5,42.5,-45,42.5,80,87.5,-92.5,87.5,205,44,M,Григорій Сіренко,1980,SBD,Single-ply,Sub-Juniors
4,Ivan Kudelya,40.9,50,55,65,65,30,35,40,40,-70,70,-80,70,175,44,M,Іван Куделя,1978,SBD,Single-ply,Sub-Juniors
1,Ivan Yalu,48,105,110,-115,110,65,70,-72.5,70,105,112.5,-122.5,112.5,292.5,48,M,Іван Ялу,1976,SBD,Single-ply,Sub-Juniors
2,Yuriy Brovdy,47.7,82.5,-87.5,90,90,40,42.5,-45,42.5,110,-115,120.5,120.5,253,48,M,Юрій Бровди,1979,SBD,Single-ply,Sub-Juniors
3,Andriy Kravetskiy,45.2,70,80,87.5,87.5,50,-55,-55,50,95,105,-117.5,105,242.5,48,M,Андрій Кравецький,1977,SBD,Single-ply,Sub-Juniors
1,Sergiy Mekshun,51.5,100,-110,110,110,50,57.5,,57.5,115,130,142.5,142.5,310,52,M,Сергій Мекшун,1978,SBD,Single-ply,Sub-Juniors
2,Gennadiy Minchev,52,100,107.5,-110,107.5,77.5,-82.5,-82.5,77.5,120,-125,125,125,310,52,M,Геннадій Мінчев,1978,SBD,Single-ply,Sub-Juniors
3,Bogdan Zhigalyuk,49.9,90,-95,95,95,50,-55,-55,50,110,-115,-115,110,255,52,M,Богдан Жигалюк,1980,SBD,Single-ply,Sub-Juniors
4,Yuriy Skok,51,80,90,,90,40,55,60,60,100,-120,-120,100,250,52,M,Юрій Скок,1977,SBD,Single-ply,Sub-Juniors
1,Dmytro Medvedev,55.6,107.5,115,-120,115,85,90,-92.5,90,140,145,155,155,360,56,M,Дмитро Медведєв,1976,SBD,Single-ply,Sub-Juniors
2,Sergiy Derevyanko,55.8,102.5,107.5,112.5,112.5,72.5,77.5,-80,77.5,145,-155,155,155,345,56,M,Сергій Дерев'янко,1977,SBD,Single-ply,Sub-Juniors
3,Oleg Gutsalo,55.45,115,-120,-120,115,80,-85,-85,80,130,140,-150,140,335,56,M,Олег Гуцало,1978,SBD,Single-ply,Sub-Juniors
4,Mykhaylo Kut,55.7,100,105,110,110,70,72.5,-75,72.5,-135,135,-145,135,317.5,56,M,Михайло Кут,1976,SBD,Single-ply,Sub-Juniors
5,Dmytro Yanchukov,54.2,-110,110,-112.5,110,55,60,-62.5,60,115,125,,125,295,56,M,Дмитро Янчуков,1977,SBD,Single-ply,Sub-Juniors
1,Stepan Ovcharenko,58.5,180,-190,-190,180,100,107.5,110.5,110.5,200,-215,215,215,505.5,60,M,Степан Овчаренко,1976,SBD,Single-ply,Sub-Juniors
2,Dmytro Krokhmal',59.3,165,175,180,180,100,105,107.5,107.5,175,187.5,190,190,477.5,60,M,Дмитро Крохмаль,1975,SBD,Single-ply,Sub-Juniors
3,Ivan Ischenko,60,110,120,-130,120,77.5,82.5,85,85,180,190,-195,190,395,60,M,Іван Іщенко,1975,SBD,Single-ply,Sub-Juniors
4,Mykhailo Buletsa,59.9,135,145,-150,145,80,-85,-85,80,140,150,160,160,385,60,M,Михайло Булеца,1977,SBD,Single-ply,Sub-Juniors
5,Vitaliy Guschevatyy,60,140,-150,-155,140,95,-100,-100,95,140,-150,-150,140,375,60,M,Віталій Гущеватий,1976,SBD,Single-ply,Sub-Juniors
6,Andriy Zabozhnyy,57.7,140,-150,-150,140,70,75,-77.5,75,130,135,140,140,355,60,M,Андрій Забожний,1978,SBD,Single-ply,Sub-Juniors
7,Ruslan Gavrilov,57.1,105,110,-117.5,110,75,80,-82.5,80,130,140,145,145,335,60,M,Руслан Гаврилов,1977,SBD,Single-ply,Sub-Juniors
1,Igor Ivanchenko,67.1,170,177.5,182.5,182.5,115,-120,-120,115,210,220.5,-237.5,220.5,518,67.5,M,Ігор Іванченко,1975,SBD,Single-ply,Sub-Juniors
2,Oleksandr Doroshenko,65.7,150,-162.5,167.5,167.5,80,87.5,-90,87.5,185,195,205,205,460,67.5,M,Олександр Дорошенко,1977,SBD,Single-ply,Sub-Juniors
3,Oleksiy Bykov,65.9,150,-157.5,160,160,95,100,102.5,102.5,170,175,182.5,182.5,445,67.5,M,Олексій Биков,1976,SBD,Single-ply,Sub-Juniors
4,Sergiy Polikhun,65.9,150,162.5,167.5,167.5,-110,-115,115,115,145,152.5,160,160,442.5,67.5,M,Сергій Поліхун,1977,SBD,Single-ply,Sub-Juniors
5,Dmytro Chekh,65.5,122.5,-130,130,130,87.5,92.5,95,95,150,165,170,170,395,67.5,M,Дмитро Чех,1977,SBD,Single-ply,Sub-Juniors
6,Eduard Kolganov,63.4,120,130,145,145,70,-75,75,75,140,155,165,165,385,67.5,M,Едуард Колганов,1979,SBD,Single-ply,Sub-Juniors
7,Yuriy Radchenko #1,66.65,110,120,-130,120,90,-100,-100,90,130,140,150,150,360,67.5,M,Юрій Радченко,1977,SBD,Single-ply,Sub-Juniors
8,Ruslan Panchenko,67.1,110,120,-130,120,67.5,75,-77.5,75,130,140,150,150,345,67.5,M,Руслан Панченко,1977,SBD,Single-ply,Sub-Juniors
DQ,Vitaliy Kosov,64.4,80,100,-110,100,-70,-70,,,,,,,,67.5,M,Віталій Косов,1976,SBD,Single-ply,Sub-Juniors
1,Viktor Khurudzhi,74.3,235,-245,-245,235,145,-150.5,150.5,150.5,220,230,235,235,620.5,75,M,Віктор Хуруджи,1975,SBD,Single-ply,Sub-Juniors
2,Oleksandr Burekhin,74.4,205,220,230,230,105,112.5,117.5,117.5,215,225,237.5,237.5,585,75,M,Олександр Бурехін,1977,SBD,Single-ply,Sub-Juniors
3,Volodymyr Glevatskiy,74.7,200,210,-215,210,135,140,145,145,200,210,-220,210,565,75,M,Володимир Глевацький,1975,SBD,Single-ply,Sub-Juniors
4,Sergey Voytovich,73.2,180,195,202.5,202.5,110,117.5,120,120,170,182.5,190,190,512.5,75,M,Сергій Войтович,1977,SBD,Single-ply,Sub-Juniors
5,Taras Gayday,73,170,180,-185,180,110,115,117.5,117.5,170,180,190,190,487.5,75,M,Тарас Гайдай,1976,SBD,Single-ply,Sub-Juniors
6,Leonid Tymchenko,72.3,-160,165,-175,165,90,-95,,90,195,205,-220,205,460,75,M,Леонід Тимченко,1976,SBD,Single-ply,Sub-Juniors
7,Olexandr Tolochko,74.9,140,-150,150,150,95,-100,100,100,150,160,-165,160,410,75,M,Олександр Толочко,1976,SBD,Single-ply,Sub-Juniors
8,Dmytro Pyatetskiy,71.3,105,125,140,140,-67.5,67.5,72.5,72.5,110,120,135,135,347.5,75,M,Дмитро Пятецький,1979,SBD,Single-ply,Sub-Juniors
1,Gennadiy Zakladnoy,81.7,225,235,-240,235,175,-180,-180,175,210,-220,230,230,640,82.5,M,Геннадій Закладной,1976,SBD,Single-ply,Sub-Juniors
2,Sergiy Savyak,81.8,230,240,-250,240,120,125,-130,125,210,220,230,230,595,82.5,M,Сергій Савяк,1976,SBD,Single-ply,Sub-Juniors
3,Oleg Movchan,81.5,185,195,202.5,202.5,130,137.5,-140,137.5,200,210,-215,210,550,82.5,M,Олег Мовчан,1975,SBD,Single-ply,Sub-Juniors
4,Maksim Soskin,81.4,145,152.5,160,160,107.5,112.5,-115,112.5,175,185,192.5,192.5,465,82.5,M,Максим Соскін,1975,SBD,Single-ply,Sub-Juniors
5,Yevgen Rokochyy,78.05,145,155,160,160,95,-100,100,100,180,190,-197.5,190,450,82.5,M,Євген Рокочий,1976,SBD,Single-ply,Sub-Juniors
6,Vladislav Maksimenko,81,140,-150,-150,140,100,110,-115,110,160,170,-175,170,420,82.5,M,Владислав Максименко,1977,SBD,Single-ply,Sub-Juniors
1,Denys Cherednyk,87.3,255,-265,-270,255,150,157.5,-160,157.5,255,-273,-273,255,667.5,90,M,Денис Чередник,1975,SBD,Single-ply,Sub-Juniors
2,Andriy Kireev,87.6,210,-220,-220,210,130,-137.5,-137.5,130,225,235,247.5,247.5,587.5,90,M,Андрій Кіреєв,1975,SBD,Single-ply,Sub-Juniors
3,Volodymyr Muravlyov,88.2,-170,175,185,185,140,147.5,152.5,152.5,225,235,-245,235,572.5,90,M,Володимир Муравльов,1975,SBD,Single-ply,Sub-Juniors
4,Andriy Gorbach,89,190,200,,200,-100,105,-112.5,105,-200,215,230,230,535,90,M,Андрій Горбач,1976,SBD,Single-ply,Sub-Juniors
5,Sergiy Kozyura,89.25,170,180,190,190,102.5,110,115,115,195,202.5,222.5,222.5,527.5,90,M,Сергій Козюра,1976,SBD,Single-ply,Sub-Juniors
6,Dmytro Malyarets,82.9,185,200,-215,200,115,125,-130,125,185,190,200,200,525,90,M,Дмитро Малярець,1977,SBD,Single-ply,Sub-Juniors
7,Roman Gudz,88.9,-160,160,175,175,105,115,-120,115,190,200,205,205,495,90,M,Роман Гудзь,1976,SBD,Single-ply,Sub-Juniors
8,Ruslan Dubchenok,85,-160,165,-175,165,-105,105,-110,105,170,-185,185,185,455,90,M,Руслан Дубченок,1975,SBD,Single-ply,Sub-Juniors
9,Oleksiy Morozov,84.7,95,105,115,115,70,75,-77.5,75,110,120,125,125,315,90,M,Олексій Морозов,1979,SBD,Single-ply,Sub-Juniors
1,Oleg Gavrish,93.5,220,235,240,240,120,-135,-135,120,220,230,,230,590,100,M,Олег Гавриш,1975,SBD,Single-ply,Sub-Juniors
2,Oleksandr Shtundak,98.9,210,220,-230,220,130,140,145,145,-210,210,-232.5,210,575,100,M,Олександр Штундак,1975,SBD,Single-ply,Sub-Juniors
3,Anatoliy Sobol,93.75,165,175,180,180,90,100,-102.5,100,195,205,-210,205,485,100,M,Анатолій Соболь,1976,SBD,Single-ply,Sub-Juniors
1,Oleksandr Sereda,110.3,-180,180,-190,180,130,140,,140,190,210,-215,210,530,125,M,Олександр Середа,1975,SBD,Single-ply,Sub-Juniors
1,Yana Petrenko,34.4,55,60,62.5,62.5,30,35,-37.5,35,75,-80,-80,75,172.5,36,F,Яна Петренко,1981,SBD,Single-ply,Sub-Juniors
2,Zhanna Ivanova,25.8,45,50,-55,50,27.5,30,-32.5,30,50,55,60,60,140,36,F,Жанна Иванова,1984,SBD,Single-ply,Sub-Juniors
1,Ninel' Legeschits,40,30,35,40,40,22.5,25,-27.5,25,-62.5,-62.5,62.5,62.5,127.5,40,F,Нінель Легещиць,1976,SBD,Single-ply,Sub-Juniors
1,Natalya Krasnoschekova,43.3,75,80.5,-82.5,80.5,-35,37.5,-40,37.5,85,90,95,95,213,44,F,Наталя Краснощекова,1980,SBD,Single-ply,Sub-Juniors
2,Olga Primakova,43.65,65,70,72.5,72.5,52.5,-55,55,55,75,80,-85,80,207.5,44,F,Ольга Примакова,1981,SBD,Single-ply,Sub-Juniors
3,Svitlana Strakhanova,41,40,47.5,50,50,25,-30,-30,25,-60,60,,60,135,44,F,Світлана Страханова,1979,SBD,Single-ply,Sub-Juniors
1,Yevgeniya Filippova,45,75,-80,80,80,37.5,40,42.5,42.5,-95,95,100,100,222.5,48,F,Євгенія Філіппова,1975,SBD,Single-ply,Sub-Juniors
2,Natalya Cherna,45.8,-45,45,50,50,30,32.5,-35,32.5,70,-77.5,77.5,77.5,160,48,F,Наталя Чорна,1975,SBD,Single-ply,Sub-Juniors
3,Natalya Tanchinets,47,45,-50,-50,45,17.5,25,-27.5,25,-72.5,72.5,75,75,145,48,F,Наталя Танчинець,1976,SBD,Single-ply,Sub-Juniors
1,Inna Ivleva,51.2,90,100,107.5,107.5,45,50,-52.5,50,120,130,-137.5,130,287.5,52,F,Інна Івлєва,1976,SBD,Single-ply,Sub-Juniors
2,Ludmyla Titova,51.2,92.5,97.5,-105,97.5,45,47.5,50,50,110,115,117.5,117.5,265,52,F,Людмила Титова,1978,SBD,Single-ply,Sub-Juniors
3,Luciena Andresyuk,51.9,-70,70,75,75,40,-42.5,-42.5,40,105,115,117.5,117.5,232.5,52,F,Люсьєна Андресюк,1977,SBD,Single-ply,Sub-Juniors
4,Viktoriya Vaschenok,50.5,75,85,-92.5,85,40,-45,-45,40,80,90,-105,90,215,52,F,Вікторія Ващенок,1977,SBD,Single-ply,Sub-Juniors
DQ,Yuliya Bannikova,51,70,-75,75,75,30,35,-37.5,35,-100,-100,-100,,,52,F,Юлія Баннікова,1977,SBD,Single-ply,Sub-Juniors
1,Natalya Ship,54.3,105,115,,115,50,55,-57.5,55,105,110,-115,110,280,56,F,Наталя Шип,1976,SBD,Single-ply,Sub-Juniors
2,Inessa Irzhakovska,55.5,70,77.5,82.5,82.5,35,-40,-40,35,90,97.5,-100,97.5,215,56,F,Інесса Іржаковська,1976,SBD,Single-ply,Sub-Juniors
1,Natalya Gudymenko,57.5,97.5,102.5,107.5,107.5,45,47.5,50,50,95,102.5,107.5,107.5,265,60,F,Наталя Гудименко,1978,SBD,Single-ply,Sub-Juniors
2,Svitlana Ivaschenko,58.2,65,70,-75,70,30,-35,-35,30,75,-80,85,85,185,60,F,Світлана Іващенко,1976,SBD,Single-ply,Sub-Juniors
1,Inna Andriyevska,63.5,-80,80,-95,80,40,45,-47.5,45,110,120,,120,245,67.5,F,Інна Андрієвська,1975,SBD,Single-ply,Sub-Juniors
DQ,Olena Pylypenko,67.1,60,70,-75,70,-40,-40,-40,,,,,,,67.5,F,Олена Пилипенко,1977,SBD,Single-ply,Sub-Juniors
1,Iryna Tryfonova,71.7,110,115,-120,115,55,-60,-60,55,120,125,-130,125,295,75,F,Ірина Трифонова,1976,SBD,Single-ply,Sub-Juniors
1,Maryna Golovatyuk,75.5,90,100,105,105,30,-35,35,35,105,115,-125,115,255,82.5,F,Марина Головатюк,1977,SBD,Single-ply,Sub-Juniors
